s,Volts,s,Volts
         -10, -5.03999996,         -10,-0.0500000007
       -9.98, -5.03999996,       -9.98,-0.0500000007
       -9.96, -5.03999996,       -9.96,-0.0500000007
       -9.94, -5.03999996,       -9.94,-0.0500000007
       -9.92, -5.03999996,       -9.92,-0.0500000007
        -9.9, -5.03999996,        -9.9,-0.0500000007
       -9.88, -5.03999996,       -9.88,-0.0500000007
       -9.86, -5.03999996,       -9.86,-0.0500000007
       -9.84, -5.03999996,       -9.84,-0.0500000007
       -9.82, -5.03999996,       -9.82,-0.0500000007
        -9.8, -5.03999996,        -9.8,-0.0500000007
       -9.78, -5.03999996,       -9.78,-0.0500000007
       -9.76, -5.03999996,       -9.76,-0.0500000007
       -9.74, -5.03999996,       -9.74,-0.0500000007
       -9.72, -5.03999996,       -9.72,-0.0500000007
        -9.7, -5.03999996,        -9.7,-0.0500000007
       -9.68, -5.03999996,       -9.68,-0.0500000007
       -9.66, -5.03999996,       -9.66,-0.0500000007
       -9.64, -5.03999996,       -9.64,-0.0500000007
       -9.62, -5.03999996,       -9.62,-0.0500000007
        -9.6, -5.03999996,        -9.6,-0.0500000007
       -9.58, -5.03999996,       -9.58,-0.0500000007
       -9.56, -5.03999996,       -9.56,-0.0500000007
       -9.54, -5.03999996,       -9.54,-0.0500000007
       -9.52, -5.03999996,       -9.52,-0.0500000007
        -9.5, -5.03999996,        -9.5,-0.0500000007
       -9.48, -5.03999996,       -9.48,-0.0500000007
       -9.46, -5.03999996,       -9.46,-0.0500000007
       -9.44, -5.03999996,       -9.44,-0.0500000007
       -9.42, -5.03999996,       -9.42,-0.0500000007
        -9.4, -5.03999996,        -9.4,-0.0500000007
       -9.38, -5.03999996,       -9.38,-0.0500000007
       -9.36, -5.03999996,       -9.36,-0.0500000007
       -9.34, -5.03999996,       -9.34,-0.0500000007
       -9.32, -5.03999996,       -9.32,-0.0500000007
        -9.3, -5.03999996,        -9.3,-0.0500000007
       -9.28, -5.03999996,       -9.28,-0.0500000007
       -9.26, -5.03999996,       -9.26,-0.0500000007
       -9.24, -5.03999996,       -9.24,-0.0500000007
       -9.22, -5.03999996,       -9.22,-0.0500000007
        -9.2, -5.03999996,        -9.2,-0.0500000007
       -9.18, -5.03999996,       -9.18,-0.0500000007
       -9.16, -5.03999996,       -9.16,-0.0500000007
       -9.14, -5.03999996,       -9.14,-0.0500000007
       -9.12, -5.03999996,       -9.12,-0.0500000007
        -9.1, -5.03999996,        -9.1,-0.0500000007
       -9.08, -5.03999996,       -9.08,-0.0500000007
       -9.06, -5.03999996,       -9.06,-0.0500000007
       -9.04, -5.03999996,       -9.04,-0.0500000007
       -9.02, -5.03999996,       -9.02,-0.0500000007
          -9, -5.03999996,          -9,-0.0500000007
       -8.98, -5.03999996,       -8.98,-0.0500000007
       -8.96, -5.03999996,       -8.96,-0.0500000007
       -8.94, -5.03999996,       -8.94,-0.0500000007
       -8.92, -5.03999996,       -8.92,-0.0500000007
        -8.9, -5.03999996,        -8.9,-0.0500000007
       -8.88, -5.03999996,       -8.88,-0.0500000007
       -8.86, -5.03999996,       -8.86,-0.0500000007
       -8.84, -5.03999996,       -8.84,-0.0500000007
       -8.82, -5.03999996,       -8.82,-0.0500000007
        -8.8, -5.03999996,        -8.8,-0.0500000007
       -8.78, -5.03999996,       -8.78,-0.0500000007
       -8.76, -5.03999996,       -8.76,-0.0500000007
       -8.74, -5.03999996,       -8.74,-0.0500000007
       -8.72, -5.03999996,       -8.72,-0.0500000007
        -8.7, -5.03999996,        -8.7,-0.0500000007
       -8.68, -5.03999996,       -8.68,-0.0500000007
       -8.66, -5.03999996,       -8.66,-0.0500000007
       -8.64, -5.03999996,       -8.64,-0.0500000007
       -8.62, -5.03999996,       -8.62,-0.0500000007
        -8.6, -5.03999996,        -8.6,-0.0500000007
       -8.58, -5.03999996,       -8.58,-0.0500000007
       -8.56, -5.03999996,       -8.56,-0.0500000007
       -8.54, -5.03999996,       -8.54,-0.0500000007
       -8.52, -5.03999996,       -8.52,-0.0500000007
        -8.5, -5.03999996,        -8.5,-0.0500000007
       -8.48, -5.03999996,       -8.48,-0.0500000007
       -8.46, -5.03999996,       -8.46,-0.0500000007
       -8.44, -5.03999996,       -8.44,-0.0500000007
       -8.42, -5.03999996,       -8.42,-0.0500000007
        -8.4, -5.03999996,        -8.4,-0.0500000007
       -8.38, -5.03999996,       -8.38,-0.0500000007
       -8.36, -5.03999996,       -8.36,-0.0500000007
       -8.34, -5.03999996,       -8.34,-0.0500000007
       -8.32, -5.03999996,       -8.32,-0.0500000007
        -8.3, -5.03999996,        -8.3,-0.0500000007
       -8.28, -5.03999996,       -8.28,-0.0500000007
       -8.26, -5.03999996,       -8.26,-0.0500000007
       -8.24, -5.03999996,       -8.24,-0.0500000007
       -8.22, -5.03999996,       -8.22,-0.0500000007
        -8.2, -5.03999996,        -8.2,-0.0500000007
       -8.18, -5.03999996,       -8.18,-0.0500000007
       -8.16, -5.03999996,       -8.16,-0.0500000007
       -8.14, -5.03999996,       -8.14,-0.0500000007
       -8.12, -5.03999996,       -8.12,-0.0500000007
        -8.1, -5.03999996,        -8.1,-0.0500000007
       -8.08, -5.03999996,       -8.08,-0.0500000007
       -8.06, -5.03999996,       -8.06,-0.0500000007
       -8.04, -5.03999996,       -8.04,-0.0500000007
       -8.02, -5.03999996,       -8.02,-0.0500000007
          -8, -5.03999996,          -8,-0.0500000007
       -7.98, -5.03999996,       -7.98,-0.0500000007
       -7.96, -5.03999996,       -7.96,-0.0500000007
       -7.94, -5.03999996,       -7.94,-0.0500000007
       -7.92, -5.03999996,       -7.92,-0.0500000007
        -7.9, -5.03999996,        -7.9,-0.0500000007
       -7.88, -5.03999996,       -7.88,-0.0500000007
       -7.86, -5.03999996,       -7.86,-0.0500000007
       -7.84, -5.03999996,       -7.84,-0.0500000007
       -7.82, -5.03999996,       -7.82,-0.0500000007
        -7.8, -5.03999996,        -7.8,-0.0500000007
       -7.78, -5.03999996,       -7.78,-0.0500000007
       -7.76, -5.03999996,       -7.76,-0.0500000007
       -7.74, -5.03999996,       -7.74,-0.0500000007
       -7.72, -5.03999996,       -7.72,-0.0500000007
        -7.7, -5.03999996,        -7.7,-0.0500000007
       -7.68, -5.03999996,       -7.68,-0.0500000007
       -7.66, -5.03999996,       -7.66,-0.0500000007
       -7.64, -5.03999996,       -7.64,-0.0500000007
       -7.62, -5.03999996,       -7.62,-0.0500000007
        -7.6, -5.03999996,        -7.6,-0.0500000007
       -7.58, -5.03999996,       -7.58,-0.0500000007
       -7.56, -5.03999996,       -7.56,-0.0500000007
       -7.54, -5.03999996,       -7.54,-0.0500000007
       -7.52, -5.03999996,       -7.52,-0.0500000007
        -7.5, -5.03999996,        -7.5,-0.0500000007
       -7.48, -5.03999996,       -7.48,-0.0500000007
       -7.46, -5.03999996,       -7.46,-0.0500000007
       -7.44, -5.03999996,       -7.44,-0.0500000007
       -7.42, -5.03999996,       -7.42,-0.0500000007
        -7.4, -5.03999996,        -7.4,-0.0500000007
       -7.38, -5.03999996,       -7.38,-0.0500000007
       -7.36, -5.03999996,       -7.36,-0.0500000007
       -7.34, -5.03999996,       -7.34,-0.0500000007
       -7.32, -5.03999996,       -7.32,-0.0500000007
        -7.3, -5.03999996,        -7.3,-0.0500000007
       -7.28, -5.03999996,       -7.28,-0.0500000007
       -7.26, -5.03999996,       -7.26,-0.0500000007
       -7.24, -5.03999996,       -7.24,-0.0500000007
       -7.22, -5.03999996,       -7.22,-0.0500000007
        -7.2, -5.03999996,        -7.2,-0.0500000007
       -7.18, -5.03999996,       -7.18,-0.0500000007
       -7.16, -5.03999996,       -7.16,-0.0500000007
       -7.14, -5.03999996,       -7.14,-0.0500000007
       -7.12, -5.03999996,       -7.12,-0.0500000007
        -7.1, -5.03999996,        -7.1,-0.0500000007
       -7.08, -5.03999996,       -7.08,-0.0500000007
       -7.06, -5.03999996,       -7.06,-0.0500000007
       -7.04, -5.03999996,       -7.04,-0.0500000007
       -7.02, -5.03999996,       -7.02,-0.0500000007
          -7, -5.03999996,          -7,-0.0500000007
       -6.98, -5.03999996,       -6.98,-0.0500000007
       -6.96, -5.03999996,       -6.96,-0.0500000007
       -6.94, -5.03999996,       -6.94,-0.0500000007
       -6.92, -5.03999996,       -6.92,-0.0500000007
        -6.9, -5.03999996,        -6.9,-0.0500000007
       -6.88, -5.03999996,       -6.88,-0.0500000007
       -6.86, -5.03999996,       -6.86,-0.0500000007
       -6.84, -5.03999996,       -6.84,-0.0500000007
       -6.82, -5.03999996,       -6.82,-0.0500000007
        -6.8, -5.03999996,        -6.8,-0.0500000007
       -6.78, -5.03999996,       -6.78,-0.0500000007
       -6.76, -5.03999996,       -6.76,-0.0500000007
       -6.74, -5.03999996,       -6.74,-0.0500000007
       -6.72, -5.03999996,       -6.72,-0.0500000007
        -6.7, -5.03999996,        -6.7,-0.0500000007
       -6.68, -5.03999996,       -6.68,-0.0500000007
       -6.66, -5.03999996,       -6.66,-0.0500000007
       -6.64, -5.03999996,       -6.64,-0.0500000007
       -6.62, -5.03999996,       -6.62,-0.0500000007
        -6.6, -5.03999996,        -6.6,-0.0500000007
       -6.58, -5.03999996,       -6.58,-0.0500000007
       -6.56, -5.03999996,       -6.56,-0.0500000007
       -6.54, -5.03999996,       -6.54,-0.0500000007
       -6.52, -5.03999996,       -6.52,-0.0500000007
        -6.5, -5.03999996,        -6.5,-0.0500000007
       -6.48, -5.03999996,       -6.48,-0.0500000007
       -6.46, -5.03999996,       -6.46,-0.0500000007
       -6.44, -5.03999996,       -6.44,-0.0500000007
       -6.42, -5.03999996,       -6.42,-0.0500000007
        -6.4, -5.03999996,        -6.4,-0.0500000007
       -6.38, -5.03999996,       -6.38,-0.0500000007
       -6.36, -5.03999996,       -6.36,-0.0500000007
       -6.34, -5.03999996,       -6.34,-0.0500000007
       -6.32, -5.03999996,       -6.32,-0.0500000007
        -6.3, -5.03999996,        -6.3,-0.0500000007
       -6.28, -5.03999996,       -6.28,-0.0500000007
       -6.26, -5.03999996,       -6.26,-0.0500000007
       -6.24, -5.03999996,       -6.24,-0.0500000007
       -6.22, -5.03999996,       -6.22,-0.0500000007
        -6.2, -5.03999996,        -6.2,-0.0500000007
       -6.18, -5.03999996,       -6.18,-0.0500000007
       -6.16, -5.03999996,       -6.16,-0.0500000007
       -6.14, -5.03999996,       -6.14,-0.0500000007
       -6.12, -5.03999996,       -6.12,-0.0500000007
        -6.1, -5.03999996,        -6.1,-0.0500000007
       -6.08, -5.03999996,       -6.08,-0.0500000007
       -6.06, -5.03999996,       -6.06,-0.0500000007
       -6.04, -5.03999996,       -6.04,-0.0500000007
       -6.02, -5.03999996,       -6.02,-0.0500000007
          -6, -5.03999996,          -6,-0.0500000007
       -5.98, -5.03999996,       -5.98,-0.0500000007
       -5.96, -5.03999996,       -5.96,-0.0500000007
       -5.94, -5.03999996,       -5.94,-0.0500000007
       -5.92, -5.03999996,       -5.92,-0.0500000007
        -5.9, -5.03999996,        -5.9,-0.0500000007
       -5.88, -5.03999996,       -5.88,-0.0500000007
       -5.86, -5.03999996,       -5.86,-0.0500000007
       -5.84, -5.03999996,       -5.84,-0.0500000007
       -5.82, -5.03999996,       -5.82,-0.0500000007
        -5.8, -5.03999996,        -5.8,-0.0500000007
       -5.78, -5.03999996,       -5.78,-0.0500000007
       -5.76, -5.03999996,       -5.76,-0.0500000007
       -5.74, -5.03999996,       -5.74,-0.0500000007
       -5.72, -5.03999996,       -5.72,-0.0500000007
        -5.7, -5.03999996,        -5.7,-0.0500000007
       -5.68, -5.03999996,       -5.68,-0.0500000007
       -5.66, -5.03999996,       -5.66,-0.0500000007
       -5.64, -5.03999996,       -5.64,-0.0500000007
       -5.62, -5.03999996,       -5.62,-0.0500000007
        -5.6, -5.03999996,        -5.6,-0.0500000007
       -5.58, -5.03999996,       -5.58,-0.0500000007
       -5.56, -5.03999996,       -5.56,-0.0500000007
       -5.54, -5.03999996,       -5.54,-0.0500000007
       -5.52, -5.03999996,       -5.52,-0.0500000007
        -5.5, -5.03999996,        -5.5,-0.0500000007
       -5.48, -5.03999996,       -5.48,-0.0500000007
       -5.46, -5.03999996,       -5.46,-0.0500000007
       -5.44, -5.03999996,       -5.44,-0.0500000007
       -5.42, -5.03999996,       -5.42,-0.0500000007
        -5.4, -5.03999996,        -5.4,-0.0500000007
       -5.38, -5.03999996,       -5.38,-0.0500000007
       -5.36, -5.03999996,       -5.36,-0.0500000007
       -5.34, -5.03999996,       -5.34,-0.0500000007
       -5.32, -5.03999996,       -5.32,-0.0500000007
        -5.3, -5.03999996,        -5.3,-0.0500000007
       -5.28, -5.03999996,       -5.28,-0.0500000007
       -5.26, -5.03999996,       -5.26,-0.0500000007
       -5.24, -5.03999996,       -5.24,-0.0500000007
       -5.22, -5.03999996,       -5.22,-0.0500000007
        -5.2, -5.03999996,        -5.2,-0.0500000007
       -5.18, -5.03999996,       -5.18,-0.0500000007
       -5.16, -5.03999996,       -5.16,-0.0500000007
       -5.14, -5.03999996,       -5.14,-0.0500000007
       -5.12, -5.03999996,       -5.12,-0.0500000007
        -5.1, -5.03999996,        -5.1,-0.0500000007
       -5.08, -5.03999996,       -5.08,-0.0500000007
       -5.06, -5.03999996,       -5.06,-0.0500000007
       -5.04, -5.03999996,       -5.04,-0.0500000007
       -5.02, -5.03999996,       -5.02,-0.0500000007
          -5, -5.03999996,          -5,-0.0500000007
       -4.98, -5.03999996,       -4.98,-0.0500000007
       -4.96, -5.03999996,       -4.96,-0.0500000007
       -4.94, -5.03999996,       -4.94,-0.0500000007
       -4.92, -5.03999996,       -4.92,-0.0500000007
        -4.9, -5.03999996,        -4.9,-0.0500000007
       -4.88, -5.03999996,       -4.88,-0.0500000007
       -4.86,-0.119999997,       -4.86,0.0236000009
       -4.84,-0.119999997,       -4.84,0.0223999992
       -4.82,-0.119999997,       -4.82,0.0231999997
        -4.8,-0.119999997,        -4.8,0.0228000004
       -4.78,-0.119999997,       -4.78,0.0231999997
       -4.76,-0.159999996,       -4.76,0.0216000006
       -4.74,-0.159999996,       -4.74,0.0223999992
       -4.72,-0.119999997,       -4.72,0.0236000009
        -4.7,-0.119999997,        -4.7,0.0223999992
       -4.68,-0.119999997,       -4.68,0.0223999992
       -4.66,-0.159999996,       -4.66,0.0196000002
       -4.64,-0.119999997,       -4.64,0.0255999994
       -4.62,-0.0799999982,       -4.62,0.0216000006
        -4.6,-0.159999996,        -4.6,0.0228000004
       -4.58,-0.159999996,       -4.58,0.0219999999
       -4.56,-0.119999997,       -4.56,0.0204000007
       -4.54,-0.159999996,       -4.54,0.0216000006
       -4.52,-0.119999997,       -4.52,0.0208000001
        -4.5,-0.119999997,        -4.5,0.0219999999
       -4.48,-0.159999996,       -4.48,0.0275999997
       -4.46,-0.119999997,       -4.46,0.0236000009
       -4.44,-0.119999997,       -4.44,0.0240000002
       -4.42,-0.159999996,       -4.42,0.0223999992
        -4.4,-0.0799999982,        -4.4,0.0240000002
       -4.38,-0.159999996,       -4.38,0.0204000007
       -4.36,-0.159999996,       -4.36,0.0223999992
       -4.34,-0.159999996,       -4.34,0.0211999994
       -4.32,-0.159999996,       -4.32,0.0196000002
        -4.3,-0.119999997,        -4.3,0.0228000004
       -4.28,-0.119999997,       -4.28,0.0204000007
       -4.26,-0.119999997,       -4.26,0.0231999997
       -4.24,-0.119999997,       -4.24,0.0263999999
       -4.22,-0.159999996,       -4.22,0.0219999999
        -4.2,-0.119999997,        -4.2,0.0228000004
       -4.18,-0.119999997,       -4.18,0.0240000002
       -4.16,-0.119999997,       -4.16,0.0208000001
       -4.14,-0.0799999982,       -4.14,      0.0252
       -4.12,-0.119999997,       -4.12,0.0255999994
        -4.1,-0.159999996,        -4.1,0.0208000001
       -4.08,-0.119999997,       -4.08,0.0223999992
       -4.06,-0.119999997,       -4.06,0.0228000004
       -4.04,-0.119999997,       -4.04,0.0211999994
       -4.02,-0.119999997,       -4.02,0.0231999997
          -4,-0.159999996,          -4,0.0228000004
       -3.98,-0.119999997,       -3.98,0.0243999995
       -3.96,-0.119999997,       -3.96,0.0243999995
       -3.94,-0.119999997,       -3.94,0.0231999997
       -3.92,-0.119999997,       -3.92,0.0223999992
        -3.9,-0.0799999982,        -3.9,0.0255999994
       -3.88,-0.119999997,       -3.88,0.0248000007
       -3.86,-0.159999996,       -3.86,0.0272000004
       -3.84,-0.159999996,       -3.84,0.0263999999
       -3.82,-0.159999996,       -3.82,0.0231999997
        -3.8,-0.119999997,        -3.8,0.0243999995
       -3.78,-0.119999997,       -3.78,0.0236000009
       -3.76,-0.159999996,       -3.76,0.0272000004
       -3.74,-0.0799999982,       -3.74,0.0236000009
       -3.72,-0.119999997,       -3.72,0.0231999997
        -3.7,-0.119999997,        -3.7,0.0223999992
       -3.68,-0.119999997,       -3.68,0.0223999992
       -3.66,-0.159999996,       -3.66,0.0243999995
       -3.64,-0.119999997,       -3.64,0.0248000007
       -3.62,-0.119999997,       -3.62,0.0216000006
        -3.6,-0.119999997,        -3.6,0.0240000002
       -3.58,-0.119999997,       -3.58,0.0192000009
       -3.56,-0.119999997,       -3.56,0.0219999999
       -3.54,-0.119999997,       -3.54,0.0219999999
       -3.52,-0.119999997,       -3.52,0.0196000002
        -3.5,-0.119999997,        -3.5,0.0211999994
       -3.48,-0.119999997,       -3.48,0.0219999999
       -3.46,-0.119999997,       -3.46,0.0223999992
       -3.44,-0.159999996,       -3.44,0.0228000004
       -3.42,-0.159999996,       -3.42,0.0240000002
        -3.4,-0.119999997,        -3.4,0.0219999999
       -3.38,-0.119999997,       -3.38,0.0208000001
       -3.36,-0.0799999982,       -3.36,0.0223999992
       -3.34,-0.0799999982,       -3.34,0.0243999995
       -3.32,-0.119999997,       -3.32,0.0184000004
        -3.3,-0.119999997,        -3.3,0.0236000009
       -3.28,-0.119999997,       -3.28,0.0231999997
       -3.26,-0.159999996,       -3.26,0.0216000006
       -3.24,-0.119999997,       -3.24,0.0231999997
       -3.22,-0.119999997,       -3.22,0.0219999999
        -3.2,-0.119999997,        -3.2,0.0243999995
       -3.18,-0.159999996,       -3.18,0.0240000002
       -3.16,-0.119999997,       -3.16,0.0260000005
       -3.14,-0.119999997,       -3.14,0.0216000006
       -3.12,-0.0399999991,       -3.12,0.0228000004
        -3.1,0.0399999991,        -3.1,0.0231999997
       -3.08,-0.0799999982,       -3.08,0.0240000002
       -3.06, 0.239999995,       -3.06,0.0228000004
       -3.04, 0.720000029,       -3.04,0.0196000002
       -3.02, 0.879999995,       -3.02,0.0199999996
          -3,  1.03999996,          -3,0.0204000007
       -2.98,  1.32000005,       -2.98,0.0208000001
       -2.96,  1.84000003,       -2.96,0.0199999996
       -2.94,           2,       -2.94,0.0167999994
       -2.92,  2.03999996,       -2.92,0.0175999999
        -2.9,  2.27999997,        -2.9,0.0187999997
       -2.88,  2.48000002,       -2.88,0.0152000003
       -2.86,  2.72000003,       -2.86,0.0172000006
       -2.84,  2.79999995,       -2.84,0.0175999999
       -2.82,  3.07999992,       -2.82,      0.0148
        -2.8,  3.16000009,        -2.8,0.0152000003
       -2.78,  3.27999997,       -2.78,0.0184000004
       -2.76,  3.44000006,       -2.76,0.0127999997
       -2.74,  3.48000002,       -2.74,0.0155999996
       -2.72,  3.51999998,       -2.72,0.0143999998
        -2.7,  3.51999998,        -2.7,      0.0148
       -2.68,   3.5999999,       -2.68,0.0140000004
       -2.66,   3.5999999,       -2.66,0.0160000008
       -2.64,  3.55999994,       -2.64,0.0120000001
       -2.62,  3.55999994,       -2.62,0.0120000001
        -2.6,   3.5999999,        -2.6,0.0143999998
       -2.58,   3.5999999,       -2.58,0.0108000003
       -2.56,   3.5999999,       -2.56,0.0127999997
       -2.54,  3.55999994,       -2.54,      0.0148
       -2.52,  3.51999998,       -2.52,0.0131999999
        -2.5,  3.44000006,        -2.5,      0.0148
       -2.48,   3.3599999,       -2.48,0.0127999997
       -2.46,  3.27999997,       -2.46,0.0152000003
       -2.44,  3.16000009,       -2.44,0.0184000004
       -2.42,  3.16000009,       -2.42,0.0152000003
        -2.4,  3.03999996,        -2.4,0.0172000006
       -2.38,  2.88000011,       -2.38,0.0172000006
       -2.36,  2.75999999,       -2.36,0.0192000009
       -2.34,   2.6400001,       -2.34,0.0175999999
       -2.32,  2.48000002,       -2.32,0.0164000001
        -2.3,  2.16000009,        -2.3,0.0164000001
       -2.28,           2,       -2.28,0.0160000008
       -2.26,  1.84000003,       -2.26,0.0192000009
       -2.24,  1.75999999,       -2.24,0.0164000001
       -2.22,  1.27999997,       -2.22,0.0179999992
        -2.2, 0.959999979,        -2.2,0.0216000006
       -2.18, 0.720000029,       -2.18,0.0187999997
       -2.16, 0.200000003,       -2.16,0.0216000006
       -2.14,0.0399999991,       -2.14,0.0216000006
       -2.12,-0.119999997,       -2.12,0.0243999995
        -2.1,-0.119999997,        -2.1,0.0216000006
       -2.08,-0.0799999982,       -2.08,0.0228000004
       -2.06,-0.119999997,       -2.06,0.0228000004
       -2.04,-0.119999997,       -2.04,0.0231999997
       -2.02,-0.119999997,       -2.02,0.0219999999
          -2,-0.119999997,          -2,0.0216000006
       -1.98,-0.119999997,       -1.98,0.0196000002
       -1.96,-0.0799999982,       -1.96,0.0223999992
       -1.94,-0.0399999991,       -1.94,0.0243999995
       -1.92,0.0399999991,       -1.92,0.0223999992
        -1.9,           0,        -1.9,0.0199999996
       -1.88, 0.319999993,       -1.88,0.0211999994
       -1.86, 0.680000007,       -1.86,0.0219999999
       -1.84,           1,       -1.84,0.0199999996
       -1.82,  1.36000001,       -1.82,0.0219999999
        -1.8,  1.84000003,        -1.8,0.0208000001
       -1.78,  2.07999992,       -1.78,0.0211999994
       -1.76,  2.11999989,       -1.76,0.0167999994
       -1.74,  2.27999997,       -1.74,0.0175999999
       -1.72,  2.51999998,       -1.72,0.0164000001
        -1.7,  2.79999995,        -1.7,0.0164000001
       -1.68,  2.88000011,       -1.68,0.0175999999
       -1.66,  3.07999992,       -1.66,0.0175999999
       -1.64,  3.27999997,       -1.64,0.0155999996
       -1.62,   3.3599999,       -1.62,0.0111999996
        -1.6,  3.48000002,        -1.6,0.0152000003
       -1.58,  3.55999994,       -1.58,0.0131999999
       -1.56,  3.68000007,       -1.56,0.0115999999
       -1.54,  3.68000007,       -1.54,0.0115999999
       -1.52,  3.72000003,       -1.52,0.0140000004
        -1.5,  3.72000003,        -1.5,0.00999999978
       -1.48,  3.75999999,       -1.48,0.0143999998
       -1.46,  3.72000003,       -1.46,0.0160000008
       -1.44,  3.75999999,       -1.44,0.0108000003
       -1.42,  3.72000003,       -1.42,0.0111999996
        -1.4,  3.75999999,        -1.4,0.0120000001
       -1.38,  3.75999999,       -1.38,0.0187999997
       -1.36,  3.75999999,       -1.36,0.0136000002
       -1.34,  3.72000003,       -1.34,0.0143999998
       -1.32,  3.75999999,       -1.32,0.0111999996
        -1.3,  3.68000007,        -1.3,0.0143999998
       -1.28,   3.6400001,       -1.28,      0.0148
       -1.26,   3.5999999,       -1.26,      0.0148
       -1.24,   3.5999999,       -1.24,0.0136000002
       -1.22,  3.48000002,       -1.22,0.0152000003
        -1.2,   3.4000001,        -1.2,0.0164000001
       -1.18,  3.31999993,       -1.18,0.0167999994
       -1.16,  3.20000005,       -1.16,0.0175999999
       -1.14,  3.11999989,       -1.14,0.0175999999
       -1.12,  2.92000008,       -1.12,0.0152000003
        -1.1,  2.75999999,        -1.1,      0.0148
       -1.08,   2.6400001,       -1.08,0.0172000006
       -1.06,  2.48000002,       -1.06,0.0187999997
       -1.04,  2.20000005,       -1.04,0.0160000008
       -1.02,  2.03999996,       -1.02,0.0192000009
          -1,  1.96000004,          -1,0.0160000008
       -0.98,  1.91999996,       -0.98,0.0167999994
       -0.96,  1.79999995,       -0.96,0.0196000002
       -0.94,  1.75999999,       -0.94,0.0187999997
       -0.92,  1.44000006,       -0.92,0.0211999994
        -0.9,        1.12,        -0.9,0.0184000004
       -0.88, 0.839999974,       -0.88,0.0216000006
       -0.86, 0.560000002,       -0.86,0.0216000006
       -0.84,           0,       -0.84,0.0204000007
       -0.82,0.0399999991,       -0.82,0.0228000004
        -0.8,           0,        -0.8,0.0204000007
       -0.78,-0.119999997,       -0.78,0.0228000004
       -0.76,-0.159999996,       -0.76,0.0211999994
       -0.74,-0.119999997,       -0.74,0.0219999999
       -0.72,-0.0799999982,       -0.72,0.0231999997
        -0.7,-0.119999997,        -0.7,0.0211999994
       -0.68,-0.119999997,       -0.68,0.0223999992
       -0.66,-0.119999997,       -0.66,0.0228000004
       -0.64,-0.119999997,       -0.64,0.0219999999
       -0.62,0.0399999991,       -0.62,0.0204000007
        -0.6,           0,        -0.6,0.0211999994
       -0.58,           0,       -0.58,0.0204000007
       -0.56, 0.639999986,       -0.56,0.0211999994
       -0.54, 0.920000017,       -0.54,0.0236000009
       -0.52,  1.27999997,       -0.52,0.0184000004
        -0.5,  1.39999998,        -0.5,0.0187999997
       -0.48,  1.79999995,       -0.48,0.0175999999
       -0.46,           2,       -0.46,0.0175999999
       -0.44,  2.11999989,       -0.44,0.0184000004
       -0.42,  2.55999994,       -0.42,0.0184000004
        -0.4,  2.75999999,        -0.4,0.0155999996
       -0.38,  2.83999991,       -0.38,0.0152000003
       -0.36,  3.07999992,       -0.36,0.0167999994
       -0.34,  3.24000001,       -0.34,0.0175999999
       -0.32,  3.31999993,       -0.32,0.0152000003
        -0.3,  3.51999998,        -0.3,0.0164000001
       -0.28,  3.51999998,       -0.28,0.0127999997
       -0.26,   3.5999999,       -0.26,0.0115999999
       -0.24,  3.68000007,       -0.24,0.0127999997
       -0.22,  3.68000007,       -0.22,0.0120000001
        -0.2,  3.75999999,        -0.2,0.0127999997
       -0.18,  3.75999999,       -0.18,0.0115999999
       -0.16,  3.75999999,       -0.16,0.0111999996
       -0.14,  3.79999995,       -0.14,0.0143999998
       -0.12,  3.75999999,       -0.12,0.0124000004
        -0.1,  3.79999995,        -0.1,0.0108000003
       -0.08,  3.79999995,       -0.08,0.0108000003
       -0.06,  3.79999995,       -0.06,0.0111999996
       -0.04,  3.83999991,       -0.04,      0.0104
       -0.02,  3.79999995,       -0.02,0.0115999999
           0,  3.79999995,           0,0.0131999999
        0.02,  3.79999995,        0.02,0.00999999978
        0.04,  3.79999995,        0.04,0.00960000046
        0.06,  3.79999995,        0.06,0.0120000001
        0.08,  3.79999995,        0.08,0.0111999996
         0.1,  3.83999991,         0.1,0.0120000001
        0.12,  3.79999995,        0.12,0.0120000001
        0.14,  3.79999995,        0.14,0.0127999997
        0.16,  3.79999995,        0.16,0.0111999996
        0.18,  3.79999995,        0.18,      0.0104
         0.2,  3.79999995,         0.2,      0.0104
        0.22,  3.79999995,        0.22,0.0115999999
        0.24,  3.79999995,        0.24,0.0120000001
        0.26,  3.75999999,        0.26,0.0127999997
        0.28,  3.79999995,        0.28,0.0152000003
         0.3,  3.75999999,         0.3,0.0131999999
        0.32,  3.68000007,        0.32,0.0120000001
        0.34,   3.5999999,        0.34,0.0140000004
        0.36,  3.48000002,        0.36,0.0140000004
        0.38,   3.3599999,        0.38,0.0160000008
         0.4,  3.27999997,         0.4,0.0164000001
        0.42,  3.20000005,        0.42,      0.0148
        0.44,  3.03999996,        0.44,0.0143999998
        0.46,  2.88000011,        0.46,0.0160000008
        0.48,  2.79999995,        0.48,0.0175999999
         0.5,  2.72000003,         0.5,0.0172000006
        0.52,  2.51999998,        0.52,0.0192000009
        0.54,  2.27999997,        0.54,0.0167999994
        0.56,  2.07999992,        0.56,0.0199999996
        0.58,  1.96000004,        0.58,0.0184000004
         0.6,  1.79999995,         0.6,0.0187999997
        0.62,  1.51999998,        0.62,0.0192000009
        0.64,  1.20000005,        0.64,0.0196000002
        0.66, 0.879999995,        0.66,0.0208000001
        0.68, 0.680000007,        0.68,0.0199999996
         0.7, 0.200000003,         0.7,0.0208000001
        0.72,-0.0399999991,        0.72,0.0223999992
        0.74,0.0399999991,        0.74,0.0223999992
        0.76,-0.119999997,        0.76,0.0216000006
        0.78,-0.119999997,        0.78,0.0211999994
         0.8,-0.0799999982,         0.8,0.0228000004
        0.82,-0.0799999982,        0.82,0.0228000004
        0.84,-0.119999997,        0.84,0.0223999992
        0.86,-0.119999997,        0.86,0.0223999992
        0.88,-0.119999997,        0.88,0.0175999999
         0.9,-0.119999997,         0.9,0.0211999994
        0.92,-0.119999997,        0.92,0.0236000009
        0.94,-0.119999997,        0.94,0.0216000006
        0.96,-0.159999996,        0.96,0.0216000006
        0.98,           0,        0.98,0.0216000006
           1,0.0399999991,           1,0.0228000004
        1.02,0.0399999991,        1.02,0.0228000004
        1.04,0.0399999991,        1.04,0.0204000007
        1.06,-0.0399999991,        1.06,0.0223999992
        1.08, 0.319999993,        1.08,0.0211999994
         1.1, 0.720000029,         1.1,0.0219999999
        1.12, 0.879999995,        1.12,0.0199999996
        1.14,  1.36000001,        1.14,0.0179999992
        1.16,  1.44000006,        1.16,0.0204000007
        1.18,  1.79999995,        1.18,0.0199999996
         1.2,  2.07999992,         1.2,0.0175999999
        1.22,  2.16000009,        1.22,0.0208000001
        1.24,  2.27999997,        1.24,0.0164000001
        1.26,  2.55999994,        1.26,0.0184000004
        1.28,  2.83999991,        1.28,0.0179999992
         1.3,  2.88000011,         1.3,0.0184000004
        1.32,  3.07999992,        1.32,0.0160000008
        1.34,  3.20000005,        1.34,0.0140000004
        1.36,  3.31999993,        1.36,0.0152000003
        1.38,  3.51999998,        1.38,0.0136000002
         1.4,  3.55999994,         1.4,      0.0148
        1.42,   3.6400001,        1.42,0.0131999999
        1.44,  3.72000003,        1.44,0.0136000002
        1.46,  3.75999999,        1.46,0.0108000003
        1.48,  3.75999999,        1.48,0.0140000004
         1.5,  3.79999995,         1.5,0.0131999999
        1.52,  3.75999999,        1.52,0.0115999999
        1.54,  3.75999999,        1.54,0.0115999999
        1.56,  3.75999999,        1.56,0.0115999999
        1.58,  3.79999995,        1.58,0.0124000004
         1.6,  3.79999995,         1.6,0.0136000002
        1.62,  3.79999995,        1.62,0.0120000001
        1.64,  3.79999995,        1.64,0.0124000004
        1.66,  3.83999991,        1.66,0.0120000001
        1.68,  3.83999991,        1.68,0.0115999999
         1.7,  3.83999991,         1.7,0.0120000001
        1.72,  3.79999995,        1.72,0.0120000001
        1.74,  3.79999995,        1.74,0.0136000002
        1.76,  3.83999991,        1.76,0.00879999995
        1.78,  3.83999991,        1.78,0.0111999996
         1.8,  3.79999995,         1.8,0.0120000001
        1.82,  3.79999995,        1.82,0.0092000002
        1.84,  3.83999991,        1.84,0.0120000001
        1.86,  3.79999995,        1.86,0.0111999996
        1.88,  3.79999995,        1.88,0.0131999999
         1.9,  3.83999991,         1.9,0.0127999997
        1.92,  3.83999991,        1.92,0.0143999998
        1.94,  3.79999995,        1.94,0.0136000002
        1.96,  3.88000011,        1.96,0.0124000004
        1.98,  3.83999991,        1.98,0.0120000001
           2,  3.83999991,           2,0.0131999999
        2.02,  3.79999995,        2.02,0.00960000046
        2.04,  3.83999991,        2.04,0.0136000002
        2.06,  3.79999995,        2.06,0.0124000004
        2.08,  3.79999995,        2.08,0.0115999999
         2.1,  3.83999991,         2.1,0.00999999978
        2.12,  3.83999991,        2.12,0.00999999978
        2.14,  3.79999995,        2.14,0.0111999996
        2.16,  3.83999991,        2.16,      0.0104
        2.18,  3.83999991,        2.18,0.0124000004
         2.2,  3.79999995,         2.2,0.0111999996
        2.22,  3.83999991,        2.22,0.0127999997
        2.24,  3.83999991,        2.24,0.0120000001
        2.26,  3.83999991,        2.26,0.0115999999
        2.28,  3.83999991,        2.28,0.0120000001
         2.3,  3.83999991,         2.3,0.0136000002
        2.32,  3.83999991,        2.32,0.0115999999
        2.34,  3.83999991,        2.34,0.0124000004
        2.36,  3.83999991,        2.36,0.00960000046
        2.38,  3.83999991,        2.38,      0.0104
         2.4,  3.88000011,         2.4,0.0108000003
        2.42,  3.88000011,        2.42,0.0124000004
        2.44,  3.83999991,        2.44,0.0120000001
        2.46,  3.88000011,        2.46,0.0108000003
        2.48,  3.88000011,        2.48,0.0115999999
         2.5,  3.88000011,         2.5,0.00960000046
        2.52,  3.83999991,        2.52,0.00999999978
        2.54,  3.88000011,        2.54,0.0120000001
        2.56,  3.88000011,        2.56,0.0092000002
        2.58,  3.83999991,        2.58,0.00879999995
         2.6,  3.92000008,         2.6,0.00999999978
        2.62,  3.88000011,        2.62,0.00999999978
        2.64,  3.88000011,        2.64,0.0108000003
        2.66,  3.92000008,        2.66,0.00800000038
        2.68,  3.88000011,        2.68,0.00960000046
         2.7,  3.88000011,         2.7,0.0111999996
        2.72,  3.88000011,        2.72,0.0083999997
        2.74,  3.88000011,        2.74,      0.0104
        2.76,  3.83999991,        2.76,0.0120000001
        2.78,  3.92000008,        2.78,0.00999999978
         2.8,  3.88000011,         2.8,0.00999999978
        2.82,  3.88000011,        2.82,0.0108000003
        2.84,  3.88000011,        2.84,0.0111999996
        2.86,  3.92000008,        2.86,0.00999999978
        2.88,  3.92000008,        2.88,0.0092000002
         2.9,  3.88000011,         2.9,0.00960000046
        2.92,  3.92000008,        2.92,      0.0104
        2.94,  3.88000011,        2.94,0.0111999996
        2.96,  3.88000011,        2.96,0.0083999997
        2.98,  3.88000011,        2.98,0.0092000002
           3,  3.92000008,           3,0.00960000046
        3.02,  3.88000011,        3.02,0.00879999995
        3.04,  3.83999991,        3.04,0.0115999999
        3.06,  3.83999991,        3.06,0.0111999996
        3.08,  3.88000011,        3.08,0.00879999995
         3.1,  3.83999991,         3.1,0.00760000013
        3.12,  3.88000011,        3.12,      0.0104
        3.14,  3.92000008,        3.14,0.0115999999
        3.16,  3.92000008,        3.16,0.00999999978
        3.18,  3.88000011,        3.18,0.0140000004
         3.2,  3.88000011,         3.2,0.0108000003
        3.22,  3.88000011,        3.22,      0.0104
        3.24,  3.88000011,        3.24,0.0111999996
        3.26,  3.83999991,        3.26,0.0115999999
        3.28,  3.83999991,        3.28,0.00800000038
         3.3,  3.88000011,         3.3,0.00960000046
        3.32,  3.88000011,        3.32,      0.0104
        3.34,  3.88000011,        3.34,0.0108000003
        3.36,  3.83999991,        3.36,      0.0104
        3.38,  3.88000011,        3.38,      0.0104
         3.4,  3.92000008,         3.4,0.0108000003
        3.42,  3.88000011,        3.42,      0.0104
        3.44,  3.83999991,        3.44,0.0127999997
        3.46,  3.92000008,        3.46,0.0115999999
        3.48,  3.88000011,        3.48,0.0115999999
         3.5,  3.92000008,         3.5,      0.0104
        3.52,  3.88000011,        3.52,0.0120000001
        3.54,  3.88000011,        3.54,0.0108000003
        3.56,  3.92000008,        3.56,0.0092000002
        3.58,  3.88000011,        3.58,0.0120000001
         3.6,  3.92000008,         3.6,0.0120000001
        3.62,  3.88000011,        3.62,0.0127999997
        3.64,  3.92000008,        3.64,0.0092000002
        3.66,  3.88000011,        3.66,0.0083999997
        3.68,  3.83999991,        3.68,0.00879999995
         3.7,  3.88000011,         3.7,0.0124000004
        3.72,  3.88000011,        3.72,0.00960000046
        3.74,  3.92000008,        3.74,0.00999999978
        3.76,  3.88000011,        3.76,0.0124000004
        3.78,  3.88000011,        3.78,      0.0104
         3.8,  3.83999991,         3.8,0.0108000003
        3.82,  3.88000011,        3.82,0.0108000003
        3.84,  3.83999991,        3.84,0.0124000004
        3.86,  3.88000011,        3.86,0.0127999997
        3.88,  3.83999991,        3.88,0.0092000002
         3.9,  3.88000011,         3.9,0.0120000001
        3.92,  3.83999991,        3.92,0.0131999999
        3.94,  3.83999991,        3.94,0.0124000004
        3.96,  3.83999991,        3.96,0.0120000001
        3.98,  3.83999991,        3.98,0.0120000001
           4,  3.83999991,           4,0.0124000004
        4.02,  3.83999991,        4.02,0.0108000003
        4.04,  3.83999991,        4.04,0.0115999999
        4.06,  3.83999991,        4.06,0.0127999997
        4.08,  3.83999991,        4.08,0.0136000002
         4.1,  3.79999995,         4.1,0.0124000004
        4.12,  3.83999991,        4.12,0.0152000003
        4.14,  3.75999999,        4.14,0.0131999999
        4.16,  3.75999999,        4.16,0.0131999999
        4.18,  3.72000003,        4.18,0.0152000003
         4.2,   3.6400001,         4.2,0.0136000002
        4.22,  3.55999994,        4.22,      0.0148
        4.24,  3.44000006,        4.24,0.0152000003
        4.26,   3.3599999,        4.26,0.0155999996
        4.28,  3.24000001,        4.28,0.0167999994
         4.3,  3.20000005,         4.3,0.0164000001
        4.32,  3.16000009,        4.32,      0.0148
        4.34,  3.03999996,        4.34,0.0160000008
        4.36,  2.88000011,        4.36,0.0155999996
        4.38,  2.79999995,        4.38,0.0172000006
         4.4,  2.68000007,         4.4,0.0167999994
        4.42,  2.51999998,        4.42,0.0160000008
        4.44,  2.44000006,        4.44,0.0172000006
        4.46,  2.20000005,        4.46,0.0155999996
        4.48,  2.11999989,        4.48,0.0204000007
         4.5,  2.03999996,         4.5,0.0208000001
        4.52,  1.96000004,        4.52,0.0179999992
        4.54,  1.79999995,        4.54,0.0192000009
        4.56,  1.75999999,        4.56,0.0167999994
        4.58,  1.48000002,        4.58,0.0192000009
         4.6,  1.32000005,         4.6,0.0192000009
        4.62,  1.15999997,        4.62,0.0192000009
        4.64, 0.959999979,        4.64,0.0208000001
        4.66, 0.839999974,        4.66,0.0187999997
        4.68, 0.720000029,        4.68,0.0196000002
         4.7, 0.680000007,         4.7,0.0187999997
        4.72, 0.280000001,        4.72,0.0196000002
        4.74, 0.200000003,        4.74,0.0187999997
        4.76,0.0399999991,        4.76,0.0216000006
        4.78,-0.0399999991,        4.78,0.0211999994
         4.8,           0,         4.8,0.0216000006
        4.82,           0,        4.82,0.0208000001
        4.84,0.0399999991,        4.84,0.0236000009
        4.86,-0.119999997,        4.86,0.0231999997
        4.88,-0.0799999982,        4.88,0.0211999994
         4.9,-0.119999997,         4.9,0.0223999992
        4.92,-0.119999997,        4.92,0.0219999999
        4.94,-0.159999996,        4.94,0.0216000006
        4.96,-0.119999997,        4.96,0.0216000006
        4.98,-0.159999996,        4.98,0.0216000006
           5,-0.119999997,           5,0.0216000006
        5.02,-0.159999996,        5.02,0.0216000006
        5.04,-0.159999996,        5.04,0.0208000001
        5.06,-0.0799999982,        5.06,0.0216000006
        5.08,-0.0799999982,        5.08,0.0216000006
         5.1,-0.119999997,         5.1,0.0211999994
        5.12,-0.159999996,        5.12,0.0208000001
        5.14,-0.119999997,        5.14,0.0231999997
        5.16,-0.119999997,        5.16,0.0219999999
        5.18,-0.119999997,        5.18,0.0208000001
         5.2,-0.119999997,         5.2,0.0216000006
        5.22,-0.119999997,        5.22,0.0231999997
        5.24,-0.0799999982,        5.24,0.0219999999
        5.26,           0,        5.26,0.0204000007
        5.28,0.0799999982,        5.28,0.0236000009
         5.3,0.0399999991,         5.3,0.0208000001
        5.32,-0.0399999991,        5.32,0.0204000007
        5.34,-0.0799999982,        5.34,0.0219999999
        5.36, 0.200000003,        5.36,0.0204000007
        5.38, 0.600000024,        5.38,0.0219999999
         5.4, 0.720000029,         5.4,0.0199999996
        5.42, 0.879999995,        5.42,0.0175999999
        5.44,        1.12,        5.44,0.0204000007
        5.46,  1.36000001,        5.46,0.0187999997
        5.48,  1.75999999,        5.48,0.0179999992
         5.5,  1.84000003,         5.5,0.0199999996
        5.52,           2,        5.52,0.0187999997
        5.54,           2,        5.54,0.0199999996
        5.56,  2.20000005,        5.56,0.0172000006
        5.58,  2.48000002,        5.58,0.0160000008
         5.6,  2.51999998,         5.6,0.0167999994
        5.62,  2.68000007,        5.62,0.0164000001
        5.64,  2.83999991,        5.64,0.0160000008
        5.66,  2.88000011,        5.66,0.0164000001
        5.68,  3.07999992,        5.68,0.0155999996
         5.7,  3.16000009,         5.7,0.0152000003
        5.72,  3.27999997,        5.72,      0.0148
        5.74,   3.4000001,        5.74,0.0152000003
        5.76,  3.51999998,        5.76,0.0152000003
        5.78,   3.5999999,        5.78,0.0160000008
         5.8,   3.6400001,         5.8,      0.0148
        5.82,  3.72000003,        5.82,0.00999999978
        5.84,  3.72000003,        5.84,0.00960000046
        5.86,  3.75999999,        5.86,0.0152000003
        5.88,  3.75999999,        5.88,0.0140000004
         5.9,  3.79999995,         5.9,0.0120000001
        5.92,  3.79999995,        5.92,0.0115999999
        5.94,  3.75999999,        5.94,      0.0104
        5.96,  3.75999999,        5.96,0.0120000001
        5.98,  3.79999995,        5.98,      0.0104
           6,  3.75999999,           6,0.0124000004
        6.02,  3.79999995,        6.02,0.0092000002
        6.04,  3.79999995,        6.04,0.0124000004
        6.06,  3.79999995,        6.06,0.00960000046
        6.08,  3.83999991,        6.08,0.0115999999
         6.1,  3.83999991,         6.1,0.0124000004
        6.12,  3.79999995,        6.12,0.0111999996
        6.14,  3.79999995,        6.14,0.0108000003
        6.16,  3.79999995,        6.16,0.0140000004
        6.18,  3.83999991,        6.18,0.0120000001
         6.2,  3.79999995,         6.2,      0.0104
        6.22,  3.79999995,        6.22,      0.0104
        6.24,  3.83999991,        6.24,0.0111999996
        6.26,  3.83999991,        6.26,0.00879999995
        6.28,  3.83999991,        6.28,0.0115999999
         6.3,  3.83999991,         6.3,0.0115999999
        6.32,  3.83999991,        6.32,0.0108000003
        6.34,  3.83999991,        6.34,0.0111999996
        6.36,  3.83999991,        6.36,0.0120000001
        6.38,  3.88000011,        6.38,0.0092000002
         6.4,  3.88000011,         6.4,0.0108000003
        6.42,  3.88000011,        6.42,0.00999999978
        6.44,  3.83999991,        6.44,0.00879999995
        6.46,  3.83999991,        6.46,0.00960000046
        6.48,  3.83999991,        6.48,0.00960000046
         6.5,  3.83999991,         6.5,0.0120000001
        6.52,  3.83999991,        6.52,0.0111999996
        6.54,  3.88000011,        6.54,0.00999999978
        6.56,  3.83999991,        6.56,0.00960000046
        6.58,  3.92000008,        6.58,0.0092000002
         6.6,  3.83999991,         6.6,      0.0104
        6.62,  3.88000011,        6.62,0.0115999999
        6.64,  3.83999991,        6.64,0.0111999996
        6.66,  3.88000011,        6.66,0.00999999978
        6.68,  3.88000011,        6.68,0.0092000002
         6.7,  3.83999991,         6.7,0.00879999995
        6.72,  3.83999991,        6.72,0.0120000001
        6.74,  3.83999991,        6.74,0.0083999997
        6.76,  3.83999991,        6.76,0.00960000046
        6.78,  3.83999991,        6.78,0.00800000038
         6.8,  3.88000011,         6.8,0.00960000046
        6.82,  3.88000011,        6.82,0.0111999996
        6.84,  3.88000011,        6.84,0.00999999978
        6.86,  3.88000011,        6.86,      0.0104
        6.88,  3.83999991,        6.88,      0.0104
         6.9,  3.83999991,         6.9,0.00960000046
        6.92,  3.83999991,        6.92,      0.0104
        6.94,  3.83999991,        6.94,      0.0104
        6.96,  3.88000011,        6.96,0.00999999978
        6.98,  3.83999991,        6.98,0.0111999996
           7,  3.83999991,           7,      0.0104
        7.02,  3.83999991,        7.02,      0.0148
        7.04,  3.83999991,        7.04,0.00960000046
        7.06,  3.83999991,        7.06,0.0108000003
        7.08,  3.79999995,        7.08,0.0124000004
         7.1,  3.79999995,         7.1,0.0108000003
        7.12,  3.79999995,        7.12,0.0127999997
        7.14,  3.79999995,        7.14,0.0127999997
        7.16,  3.79999995,        7.16,0.0131999999
        7.18,  3.75999999,        7.18,0.0115999999
         7.2,  3.79999995,         7.2,0.0120000001
        7.22,  3.79999995,        7.22,0.0108000003
        7.24,  3.79999995,        7.24,0.0120000001
        7.26,  3.79999995,        7.26,0.0127999997
        7.28,  3.72000003,        7.28,0.0143999998
         7.3,  3.72000003,         7.3,0.0131999999
        7.32,   3.6400001,        7.32,0.0131999999
        7.34,  3.55999994,        7.34,0.0164000001
        7.36,  3.55999994,        7.36,0.0140000004
        7.38,  3.48000002,        7.38,0.0155999996
         7.4,  3.44000006,         7.4,0.0131999999
        7.42,  3.27999997,        7.42,0.0124000004
        7.44,  3.20000005,        7.44,0.0152000003
        7.46,  3.16000009,        7.46,0.0143999998
        7.48,  3.07999992,        7.48,0.0140000004
         7.5,           3,         7.5,      0.0148
        7.52,  2.96000004,        7.52,0.0152000003
        7.54,  2.83999991,        7.54,0.0152000003
        7.56,  2.72000003,        7.56,0.0155999996
        7.58,  2.68000007,        7.58,0.0152000003
         7.6,   2.5999999,         7.6,0.0164000001
        7.62,   2.4000001,        7.62,0.0143999998
        7.64,  2.44000006,        7.64,0.0172000006
        7.66,  2.24000001,        7.66,0.0167999994
        7.68,  2.11999989,        7.68,0.0179999992
         7.7,  2.03999996,         7.7,0.0160000008
        7.72,           2,        7.72,0.0179999992
        7.74,  1.91999996,        7.74,0.0187999997
        7.76,        1.88,        7.76,0.0152000003
        7.78,        1.88,        7.78,0.0167999994
         7.8,  1.72000003,         7.8,0.0167999994
        7.82,  1.67999995,        7.82,0.0187999997
        7.84,  1.48000002,        7.84,0.0211999994
        7.86,  1.27999997,        7.86,0.0199999996
        7.88,        1.12,        7.88,0.0172000006
         7.9,  1.03999996,         7.9,0.0199999996
        7.92, 0.920000017,        7.92,0.0187999997
        7.94,  0.75999999,        7.94,0.0192000009
        7.96, 0.639999986,        7.96,0.0184000004
        7.98, 0.639999986,        7.98,0.0192000009
           8, 0.319999993,           8,0.0192000009
        8.02, 0.159999996,        8.02,0.0196000002
        8.04,-0.0799999982,        8.04,0.0211999994
        8.06,0.0399999991,        8.06,0.0192000009
        8.08,           0,        8.08,0.0187999997
         8.1,-0.159999996,         8.1,0.0208000001
        8.12,-0.119999997,        8.12,0.0211999994
        8.14,-0.119999997,        8.14,0.0211999994
        8.16,-0.119999997,        8.16,0.0192000009
        8.18,-0.119999997,        8.18,0.0199999996
         8.2,-0.0799999982,         8.2,0.0219999999
        8.22,-0.159999996,        8.22,0.0208000001
        8.24,-0.119999997,        8.24,0.0192000009
        8.26,-0.0799999982,        8.26,0.0211999994
        8.28,-0.119999997,        8.28,0.0199999996
         8.3,-0.119999997,         8.3,0.0199999996
        8.32,-0.119999997,        8.32,0.0204000007
        8.34,-0.0799999982,        8.34,0.0216000006
        8.36,-0.0799999982,        8.36,0.0216000006
        8.38,-0.119999997,        8.38,0.0219999999
         8.4,-0.0799999982,         8.4,0.0208000001
        8.42,-0.119999997,        8.42,0.0204000007
        8.44,-0.119999997,        8.44,0.0216000006
        8.46,-0.119999997,        8.46,0.0184000004
        8.48,-0.0399999991,        8.48,0.0219999999
         8.5,0.0399999991,         8.5,0.0199999996
        8.52,           0,        8.52,0.0211999994
        8.54,-0.0399999991,        8.54,0.0196000002
        8.56,           0,        8.56,0.0204000007
        8.58, 0.239999995,        8.58,0.0211999994
         8.6, 0.680000007,         8.6,0.0172000006
        8.62, 0.680000007,        8.62,0.0208000001
        8.64, 0.800000012,        8.64,0.0184000004
        8.66,  1.20000005,        8.66,0.0184000004
        8.68,  1.20000005,        8.68,0.0199999996
         8.7,  1.36000001,         8.7,0.0192000009
        8.72,  1.75999999,        8.72,0.0196000002
        8.74,  1.75999999,        8.74,0.0164000001
        8.76,  1.96000004,        8.76,0.0187999997
        8.78,  2.03999996,        8.78,0.0155999996
         8.8,  2.24000001,         8.8,0.0184000004
        8.82,  2.44000006,        8.82,0.0164000001
        8.84,  2.68000007,        8.84,0.0152000003
        8.86,  2.72000003,        8.86,0.0167999994
        8.88,  2.88000011,        8.88,0.0127999997
         8.9,           3,         8.9,      0.0148
        8.92,  3.16000009,        8.92,0.0120000001
        8.94,  3.24000001,        8.94,0.0152000003
        8.96,   3.3599999,        8.96,0.0160000008
        8.98,  3.44000006,        8.98,0.0160000008
           9,  3.55999994,           9,0.0152000003
        9.02,   3.6400001,        9.02,0.0136000002
        9.04,   3.6400001,        9.04,      0.0148
        9.06,  3.75999999,        9.06,0.0124000004
        9.08,  3.72000003,        9.08,0.0136000002
         9.1,  3.72000003,         9.1,0.0111999996
        9.12,  3.75999999,        9.12,0.0143999998
        9.14,  3.75999999,        9.14,0.0115999999
        9.16,  3.72000003,        9.16,0.0108000003
        9.18,  3.75999999,        9.18,0.0127999997
         9.2,  3.79999995,         9.2,      0.0104
        9.22,  3.75999999,        9.22,0.0136000002
        9.24,  3.75999999,        9.24,0.00960000046
        9.26,  3.79999995,        9.26,0.0127999997
        9.28,  3.75999999,        9.28,0.0127999997
         9.3,  3.75999999,         9.3,0.0127999997
        9.32,  3.79999995,        9.32,      0.0104
        9.34,  3.79999995,        9.34,0.0124000004
        9.36,  3.75999999,        9.36,0.0115999999
        9.38,  3.79999995,        9.38,0.0136000002
         9.4,  3.75999999,         9.4,0.0083999997
        9.42,  3.75999999,        9.42,0.00999999978
        9.44,  3.72000003,        9.44,0.0111999996
        9.46,  3.75999999,        9.46,0.0131999999
        9.48,  3.75999999,        9.48,0.0120000001
         9.5,  3.75999999,         9.5,0.0127999997
        9.52,  3.75999999,        9.52,0.0111999996
        9.54,  3.79999995,        9.54,0.0120000001
        9.56,  3.79999995,        9.56,0.0152000003
        9.58,  3.75999999,        9.58,      0.0104
         9.6,  3.79999995,         9.6,0.0120000001
        9.62,  3.79999995,        9.62,0.00960000046
        9.64,  3.79999995,        9.64,      0.0104
        9.66,  3.75999999,        9.66,0.0120000001
        9.68,  3.75999999,        9.68,0.0120000001
         9.7,  3.79999995,         9.7,0.0115999999
        9.72,  3.75999999,        9.72,0.0120000001
        9.74,  3.75999999,        9.74,0.0111999996
        9.76,  3.79999995,        9.76,      0.0104
        9.78,  3.72000003,        9.78,0.0092000002
         9.8,  3.75999999,         9.8,0.0131999999
        9.82,  3.79999995,        9.82,      0.0148
        9.84,  3.75999999,        9.84,0.0124000004
        9.86,  3.75999999,        9.86,0.0120000001
        9.88,  3.75999999,        9.88,0.0111999996
         9.9,  3.75999999,         9.9,0.0127999997
        9.92,  3.75999999,        9.92,0.0152000003
        9.94,  3.75999999,        9.94,0.0115999999
        9.96,  3.72000003,        9.96,0.0120000001
        9.98,  3.68000007,        9.98,0.0136000002