s,Volts,s,Volts
        -2.5,        1.12,        -2.5,0.0216000006
      -2.495,        1.12,      -2.495,0.0231999997
       -2.49,        1.12,       -2.49,0.0243999995
      -2.485,  1.20000005,      -2.485,0.0243999995
       -2.48,  1.22000003,       -2.48,0.0219999999
      -2.475,  1.27999997,      -2.475,0.0219999999
       -2.47,  1.25999999,       -2.47,0.0211999994
      -2.465,  1.27999997,      -2.465,0.0216000006
       -2.46,  1.25999999,       -2.46,0.0204000007
      -2.455,  1.25999999,      -2.455,0.0216000006
       -2.45,  1.24000001,       -2.45,0.0204000007
      -2.445,  1.34000003,      -2.445,0.0223999992
       -2.44,  1.29999995,       -2.44,0.0184000004
      -2.435,  1.32000005,      -2.435,0.0199999996
       -2.43,  1.34000003,       -2.43,0.0172000006
      -2.425,  1.39999998,      -2.425,0.0187999997
       -2.42,  1.36000001,       -2.42,0.0155999996
      -2.415,        1.38,      -2.415,0.0155999996
       -2.41,        1.38,       -2.41,0.0160000008
      -2.405,        1.38,      -2.405,0.0164000001
        -2.4,        1.38,        -2.4,0.0152000003
      -2.395,  1.39999998,      -2.395,0.0155999996
       -2.39,  1.39999998,       -2.39,0.0167999994
      -2.385,  1.39999998,      -2.385,      0.0148
       -2.38,  1.39999998,       -2.38,0.0140000004
      -2.375,  1.44000006,      -2.375,0.0131999999
       -2.37,  1.41999996,       -2.37,0.0120000001
      -2.365,  1.46000004,      -2.365,      0.0148
       -2.36,  1.44000006,       -2.36,0.0127999997
      -2.355,  1.46000004,      -2.355,0.0160000008
       -2.35,  1.44000006,       -2.35,0.0120000001
      -2.345,  1.44000006,      -2.345,0.0120000001
       -2.34,  1.44000006,       -2.34,0.0120000001
      -2.335,  1.46000004,      -2.335,0.0108000003
       -2.33,  1.46000004,       -2.33,0.0111999996
      -2.325,  1.44000006,      -2.325,0.0124000004
       -2.32,  1.44000006,       -2.32,0.0108000003
      -2.315,  1.46000004,      -2.315,0.00879999995
       -2.31,  1.44000006,       -2.31,0.0111999996
      -2.305,  1.46000004,      -2.305,0.0124000004
        -2.3,  1.46000004,        -2.3,0.0115999999
      -2.295,  1.44000006,      -2.295,0.00400000019
       -2.29,  1.46000004,       -2.29,0.0108000003
      -2.285,  1.48000002,      -2.285,0.0136000002
       -2.28,  1.44000006,       -2.28,0.00999999978
      -2.275,  1.44000006,      -2.275,0.00879999995
       -2.27,  1.46000004,       -2.27,0.00999999978
      -2.265,  1.48000002,      -2.265,0.0092000002
       -2.26,  1.48000002,       -2.26,0.00960000046
      -2.255,  1.44000006,      -2.255,0.0111999996
       -2.25,  1.48000002,       -2.25,0.00879999995
      -2.245,  1.46000004,      -2.245,0.00879999995
       -2.24,  1.48000002,       -2.24,0.00879999995
      -2.235,         1.5,      -2.235,0.0127999997
       -2.23,  1.48000002,       -2.23,0.00800000038
      -2.225,  1.46000004,      -2.225,0.0083999997
       -2.22,  1.48000002,       -2.22,0.0055999998
      -2.215,  1.48000002,      -2.215,0.00680000009
       -2.21,  1.48000002,       -2.21,0.00719999988
      -2.205,         1.5,      -2.205,0.0108000003
        -2.2,         1.5,        -2.2,0.00879999995
      -2.195,  1.48000002,      -2.195,0.0083999997
       -2.19,  1.48000002,       -2.19,0.00760000013
      -2.185,         1.5,      -2.185,0.00680000009
       -2.18,  1.44000006,       -2.18,-0.00600000005
      -2.175,         1.5,      -2.175,0.00719999988
       -2.17,  1.48000002,       -2.17,0.00800000038
      -2.165,  1.48000002,      -2.165,0.00800000038
       -2.16,  1.48000002,       -2.16,0.00600000005
      -2.155,         1.5,      -2.155,0.00760000013
       -2.15,  1.44000006,       -2.15,-0.0216000006
      -2.145,  1.48000002,      -2.145,0.00600000005
       -2.14,  1.48000002,       -2.14,0.00680000009
      -2.135,  1.48000002,      -2.135,0.00680000009
       -2.13,  1.48000002,       -2.13,0.0055999998
      -2.125,         1.5,      -2.125,0.00680000009
       -2.12,         1.5,       -2.12,0.00680000009
      -2.115,         1.5,      -2.115,0.00400000019
       -2.11,  1.48000002,       -2.11,0.00760000013
      -2.105,  1.48000002,      -2.105,0.00480000023
        -2.1,  1.48000002,        -2.1,0.00680000009
      -2.095,  1.48000002,      -2.095,0.00520000001
       -2.09,         1.5,       -2.09,0.00600000005
      -2.085,  1.48000002,      -2.085,0.00520000001
       -2.08,  1.48000002,       -2.08,0.00480000023
      -2.075,  1.48000002,      -2.075,0.00639999984
       -2.07,  1.48000002,       -2.07,0.00480000023
      -2.065,  1.46000004,      -2.065,-0.0120000001
       -2.06,         1.5,       -2.06,0.00240000011
      -2.055,         1.5,      -2.055,0.00680000009
       -2.05,         1.5,       -2.05,0.00079999998
      -2.045,  1.48000002,      -2.045,0.00439999998
       -2.04,  1.48000002,       -2.04,0.00359999994
      -2.035,         1.5,      -2.035,0.00600000005
       -2.03,  1.48000002,       -2.03,0.00439999998
      -2.025,  1.48000002,      -2.025,0.00359999994
       -2.02,         1.5,       -2.02,0.00480000023
      -2.015,         1.5,      -2.015,0.00520000001
       -2.01,         1.5,       -2.01,0.00400000019
      -2.005,         1.5,      -2.005,0.00520000001
          -2,         1.5,          -2,0.00439999998
      -1.995,         1.5,      -1.995,0.00520000001
       -1.99,         1.5,       -1.99,0.00480000023
      -1.985,  1.51999998,      -1.985,0.0083999997
       -1.98,         1.5,       -1.98,0.0055999998
      -1.975,         1.5,      -1.975,0.00439999998
       -1.97,  1.48000002,       -1.97,0.00359999994
      -1.965,  1.48000002,      -1.965,0.00200000009
       -1.96,         1.5,       -1.96,0.0055999998
      -1.955,         1.5,      -1.955,0.00480000023
       -1.95,         1.5,       -1.95,0.00520000001
      -1.945,         1.5,      -1.945,0.00319999992
       -1.94,  1.48000002,       -1.94,0.00520000001
      -1.935,         1.5,      -1.935,0.00680000009
       -1.93,         1.5,       -1.93,0.00359999994
      -1.925,         1.5,      -1.925,0.00480000023
       -1.92,  1.48000002,       -1.92,0.00439999998
      -1.915,  1.48000002,      -1.915,0.00480000023
       -1.91,         1.5,       -1.91,0.00639999984
      -1.905,  1.48000002,      -1.905,0.00400000019
        -1.9,  1.48000002,        -1.9,0.00480000023
      -1.895,         1.5,      -1.895,0.00439999998
       -1.89,         1.5,       -1.89,0.00400000019
      -1.885,  1.51999998,      -1.885,0.00600000005
       -1.88,         1.5,       -1.88,0.00400000019
      -1.875,  1.51999998,      -1.875,0.0027999999
       -1.87,  1.48000002,       -1.87,0.00400000019
      -1.865,         1.5,      -1.865,0.00600000005
       -1.86,         1.5,       -1.86,0.0055999998
      -1.855,         1.5,      -1.855,0.00680000009
       -1.85,         1.5,       -1.85,0.00359999994
      -1.845,         1.5,      -1.845,0.00480000023
       -1.84,         1.5,       -1.84,0.00480000023
      -1.835,         1.5,      -1.835,0.0055999998
       -1.83,  1.48000002,       -1.83,0.00359999994
      -1.825,         1.5,      -1.825,0.00520000001
       -1.82,  1.48000002,       -1.82,0.00520000001
      -1.815,         1.5,      -1.815,0.00400000019
       -1.81,         1.5,       -1.81,0.0055999998
      -1.805,         1.5,      -1.805,0.00400000019
        -1.8,  1.48000002,        -1.8,0.00520000001
      -1.795,         1.5,      -1.795,0.00319999992
       -1.79,  1.48000002,       -1.79,0.00400000019
      -1.785,         1.5,      -1.785,0.00480000023
       -1.78,         1.5,       -1.78,0.00439999998
      -1.775,         1.5,      -1.775,0.0027999999
       -1.77,  1.51999998,       -1.77,0.00680000009
      -1.765,  1.51999998,      -1.765,0.00480000023
       -1.76,  1.48000002,       -1.76,0.00480000023
      -1.755,         1.5,      -1.755,0.00400000019
       -1.75,         1.5,       -1.75,0.00480000023
      -1.745,  1.51999998,      -1.745,0.00680000009
       -1.74,  1.48000002,       -1.74,0.00520000001
      -1.735,  1.51999998,      -1.735,0.0055999998
       -1.73,         1.5,       -1.73,0.00480000023
      -1.725,  1.51999998,      -1.725,0.00639999984
       -1.72,         1.5,       -1.72,0.00439999998
      -1.715,         1.5,      -1.715,0.00520000001
       -1.71,         1.5,       -1.71,0.00439999998
      -1.705,         1.5,      -1.705,0.00439999998
        -1.7,  1.51999998,        -1.7,0.00600000005
      -1.695,         1.5,      -1.695,0.00400000019
       -1.69,  1.51999998,       -1.69,0.00400000019
      -1.685,         1.5,      -1.685,0.00480000023
       -1.68,  1.48000002,       -1.68,0.00480000023
      -1.675,         1.5,      -1.675,0.00680000009
       -1.67,         1.5,       -1.67,0.00600000005
      -1.665,         1.5,      -1.665,0.00439999998
       -1.66,  1.48000002,       -1.66,0.00600000005
      -1.655,  1.48000002,      -1.655,0.00359999994
       -1.65,         1.5,       -1.65,0.00520000001
      -1.645,  1.48000002,      -1.645,0.0055999998
       -1.64,         1.5,       -1.64,0.00400000019
      -1.635,         1.5,      -1.635,0.00600000005
       -1.63,  1.48000002,       -1.63,0.0055999998
      -1.625,         1.5,      -1.625,0.00520000001
       -1.62,         1.5,       -1.62,0.00520000001
      -1.615,         1.5,      -1.615,0.0055999998
       -1.61,         1.5,       -1.61,0.00600000005
      -1.605,         1.5,      -1.605,0.00520000001
        -1.6,         1.5,        -1.6,0.0055999998
      -1.595,  1.48000002,      -1.595,0.00319999992
       -1.59,  1.48000002,       -1.59,0.00480000023
      -1.585,         1.5,      -1.585,0.00879999995
       -1.58,  1.48000002,       -1.58,0.00600000005
      -1.575,         1.5,      -1.575,0.00439999998
       -1.57,  1.48000002,       -1.57,0.00600000005
      -1.565,  1.51999998,      -1.565,0.00520000001
       -1.56,  1.53999996,       -1.56,-0.00439999998
      -1.555,         1.5,      -1.555,0.00719999988
       -1.55,         1.5,       -1.55,0.00639999984
      -1.545,         1.5,      -1.545,0.00600000005
       -1.54,         1.5,       -1.54,0.00240000011
      -1.535,         1.5,      -1.535,0.00520000001
       -1.53,         1.5,       -1.53,0.00520000001
      -1.525,         1.5,      -1.525,0.00520000001
       -1.52,  1.46000004,       -1.52,0.00359999994
      -1.515,  1.48000002,      -1.515,0.00520000001
       -1.51,         1.5,       -1.51,0.00719999988
      -1.505,         1.5,      -1.505,0.0055999998
        -1.5,         1.5,        -1.5,0.00719999988
      -1.495,  1.48000002,      -1.495,0.0055999998
       -1.49,  1.48000002,       -1.49,0.00480000023
      -1.485,         1.5,      -1.485,0.00600000005
       -1.48,  1.48000002,       -1.48,0.00600000005
      -1.475,  1.48000002,      -1.475,0.0055999998
       -1.47,         1.5,       -1.47,0.00639999984
      -1.465,         1.5,      -1.465,0.0055999998
       -1.46,  1.48000002,       -1.46,0.00760000013
      -1.455,         1.5,      -1.455,0.00439999998
       -1.45,         1.5,       -1.45,0.0083999997
      -1.445,  1.48000002,      -1.445,0.00600000005
       -1.44,  1.48000002,       -1.44,0.00600000005
      -1.435,  1.48000002,      -1.435,0.00520000001
       -1.43,  1.48000002,       -1.43,0.00719999988
      -1.425,         1.5,      -1.425,0.0083999997
       -1.42,  1.46000004,       -1.42,0.00639999984
      -1.415,  1.48000002,      -1.415,0.0055999998
       -1.41,  1.48000002,       -1.41,0.00719999988
      -1.405,  1.51999998,      -1.405,0.00999999978
        -1.4,  1.46000004,        -1.4,0.00760000013
      -1.395,  1.48000002,      -1.395,0.00680000009
       -1.39,  1.48000002,       -1.39,0.00800000038
      -1.385,  1.48000002,      -1.385,0.00800000038
       -1.38,  1.46000004,       -1.38,0.00760000013
      -1.375,  1.48000002,      -1.375,0.00719999988
       -1.37,  1.48000002,       -1.37,0.00639999984
      -1.365,  1.48000002,      -1.365,0.00719999988
       -1.36,  1.48000002,       -1.36,0.00719999988
      -1.355,  1.48000002,      -1.355,0.00760000013
       -1.35,  1.46000004,       -1.35,0.00719999988
      -1.345,  1.48000002,      -1.345,0.00800000038
       -1.34,  1.48000002,       -1.34,0.00760000013
      -1.335,  1.48000002,      -1.335,0.0092000002
       -1.33,  1.46000004,       -1.33,0.0083999997
      -1.325,  1.48000002,      -1.325,0.00879999995
       -1.32,  1.48000002,       -1.32,0.00520000001
      -1.315,  1.46000004,      -1.315,0.00879999995
       -1.31,  1.46000004,       -1.31,      0.0104
      -1.305,  1.44000006,      -1.305,0.0111999996
        -1.3,  1.46000004,        -1.3,0.0108000003
      -1.295,  1.46000004,      -1.295,0.00879999995
       -1.29,  1.44000006,       -1.29,0.0136000002
      -1.285,  1.46000004,      -1.285,0.0108000003
       -1.28,  1.41999996,       -1.28,0.0092000002
      -1.275,  1.44000006,      -1.275,0.0111999996
       -1.27,  1.41999996,       -1.27,0.0219999999
      -1.265,  1.44000006,      -1.265,      0.0104
       -1.26,  1.41999996,       -1.26,0.0127999997
      -1.255,  1.48000002,      -1.255,      0.0148
       -1.25,  1.44000006,       -1.25,0.0131999999
      -1.245,  1.39999998,      -1.245,0.00520000001
       -1.24,  1.41999996,       -1.24,0.0124000004
      -1.235,  1.44000006,      -1.235,0.0120000001
       -1.23,  1.41999996,       -1.23,0.0140000004
      -1.225,  1.41999996,      -1.225,0.0131999999
       -1.22,  1.39999998,       -1.22,0.0136000002
      -1.215,  1.41999996,      -1.215,0.0155999996
       -1.21,        1.38,       -1.21,0.0140000004
      -1.205,  1.39999998,      -1.205,0.0152000003
        -1.2,  1.36000001,        -1.2,0.0127999997
      -1.195,        1.38,      -1.195,0.0164000001
       -1.19,  1.34000003,       -1.19,0.0179999992
      -1.185,        1.38,      -1.185,0.0179999992
       -1.18,  1.36000001,       -1.18,0.0155999996
      -1.175,  1.34000003,      -1.175,0.0240000002
       -1.17,  1.34000003,       -1.17,0.0187999997
      -1.165,  1.32000005,      -1.165,0.0211999994
       -1.16,  1.29999995,       -1.16,0.0199999996
      -1.155,  1.27999997,      -1.155,0.0216000006
       -1.15,  1.25999999,       -1.15,0.0228000004
      -1.145,  1.24000001,      -1.145,0.0223999992
       -1.14,  1.22000003,       -1.14,0.0211999994
      -1.135,  1.20000005,      -1.135,0.0236000009
       -1.13,  1.10000002,       -1.13,0.0211999994
      -1.125,        1.12,      -1.125,0.0231999997
       -1.12,  1.10000002,       -1.12,0.0231999997
      -1.115,        1.12,      -1.115,0.0243999995
       -1.11, 0.939999998,       -1.11,0.0228000004
      -1.105, 0.899999976,      -1.105,0.0231999997
        -1.1, 0.680000007,        -1.1,0.0228000004
      -1.095, 0.620000005,      -1.095,0.0248000007
       -1.09, 0.579999983,       -1.09,0.0228000004
      -1.085, 0.519999981,      -1.085,      0.0252
       -1.08,         0.5,       -1.08,0.0228000004
      -1.075, 0.419999987,      -1.075,0.0231999997
       -1.07, 0.400000006,       -1.07,0.0219999999
      -1.065, 0.280000001,      -1.065,0.0287999995
       -1.06, 0.159999996,       -1.06,0.0240000002
      -1.055, 0.140000001,      -1.055,0.0243999995
       -1.05, 0.140000001,       -1.05,0.0231999997
      -1.045, 0.239999995,      -1.045,      0.0252
       -1.04, 0.239999995,       -1.04,0.0231999997
      -1.035, 0.159999996,      -1.035,0.0243999995
       -1.03, 0.239999995,       -1.03,0.0231999997
      -1.025, 0.219999999,      -1.025,0.0231999997
       -1.02, 0.219999999,       -1.02,0.0236000009
      -1.015, 0.159999996,      -1.015,      0.0252
       -1.01,0.0599999987,       -1.01,0.0231999997
      -1.005,0.0399999991,      -1.005,0.0211999994
          -1,0.0599999987,          -1,0.0231999997
      -0.995,0.0399999991,      -0.995,0.0216000006
       -0.99,0.0599999987,       -0.99,0.0240000002
      -0.985,0.0599999987,      -0.985,0.0248000007
       -0.98,0.0599999987,       -0.98,      0.0252
      -0.975,0.0799999982,      -0.975,0.0272000004
       -0.97,0.0599999987,       -0.97,0.0223999992
      -0.965,0.0799999982,      -0.965,      0.0252
       -0.96,0.0599999987,       -0.96,0.0231999997
      -0.955,0.0599999987,      -0.955,0.0231999997
       -0.95,0.0599999987,       -0.95,0.0223999992
      -0.945,0.0599999987,      -0.945,0.0231999997
       -0.94,0.0599999987,       -0.94,0.0248000007
      -0.935,0.0799999982,      -0.935,0.0248000007
       -0.93,0.0399999991,       -0.93,0.0236000009
      -0.925,0.0599999987,      -0.925,0.0263999999
       -0.92,0.0599999987,       -0.92,0.0240000002
      -0.915,0.0399999991,      -0.915,      0.0252
       -0.91,0.0599999987,       -0.91,0.0240000002
      -0.905,0.0799999982,      -0.905,0.0260000005
        -0.9,0.0599999987,        -0.9,0.0248000007
      -0.895,0.0399999991,      -0.895,      0.0252
       -0.89,0.0399999991,       -0.89,0.0231999997
      -0.885,0.0599999987,      -0.885,      0.0252
       -0.88,0.0599999987,       -0.88,0.0231999997
      -0.875,0.0599999987,      -0.875,      0.0252
       -0.87,0.0599999987,       -0.87,0.0236000009
      -0.865,0.0599999987,      -0.865,0.0248000007
       -0.86,0.0399999991,       -0.86,0.0240000002
      -0.855,0.0599999987,      -0.855,0.0231999997
       -0.85,0.0599999987,       -0.85,0.0255999994
      -0.845,0.0799999982,      -0.845,0.0267999992
       -0.84,0.0599999987,       -0.84,0.0236000009
      -0.835,0.0599999987,      -0.835,      0.0252
       -0.83,0.0599999987,       -0.83,0.0243999995
      -0.825,0.0599999987,      -0.825,0.0228000004
       -0.82,0.0599999987,       -0.82,0.0228000004
      -0.815,0.0399999991,      -0.815,0.0219999999
       -0.81,0.0599999987,       -0.81,0.0307999998
      -0.805,0.0399999991,      -0.805,0.0236000009
        -0.8,0.0599999987,        -0.8,0.0228000004
      -0.795,0.0599999987,      -0.795,0.0240000002
       -0.79,0.0799999982,       -0.79,0.0280000009
      -0.785,0.0599999987,      -0.785,0.0267999992
       -0.78,0.0399999991,       -0.78,0.0236000009
      -0.775,0.0599999987,      -0.775,0.0248000007
       -0.77,0.0599999987,       -0.77,0.0260000005
      -0.765,0.0599999987,      -0.765,0.0231999997
       -0.76,0.0599999987,       -0.76,0.0236000009
      -0.755,0.0599999987,      -0.755,      0.0252
       -0.75,0.0399999991,       -0.75,0.0223999992
      -0.745,0.0399999991,      -0.745,0.0236000009
       -0.74,0.0399999991,       -0.74,0.0240000002
      -0.735,0.0399999991,      -0.735,0.0240000002
       -0.73,0.0599999987,       -0.73,0.0240000002
      -0.725,0.0399999991,      -0.725,0.0231999997
       -0.72,0.0599999987,       -0.72,0.0231999997
      -0.715,0.0599999987,      -0.715,0.0263999999
       -0.71,0.0399999991,       -0.71,0.0231999997
      -0.705,0.0399999991,      -0.705,0.0208000001
        -0.7,0.0399999991,        -0.7,0.0211999994
      -0.695,0.0599999987,      -0.695,0.0248000007
       -0.69,0.0599999987,       -0.69,0.0231999997
      -0.685,0.0599999987,      -0.685,0.0240000002
       -0.68,0.0599999987,       -0.68,0.0231999997
      -0.675,0.0599999987,      -0.675,0.0236000009
       -0.67, 0.180000007,       -0.67,0.0240000002
      -0.665, 0.219999999,      -0.665,      0.0252
       -0.66, 0.159999996,       -0.66,0.0223999992
      -0.655, 0.180000007,      -0.655,0.0243999995
       -0.65, 0.180000007,       -0.65,0.0231999997
      -0.645, 0.280000001,      -0.645,0.0248000007
       -0.64, 0.180000007,       -0.64,0.0240000002
      -0.635, 0.239999995,      -0.635,0.0219999999
       -0.63,  0.25999999,       -0.63,0.0240000002
      -0.625,  0.25999999,      -0.625,0.0240000002
       -0.62, 0.239999995,       -0.62,0.0243999995
      -0.615, 0.200000003,      -0.615,0.0243999995
       -0.61, 0.159999996,       -0.61,0.0208000001
      -0.605, 0.159999996,      -0.605,0.0248000007
        -0.6, 0.159999996,        -0.6,0.0368000008
      -0.595, 0.180000007,      -0.595,0.0263999999
       -0.59, 0.239999995,       -0.59,0.0219999999
      -0.585, 0.419999987,      -0.585,0.0248000007
       -0.58, 0.479999989,       -0.58,0.0216000006
      -0.575, 0.540000021,      -0.575,0.0248000007
       -0.57, 0.519999981,       -0.57,0.0228000004
      -0.565, 0.560000002,      -0.565,0.0240000002
       -0.56, 0.639999986,       -0.56,      0.0252
      -0.555, 0.660000026,      -0.555,      0.0252
       -0.55, 0.720000029,       -0.55,0.0219999999
      -0.545,        1.12,      -0.545,0.0248000007
       -0.54,  1.03999996,       -0.54,0.0231999997
      -0.535,  1.13999999,      -0.535,0.0240000002
       -0.53,  1.10000002,       -0.53,0.0240000002
      -0.525,  1.15999997,      -0.525,0.0236000009
       -0.52,  1.13999999,       -0.52,0.0204000007
      -0.515,  1.20000005,      -0.515,0.0248000007
       -0.51,  1.22000003,       -0.51,0.0231999997
      -0.505,  1.27999997,      -0.505,0.0236000009
        -0.5,  1.24000001,        -0.5,0.0208000001
      -0.495,  1.29999995,      -0.495,0.0248000007
       -0.49,  1.24000001,       -0.49,0.0211999994
      -0.485,  1.34000003,      -0.485,0.0204000007
       -0.48,  1.27999997,       -0.48,0.0179999992
      -0.475,  1.32000005,      -0.475,0.0192000009
       -0.47,  1.29999995,       -0.47,0.0192000009
      -0.465,  1.32000005,      -0.465,0.0187999997
       -0.46,  1.29999995,       -0.46,0.00639999984
      -0.455,        1.38,      -0.455,0.0187999997
       -0.45,  1.36000001,       -0.45,0.0175999999
      -0.445,        1.38,      -0.445,0.0175999999
       -0.44,  1.36000001,       -0.44,0.0167999994
      -0.435,  1.39999998,      -0.435,0.0160000008
       -0.43,  1.36000001,       -0.43,0.0152000003
      -0.425,  1.39999998,      -0.425,      0.0148
       -0.42,        1.38,       -0.42,0.0160000008
      -0.415,        1.38,      -0.415,      0.0148
       -0.41,  1.39999998,       -0.41,0.0140000004
      -0.405,  1.39999998,      -0.405,0.0136000002
        -0.4,  1.39999998,        -0.4,0.0155999996
      -0.395,  1.46000004,      -0.395,0.0136000002
       -0.39,  1.44000006,       -0.39,0.0140000004
      -0.385,  1.44000006,      -0.385,0.0120000001
       -0.38,  1.41999996,       -0.38,0.0120000001
      -0.375,  1.46000004,      -0.375,0.0127999997
       -0.37,  1.44000006,       -0.37,0.0124000004
      -0.365,  1.44000006,      -0.365,0.00999999978
       -0.36,  1.44000006,       -0.36,      0.0104
      -0.355,  1.46000004,      -0.355,0.00999999978
       -0.35,  1.44000006,       -0.35,      0.0104
      -0.345,  1.44000006,      -0.345,0.0120000001
       -0.34,  1.44000006,       -0.34,0.0108000003
      -0.335,  1.48000002,      -0.335,0.0127999997
       -0.33,  1.44000006,       -0.33,0.0111999996
      -0.325,  1.44000006,      -0.325,      0.0104
       -0.32,  1.44000006,       -0.32,0.0152000003
      -0.315,         1.5,      -0.315,0.0196000002
       -0.31,  1.44000006,       -0.31,      0.0104
      -0.305,  1.46000004,      -0.305,0.00639999984
        -0.3,  1.44000006,        -0.3,0.0092000002
      -0.295,  1.46000004,      -0.295,0.00960000046
       -0.29,  1.46000004,       -0.29,0.00879999995
      -0.285,  1.48000002,      -0.285,0.00879999995
       -0.28,  1.48000002,       -0.28,0.00879999995
      -0.275,  1.48000002,      -0.275,0.0083999997
       -0.27,  1.46000004,       -0.27,0.00800000038
      -0.265,  1.48000002,      -0.265,0.0083999997
       -0.26,  1.46000004,       -0.26,0.00359999994
      -0.255,  1.48000002,      -0.255,0.00800000038
       -0.25,  1.46000004,       -0.25,0.0092000002
      -0.245,         1.5,      -0.245,0.00200000009
       -0.24,  1.48000002,       -0.24,0.0083999997
      -0.235,         1.5,      -0.235,0.0055999998
       -0.23,  1.46000004,       -0.23,0.00719999988
      -0.225,  1.48000002,      -0.225,0.00600000005
       -0.22,  1.48000002,       -0.22,0.00800000038
      -0.215,  1.48000002,      -0.215,0.00600000005
       -0.21,  1.48000002,       -0.21,0.00680000009
      -0.205,         1.5,      -0.205,0.00719999988
        -0.2,  1.48000002,        -0.2,0.00639999984
      -0.195,         1.5,      -0.195,0.00400000019
       -0.19,  1.48000002,       -0.19,0.00719999988
      -0.185,  1.48000002,      -0.185,0.00680000009
       -0.18,  1.48000002,       -0.18,0.00680000009
      -0.175,  1.48000002,      -0.175,0.00359999994
       -0.17,  1.48000002,       -0.17,0.00680000009
      -0.165,  1.48000002,      -0.165,0.00680000009
       -0.16,  1.48000002,       -0.16,0.00639999984
      -0.155,         1.5,      -0.155,0.00680000009
       -0.15,         1.5,       -0.15,0.00719999988
      -0.145,  1.48000002,      -0.145,0.00760000013
       -0.14,  1.48000002,       -0.14,0.00439999998
      -0.135,         1.5,      -0.135,0.00439999998
       -0.13,  1.48000002,       -0.13,0.0055999998
      -0.125,  1.48000002,      -0.125,0.00520000001
       -0.12,  1.48000002,       -0.12,0.0055999998
      -0.115,         1.5,      -0.115,0.00520000001
       -0.11,  1.48000002,       -0.11,0.00999999978
      -0.105,         1.5,      -0.105,0.00680000009
        -0.1,         1.5,        -0.1,0.00719999988
      -0.095,  1.48000002,      -0.095,0.00159999996
       -0.09,  1.48000002,       -0.09,0.00719999988
      -0.085,         1.5,      -0.085,0.00639999984
       -0.08,  1.48000002,       -0.08,0.00400000019
      -0.075,         1.5,      -0.075,0.00800000038
       -0.07,  1.48000002,       -0.07,0.00400000019
      -0.065,         1.5,      -0.065,0.00600000005
       -0.06,  1.48000002,       -0.06,0.00480000023
      -0.055,  1.51999998,      -0.055,0.00719999988
       -0.05,  1.48000002,       -0.05,0.00400000019
      -0.045,         1.5,      -0.045,0.00439999998
       -0.04,         1.5,       -0.04,0.0055999998
      -0.035,  1.48000002,      -0.035,0.00319999992
       -0.03,  1.48000002,       -0.03,0.00520000001
      -0.025,         1.5,      -0.025,0.00439999998
       -0.02,         1.5,       -0.02,0.0055999998
      -0.015,         1.5,      -0.015,0.00520000001
       -0.01,         1.5,       -0.01,0.00480000023
      -0.005,         1.5,      -0.005,0.00600000005
           0,  1.48000002,           0,0.00520000001
       0.005,         1.5,       0.005,0.00480000023
        0.01,         1.5,        0.01,0.00240000011
       0.015,  1.51999998,       0.015,0.00480000023
        0.02,  1.48000002,        0.02,0.00079999998
       0.025,  1.51999998,       0.025,0.00960000046
        0.03,         1.5,        0.03,0.00639999984
       0.035,         1.5,       0.035,0.00400000019
        0.04,  1.48000002,        0.04,0.00200000009
       0.045,         1.5,       0.045,0.0055999998
        0.05,  1.48000002,        0.05,0.0055999998
       0.055,  1.48000002,       0.055,0.00319999992
        0.06,         1.5,        0.06,0.00439999998
       0.065,         1.5,       0.065,0.00520000001
        0.07,  1.48000002,        0.07,0.00600000005
       0.075,         1.5,       0.075,0.00439999998
        0.08,         1.5,        0.08,0.00480000023
       0.085,         1.5,       0.085,0.00520000001
        0.09,         1.5,        0.09,0.00520000001
       0.095,         1.5,       0.095,0.00400000019
         0.1,         1.5,         0.1,0.00400000019
       0.105,         1.5,       0.105,0.00480000023
        0.11,         1.5,        0.11,0.00439999998
       0.115,         1.5,       0.115,0.00439999998
        0.12,         1.5,        0.12,0.00719999988
       0.125,  1.48000002,       0.125,0.00319999992
        0.13,  1.48000002,        0.13,0.0027999999
       0.135,         1.5,       0.135,0.00520000001
        0.14,  1.48000002,        0.14,0.00520000001
       0.145,         1.5,       0.145,0.0055999998
        0.15,         1.5,        0.15,0.0055999998
       0.155,         1.5,       0.155,0.00319999992
        0.16,         1.5,        0.16,0.00639999984
       0.165,         1.5,       0.165,0.00480000023
        0.17,         1.5,        0.17,0.0055999998
       0.175,         1.5,       0.175,0.00400000019
        0.18,  1.48000002,        0.18,0.00520000001
       0.185,  1.51999998,       0.185,0.00639999984
        0.19,  1.48000002,        0.19,0.00400000019
       0.195,         1.5,       0.195,0.00520000001
         0.2,         1.5,         0.2,0.0127999997
       0.205,         1.5,       0.205,0.00359999994
        0.21,  1.46000004,        0.21,0.0027999999
       0.215,         1.5,       0.215,0.00480000023
        0.22,  1.48000002,        0.22,0.00439999998
       0.225,         1.5,       0.225,0.00359999994
        0.23,         1.5,        0.23,0.00359999994
       0.235,         1.5,       0.235,0.00439999998
        0.24,  1.48000002,        0.24,0.00439999998
       0.245,  1.48000002,       0.245,0.00480000023
        0.25,         1.5,        0.25,0.0092000002
       0.255,  1.51999998,       0.255,0.00480000023
        0.26,         1.5,        0.26,0.0344000012
       0.265,         1.5,       0.265,0.00600000005
        0.27,         1.5,        0.27,0.00600000005
       0.275,         1.5,       0.275,0.0055999998
        0.28,  1.48000002,        0.28,0.0055999998
       0.285,         1.5,       0.285,0.00520000001
        0.29,         1.5,        0.29,0.00480000023
       0.295,  1.48000002,       0.295,0.00639999984
         0.3,  1.48000002,         0.3,0.00520000001
       0.305,         1.5,       0.305,0.0055999998
        0.31,  1.48000002,        0.31,0.00680000009
       0.315,  1.51999998,       0.315,0.00600000005
        0.32,  1.51999998,        0.32,0.00999999978
       0.325,         1.5,       0.325,0.00520000001
        0.33,  1.48000002,        0.33,0.00639999984
       0.335,         1.5,       0.335,0.0055999998
        0.34,         1.5,        0.34,0.00600000005
       0.345,  1.51999998,       0.345,0.00520000001
        0.35,         1.5,        0.35,0.00639999984
       0.355,         1.5,       0.355,0.0055999998
        0.36,  1.48000002,        0.36,0.00719999988
       0.365,         1.5,       0.365,0.00680000009
        0.37,  1.48000002,        0.37,0.00520000001
       0.375,         1.5,       0.375,0.00639999984
        0.38,  1.48000002,        0.38,0.00400000019
       0.385,         1.5,       0.385,0.00600000005
        0.39,  1.46000004,        0.39,0.00359999994
       0.395,  1.48000002,       0.395,0.00760000013
         0.4,         1.5,         0.4,0.00800000038
       0.405,  1.48000002,       0.405,0.00719999988
        0.41,  1.48000002,        0.41,0.00760000013
       0.415,  1.48000002,       0.415,0.00520000001
        0.42,  1.48000002,        0.42,0.00680000009
       0.425,         1.5,       0.425,0.0055999998
        0.43,  1.46000004,        0.43,0.00719999988
       0.435,  1.48000002,       0.435,0.0083999997
        0.44,  1.48000002,        0.44,0.00520000001
       0.445,  1.48000002,       0.445,0.00760000013
        0.45,  1.48000002,        0.45,0.00760000013
       0.455,  1.48000002,       0.455,0.00719999988
        0.46,  1.48000002,        0.46,0.00960000046
       0.465,  1.48000002,       0.465,0.00960000046
        0.47,  1.48000002,        0.47,0.0092000002
       0.475,  1.48000002,       0.475,0.0092000002
        0.48,  1.46000004,        0.48,0.00999999978
       0.485,  1.48000002,       0.485,0.00680000009
        0.49,  1.46000004,        0.49,0.00639999984
       0.495,  1.48000002,       0.495,0.00879999995
         0.5,  1.46000004,         0.5,0.0083999997
       0.505,  1.46000004,       0.505,0.0092000002
        0.51,  1.46000004,        0.51,0.00999999978
       0.515,  1.46000004,       0.515,0.0092000002
        0.52,  1.44000006,        0.52,0.00960000046
       0.525,  1.46000004,       0.525,0.0108000003
        0.53,  1.46000004,        0.53,0.0108000003
       0.535,  1.44000006,       0.535,0.0115999999
        0.54,  1.44000006,        0.54,      0.0104
       0.545,  1.44000006,       0.545,0.0108000003
        0.55,  1.46000004,        0.55,0.0115999999
       0.555,  1.46000004,       0.555,0.0124000004
        0.56,  1.44000006,        0.56,0.0120000001
       0.565,  1.46000004,       0.565,0.0115999999
        0.57,  1.44000006,        0.57,0.0115999999
       0.575,  1.44000006,       0.575,0.0124000004
        0.58,  1.41999996,        0.58,0.0120000001
       0.585,  1.41999996,       0.585,0.0136000002
        0.59,  1.41999996,        0.59,0.0160000008
       0.595,  1.44000006,       0.595,0.0187999997
         0.6,        1.38,         0.6,0.0152000003
       0.605,        1.38,       0.605,0.0175999999
        0.61,        1.38,        0.61,0.0136000002
       0.615,  1.36000001,       0.615,0.0179999992
        0.62,  1.36000001,        0.62,0.0172000006
       0.625,  1.34000003,       0.625,0.0192000009
        0.63,  1.32000005,        0.63,0.0219999999
       0.635,  1.34000003,       0.635,0.0199999996
        0.64,  1.24000001,        0.64,0.0211999994
       0.645,  1.27999997,       0.645,0.0228000004
        0.65,  1.24000001,        0.65,0.0211999994
       0.655,  1.13999999,       0.655,0.0248000007
        0.66,  1.10000002,        0.66,0.0231999997
       0.665,  1.13999999,       0.665,0.0243999995
        0.67, 0.980000019,        0.67,0.0240000002
       0.675, 0.699999988,       0.675,0.0240000002
        0.68, 0.600000024,        0.68,0.0228000004
       0.685, 0.620000005,       0.685,0.0243999995
        0.69,         0.5,        0.69,0.0231999997
       0.695, 0.439999998,       0.695,0.0243999995
         0.7, 0.239999995,         0.7,0.0219999999
       0.705, 0.159999996,       0.705,0.0219999999
        0.71, 0.159999996,        0.71,0.0240000002
       0.715, 0.159999996,       0.715,0.0255999994
        0.72, 0.239999995,        0.72,0.0231999997
       0.725, 0.239999995,       0.725,0.0243999995
        0.73, 0.219999999,        0.73,0.0219999999
       0.735, 0.239999995,       0.735,0.0248000007
        0.74, 0.219999999,        0.74,0.0231999997
       0.745,  0.25999999,       0.745,0.0272000004
        0.75,0.0599999987,        0.75,0.0223999992
       0.755,0.0399999991,       0.755,0.0231999997
        0.76,0.0599999987,        0.76,0.0231999997
       0.765,0.0599999987,       0.765,0.0228000004
        0.77,0.0399999991,        0.77,0.0228000004
       0.775,0.0399999991,       0.775,0.0248000007
        0.78,0.0599999987,        0.78,0.0228000004
       0.785,0.0599999987,       0.785,0.0243999995
        0.79,0.0599999987,        0.79,0.0240000002
       0.795,0.0599999987,       0.795,      0.0252
         0.8,0.0399999991,         0.8,0.0223999992
       0.805,0.0599999987,       0.805,      0.0252
        0.81,0.0399999991,        0.81,0.0216000006
       0.815,0.0599999987,       0.815,0.0240000002
        0.82,0.0399999991,        0.82,0.0236000009
       0.825,0.0599999987,       0.825,0.0240000002
        0.83,0.0399999991,        0.83,0.0231999997
       0.835,0.0599999987,       0.835,0.0223999992
        0.84,0.0399999991,        0.84,0.0219999999
       0.845,0.0599999987,       0.845,0.0243999995
        0.85,0.0599999987,        0.85,0.0223999992
       0.855,0.0599999987,       0.855,0.0240000002
        0.86,0.0599999987,        0.86,0.0240000002
       0.865,0.0799999982,       0.865,0.0231999997
        0.87,0.0599999987,        0.87,0.0240000002
       0.875,0.0599999987,       0.875,0.0255999994
        0.88,0.0599999987,        0.88,0.0231999997
       0.885,0.0599999987,       0.885,0.0255999994
        0.89,0.0599999987,        0.89,0.0240000002
       0.895,0.0399999991,       0.895,0.0240000002
         0.9,0.0399999991,         0.9,0.0228000004
       0.905,0.0399999991,       0.905,0.0243999995
        0.91,0.0599999987,        0.91,0.0231999997
       0.915,0.0599999987,       0.915,      0.0252
        0.92,0.0399999991,        0.92,0.0228000004
       0.925,0.0599999987,       0.925,0.0248000007
        0.93,0.0399999991,        0.93,0.0092000002
       0.935,0.0399999991,       0.935,0.0231999997
        0.94,0.0399999991,        0.94,0.0223999992
       0.945,0.0599999987,       0.945,0.0248000007
        0.95,0.0599999987,        0.95,0.0231999997
       0.955,0.0599999987,       0.955,0.0243999995
        0.96,0.0799999982,        0.96,0.0243999995
       0.965,0.0599999987,       0.965,0.0240000002
        0.97,0.0599999987,        0.97,0.0223999992
       0.975,0.0599999987,       0.975,0.0240000002
        0.98,0.0599999987,        0.98,0.0228000004
       0.985,0.0599999987,       0.985,0.0243999995
        0.99,0.0599999987,        0.99,0.0236000009
       0.995,0.0599999987,       0.995,0.0248000007
           1,0.0599999987,           1,0.0240000002
       1.005,0.0599999987,       1.005,0.0260000005
        1.01,0.0599999987,        1.01,0.0240000002
       1.015,0.0599999987,       1.015,0.0240000002
        1.02, 0.119999997,        1.02,0.0231999997
       1.025, 0.239999995,       1.025,0.0248000007
        1.03, 0.159999996,        1.03,0.0228000004
       1.035,  0.25999999,       1.035,      0.0252
        1.04, 0.239999995,        1.04,0.0219999999
       1.045, 0.239999995,       1.045,0.0243999995
        1.05, 0.239999995,        1.05,0.0223999992
       1.055,  0.25999999,       1.055,0.0243999995
        1.06, 0.239999995,        1.06,0.0231999997
       1.065, 0.159999996,       1.065,0.0248000007
        1.07, 0.140000001,        1.07,0.0231999997
       1.075, 0.159999996,       1.075,0.0248000007
        1.08, 0.140000001,        1.08,0.0231999997
       1.085,  0.25999999,       1.085,0.0231999997
        1.09, 0.419999987,        1.09,0.0243999995
       1.095, 0.540000021,       1.095,0.0236000009
         1.1,         0.5,         1.1,0.0243999995
       1.105, 0.620000005,       1.105,0.0240000002
        1.11, 0.660000026,        1.11,0.0196000002
       1.115,  1.10000002,       1.115,0.0243999995
        1.12,        1.12,        1.12,      0.0252
       1.125,  1.13999999,       1.125,0.0223999992
        1.13,  1.15999997,        1.13,0.0223999992
       1.135,  1.24000001,       1.135,0.0208000001
        1.14,  1.25999999,        1.14,0.0228000004
       1.145,  1.27999997,       1.145,0.0208000001
        1.15,  1.29999995,        1.15,0.0204000007
       1.155,  1.34000003,       1.155,0.0196000002
        1.16,  1.27999997,        1.16,0.0199999996
       1.165,  1.36000001,       1.165,0.0175999999
        1.17,  1.36000001,        1.17,0.0152000003
       1.175,        1.38,       1.175,0.0167999994
        1.18,  1.39999998,        1.18,0.0187999997
       1.185,        1.38,       1.185,0.0167999994
        1.19,        1.38,        1.19,0.0136000002
       1.195,        1.38,       1.195,0.0155999996
         1.2,        1.38,         1.2,0.0155999996
       1.205,  1.39999998,       1.205,0.0160000008
        1.21,        1.38,        1.21,0.0152000003
       1.215,  1.39999998,       1.215,0.0136000002
        1.22,  1.44000006,        1.22,0.0124000004
       1.225,  1.44000006,       1.225,0.0115999999
        1.23,  1.41999996,        1.23,0.0127999997
       1.235,  1.44000006,       1.235,0.0131999999
        1.24,  1.44000006,        1.24,0.0136000002
       1.245,  1.46000004,       1.245,0.0124000004
        1.25,  1.44000006,        1.25,0.0120000001
       1.255,  1.44000006,       1.255,0.0111999996
        1.26,  1.44000006,        1.26,0.0124000004
       1.265,  1.48000002,       1.265,0.0115999999
        1.27,  1.41999996,        1.27,0.00800000038
       1.275,  1.46000004,       1.275,0.0108000003
        1.28,  1.46000004,        1.28,0.0124000004
       1.285,  1.46000004,       1.285,0.0108000003
        1.29,  1.44000006,        1.29,      0.0104
       1.295,  1.46000004,       1.295,0.0111999996
         1.3,  1.44000006,         1.3,      0.0104
       1.305,  1.46000004,       1.305,0.00879999995
        1.31,  1.44000006,        1.31,0.00719999988
       1.315,  1.48000002,       1.315,      0.0104
        1.32,  1.46000004,        1.32,0.00719999988
       1.325,  1.46000004,       1.325,0.00879999995
        1.33,  1.48000002,        1.33,0.00760000013
       1.335,  1.48000002,       1.335,0.0092000002
        1.34,  1.48000002,        1.34,0.0083999997
       1.345,  1.48000002,       1.345,0.00800000038
        1.35,  1.46000004,        1.35,0.00680000009
       1.355,  1.48000002,       1.355,0.0083999997
        1.36,  1.48000002,        1.36,0.00960000046
       1.365,  1.48000002,       1.365,0.0055999998
        1.37,  1.46000004,        1.37,0.00800000038
       1.375,         1.5,       1.375,0.00800000038
        1.38,  1.48000002,        1.38,0.00760000013
       1.385,  1.48000002,       1.385,0.00800000038
        1.39,  1.48000002,        1.39,0.00680000009
       1.395,  1.48000002,       1.395,0.00400000019
         1.4,  1.46000004,         1.4,0.00719999988
       1.405,  1.48000002,       1.405,0.00600000005
        1.41,  1.46000004,        1.41,0.00600000005
       1.415,  1.48000002,       1.415,0.00600000005
        1.42,  1.46000004,        1.42,0.00680000009
       1.425,         1.5,       1.425,0.0055999998
        1.43,  1.48000002,        1.43,0.00639999984
       1.435,  1.48000002,       1.435,0.00680000009
        1.44,  1.48000002,        1.44,0.00520000001
       1.445,         1.5,       1.445,0.00639999984
        1.45,         1.5,        1.45,0.00719999988
       1.455,  1.51999998,       1.455,0.0055999998
        1.46,  1.48000002,        1.46,0.0055999998
       1.465,  1.48000002,       1.465,0.00400000019
        1.47,  1.48000002,        1.47,0.00639999984
       1.475,         1.5,       1.475,0.00439999998
        1.48,  1.46000004,        1.48,0.00480000023
       1.485,  1.48000002,       1.485,0.00480000023
        1.49,         1.5,        1.49,0.00520000001
       1.495,         1.5,       1.495,0.00439999998
         1.5,  1.48000002,         1.5,0.00439999998
       1.505,         1.5,       1.505,0.00480000023
        1.51,         1.5,        1.51,0.00480000023
       1.515,         1.5,       1.515,0.00520000001
        1.52,         1.5,        1.52,0.00400000019
       1.525,         1.5,       1.525,0.00240000011
        1.53,  1.46000004,        1.53,0.00319999992
       1.535,         1.5,       1.535,0.0055999998
        1.54,         1.5,        1.54,0.0027999999
       1.545,         1.5,       1.545,0.00400000019
        1.55,         1.5,        1.55,0.00480000023
       1.555,  1.51999998,       1.555,0.00439999998
        1.56,         1.5,        1.56,0.00600000005
       1.565,         1.5,       1.565,0.00480000023
        1.57,  1.48000002,        1.57,0.00240000011
       1.575,  1.48000002,       1.575,0.00359999994
        1.58,  1.48000002,        1.58,0.00480000023
       1.585,  1.51999998,       1.585,0.00480000023
        1.59,         1.5,        1.59,0.00439999998
       1.595,  1.51999998,       1.595,0.00480000023
         1.6,         1.5,         1.6,0.00400000019
       1.605,         1.5,       1.605,0.0055999998
        1.61,         1.5,        1.61,0.00439999998
       1.615,         1.5,       1.615,0.00480000023
        1.62,         1.5,        1.62,0.0055999998
       1.625,         1.5,       1.625,0.00719999988
        1.63,         1.5,        1.63,0.00520000001
       1.635,         1.5,       1.635,0.00400000019
        1.64,         1.5,        1.64,0.00600000005
       1.645,         1.5,       1.645,0.00480000023
        1.65,  1.48000002,        1.65,0.00359999994
       1.655,  1.51999998,       1.655,0.00520000001
        1.66,  1.46000004,        1.66,0.00240000011
       1.665,  1.48000002,       1.665,0.00439999998
        1.67,  1.48000002,        1.67,0.00480000023
       1.675,         1.5,       1.675,0.00639999984
        1.68,  1.48000002,        1.68,0.00319999992
       1.685,         1.5,       1.685,0.00600000005
        1.69,  1.48000002,        1.69,0.0027999999
       1.695,         1.5,       1.695,0.00439999998
         1.7,         1.5,         1.7,0.00439999998
       1.705,         1.5,       1.705,0.00600000005
        1.71,         1.5,        1.71,0.00520000001
       1.715,         1.5,       1.715,0.00639999984
        1.72,         1.5,        1.72,0.0055999998
       1.725,         1.5,       1.725,0.00480000023
        1.73,  1.48000002,        1.73,0.00240000011
       1.735,         1.5,       1.735,0.00439999998
        1.74,         1.5,        1.74,0.00520000001
       1.745,         1.5,       1.745,0.0055999998
        1.75,  1.48000002,        1.75,0.0055999998
       1.755,  1.48000002,       1.755,0.0055999998
        1.76,  1.48000002,        1.76,0.00439999998
       1.765,  1.51999998,       1.765,0.00480000023
        1.77,         1.5,        1.77,0.00439999998
       1.775,         1.5,       1.775,0.00520000001
        1.78,         1.5,        1.78,0.00400000019
       1.785,         1.5,       1.785,0.0055999998
        1.79,         1.5,        1.79,0.00439999998
       1.795,         1.5,       1.795,0.00439999998
         1.8,         1.5,         1.8,0.00639999984
       1.805,  1.48000002,       1.805,0.0027999999
        1.81,  1.48000002,        1.81,0.00719999988
       1.815,  1.48000002,       1.815,0.00520000001
        1.82,  1.48000002,        1.82,0.00719999988
       1.825,         1.5,       1.825,0.00760000013
        1.83,  1.48000002,        1.83,0.00480000023
       1.835,         1.5,       1.835,0.0055999998
        1.84,  1.48000002,        1.84,0.00439999998
       1.845,  1.48000002,       1.845,0.00319999992
        1.85,         1.5,        1.85,0.00480000023
       1.855,         1.5,       1.855,0.00639999984
        1.86,         1.5,        1.86,0.00719999988
       1.865,  1.48000002,       1.865,0.00600000005
        1.87,  1.48000002,        1.87,0.00359999994
       1.875,  1.48000002,       1.875,0.0055999998
        1.88,  1.48000002,        1.88,0.00600000005
       1.885,         1.5,       1.885,0.0055999998
        1.89,  1.46000004,        1.89,0.00680000009
       1.895,  1.48000002,       1.895,0.00680000009
         1.9,  1.48000002,         1.9,0.00439999998
       1.905,         1.5,       1.905,0.00600000005
        1.91,  1.48000002,        1.91,0.00680000009
       1.915,  1.48000002,       1.915,0.00760000013
        1.92,  1.48000002,        1.92,0.00719999988
       1.925,  1.48000002,       1.925,0.0055999998
        1.93,  1.48000002,        1.93,0.0083999997
       1.935,         1.5,       1.935,0.00719999988
        1.94,  1.48000002,        1.94,0.0083999997
       1.945,         1.5,       1.945,0.0092000002
        1.95,  1.46000004,        1.95,0.00600000005
       1.955,  1.48000002,       1.955,0.00480000023
        1.96,  1.48000002,        1.96,0.00760000013
       1.965,  1.48000002,       1.965,0.00800000038
        1.97,  1.48000002,        1.97,0.00680000009
       1.975,  1.48000002,       1.975,0.00719999988
        1.98,  1.48000002,        1.98,0.0092000002
       1.985,  1.48000002,       1.985,0.00719999988
        1.99,  1.48000002,        1.99,0.0083999997
       1.995,  1.48000002,       1.995,0.00800000038
           2,  1.48000002,           2,0.00760000013
       2.005,  1.48000002,       2.005,0.00960000046
        2.01,  1.48000002,        2.01,0.00800000038
       2.015,  1.48000002,       2.015,0.00800000038
        2.02,  1.46000004,        2.02,0.00999999978
       2.025,  1.48000002,       2.025,0.0108000003
        2.03,  1.44000006,        2.03,0.00719999988
       2.035,  1.46000004,       2.035,0.00999999978
        2.04,  1.44000006,        2.04,0.00760000013
       2.045,  1.44000006,       2.045,      0.0104
        2.05,  1.44000006,        2.05,      0.0104
       2.055,  1.46000004,       2.055,0.0111999996
        2.06,  1.44000006,        2.06,0.0108000003
       2.065,  1.44000006,       2.065,0.0115999999
        2.07,  1.41999996,        2.07,0.0111999996
       2.075,  1.44000006,       2.075,0.0127999997
        2.08,  1.41999996,        2.08,0.0111999996
       2.085,  1.41999996,       2.085,0.0143999998
        2.09,        1.38,        2.09,0.0124000004
       2.095,        1.38,       2.095,0.0155999996
         2.1,  1.36000001,         2.1,0.0131999999
       2.105,        1.38,       2.105,0.0160000008
        2.11,  1.36000001,        2.11,0.0184000004
       2.115,  1.32000005,       2.115,0.0184000004
        2.12,  1.27999997,        2.12,0.0184000004
       2.125,  1.32000005,       2.125,0.0196000002
        2.13,  1.24000001,        2.13,0.0216000006
       2.135,  1.24000001,       2.135,0.0231999997
        2.14,  1.15999997,        2.14,0.0228000004
       2.145,  1.13999999,       2.145,0.0228000004
        2.15,  1.08000004,        2.15,0.0228000004
       2.155,  1.05999994,       2.155,0.0228000004
        2.16, 0.920000017,        2.16,0.0223999992
       2.165, 0.699999988,       2.165,0.0236000009
        2.17, 0.560000002,        2.17,0.0384000018
       2.175, 0.519999981,       2.175,0.0236000009
        2.18, 0.419999987,        2.18,0.0228000004
       2.185, 0.280000001,       2.185,0.0243999995
        2.19, 0.159999996,        2.19,0.0228000004
       2.195, 0.159999996,       2.195,0.0243999995
         2.2, 0.140000001,         2.2,0.0236000009
       2.205,  0.25999999,       2.205,0.0260000005
        2.21,  0.25999999,        2.21,0.0284000002
       2.215, 0.239999995,       2.215,0.0208000001
        2.22, 0.219999999,        2.22,0.0155999996
       2.225, 0.280000001,       2.225,0.0348000005
        2.23, 0.159999996,        2.23,0.0228000004
       2.235,0.0599999987,       2.235,      0.0252
        2.24,0.0599999987,        2.24,0.0240000002
       2.245,0.0599999987,       2.245,0.0248000007
        2.25,0.0599999987,        2.25,0.0243999995
       2.255,0.0599999987,       2.255,0.0243999995
        2.26,0.0599999987,        2.26,      0.0252
       2.265,0.0799999982,       2.265,0.0263999999
        2.27,0.0599999987,        2.27,0.0216000006
       2.275,0.0599999987,       2.275,0.0240000002
        2.28,0.0599999987,        2.28,0.0236000009
       2.285,0.0599999987,       2.285,0.0260000005
        2.29,0.0599999987,        2.29,0.0275999997
       2.295,0.0599999987,       2.295,0.0287999995
         2.3,0.0599999987,         2.3,0.0216000006
       2.305,0.0599999987,       2.305,      0.0252
        2.31,0.0399999991,        2.31,0.0228000004
       2.315,0.0599999987,       2.315,0.0231999997
        2.32,0.0599999987,        2.32,0.0240000002
       2.325,0.0599999987,       2.325,0.0231999997
        2.33,0.0599999987,        2.33,0.0231999997
       2.335,0.0599999987,       2.335,0.0260000005
        2.34,0.0599999987,        2.34,0.0240000002
       2.345,0.0599999987,       2.345,0.0240000002
        2.35,0.0599999987,        2.35,0.0236000009
       2.355,0.0599999987,       2.355,0.0260000005
        2.36,0.0399999991,        2.36,0.0223999992
       2.365,0.0599999987,       2.365,0.0248000007
        2.37,0.0599999987,        2.37,0.0211999994
       2.375,0.0799999982,       2.375,0.0231999997
        2.38,0.0399999991,        2.38,0.0223999992
       2.385,0.0599999987,       2.385,0.0263999999
        2.39,0.0599999987,        2.39,0.0223999992
       2.395,0.0799999982,       2.395,      0.0296
         2.4,0.0599999987,         2.4,0.0236000009
       2.405,0.0599999987,       2.405,0.0260000005
        2.41,0.0599999987,        2.41,0.0228000004
       2.415,0.0599999987,       2.415,0.0248000007
        2.42,0.0599999987,        2.42,0.0216000006
       2.425,0.0599999987,       2.425,0.0240000002
        2.43,0.0799999982,        2.43,0.0228000004
       2.435,0.0799999982,       2.435,0.0255999994
        2.44,0.0799999982,        2.44,0.0231999997
       2.445,0.0799999982,       2.445,0.0240000002
        2.45,0.0599999987,        2.45,0.0216000006
       2.455,0.0799999982,       2.455,0.0255999994
        2.46,0.0799999982,        2.46,0.0219999999
       2.465,0.0799999982,       2.465,0.0243999995
        2.47,0.0599999987,        2.47,0.0219999999
       2.475, 0.100000001,       2.475,0.0267999992
        2.48,0.0799999982,        2.48,      0.0252
       2.485,0.0799999982,       2.485,0.0236000009
        2.49,0.0599999987,        2.49,0.0216000006
       2.495,0.0599999987,       2.495,0.0263999999