s,Volts,s,Volts
        -2.5, -4.11999989,        -2.5,-0.102399997
      -2.495, -4.11999989,      -2.495,-0.102399997
       -2.49, -4.11999989,       -2.49,-0.102399997
      -2.485, -4.11999989,      -2.485,-0.102399997
       -2.48, -4.11999989,       -2.48,-0.102399997
      -2.475, -4.11999989,      -2.475,-0.102399997
       -2.47, -4.11999989,       -2.47,-0.102399997
      -2.465, -4.11999989,      -2.465,-0.102399997
       -2.46, -4.11999989,       -2.46,-0.102399997
      -2.455, -4.11999989,      -2.455,-0.102399997
       -2.45, -4.11999989,       -2.45,-0.102399997
      -2.445, -4.11999989,      -2.445,-0.102399997
       -2.44, -4.11999989,       -2.44,-0.102399997
      -2.435, -4.11999989,      -2.435,-0.102399997
       -2.43, -4.11999989,       -2.43,-0.102399997
      -2.425, -4.11999989,      -2.425,-0.102399997
       -2.42, -4.11999989,       -2.42,-0.102399997
      -2.415, -4.11999989,      -2.415,-0.102399997
       -2.41, -4.11999989,       -2.41,-0.102399997
      -2.405, -4.11999989,      -2.405,-0.102399997
        -2.4, -4.11999989,        -2.4,-0.102399997
      -2.395, -4.11999989,      -2.395,-0.102399997
       -2.39, -4.11999989,       -2.39,-0.102399997
      -2.385, -4.11999989,      -2.385,-0.102399997
       -2.38, -4.11999989,       -2.38,-0.102399997
      -2.375, -4.11999989,      -2.375,-0.102399997
       -2.37, -4.11999989,       -2.37,-0.102399997
      -2.365, -4.11999989,      -2.365,-0.102399997
       -2.36, -4.11999989,       -2.36,-0.102399997
      -2.355, -4.11999989,      -2.355,-0.102399997
       -2.35, -4.11999989,       -2.35,-0.102399997
      -2.345, -4.11999989,      -2.345,-0.102399997
       -2.34, -4.11999989,       -2.34,-0.102399997
      -2.335, -4.11999989,      -2.335,-0.102399997
       -2.33, -4.11999989,       -2.33,-0.102399997
      -2.325, -4.11999989,      -2.325,-0.102399997
       -2.32, -4.11999989,       -2.32,-0.102399997
      -2.315, -4.11999989,      -2.315,-0.102399997
       -2.31, -4.11999989,       -2.31,-0.102399997
      -2.305, -4.11999989,      -2.305,-0.102399997
        -2.3, -4.11999989,        -2.3,-0.102399997
      -2.295, -4.11999989,      -2.295,-0.102399997
       -2.29, -4.11999989,       -2.29,-0.102399997
      -2.285, -4.11999989,      -2.285,-0.102399997
       -2.28, -4.11999989,       -2.28,-0.102399997
      -2.275, -4.11999989,      -2.275,-0.102399997
       -2.27, -4.11999989,       -2.27,-0.102399997
      -2.265, -4.11999989,      -2.265,-0.102399997
       -2.26, -4.11999989,       -2.26,-0.102399997
      -2.255, -4.11999989,      -2.255,-0.102399997
       -2.25, -4.11999989,       -2.25,-0.102399997
      -2.245, -4.11999989,      -2.245,-0.102399997
       -2.24, -4.11999989,       -2.24,-0.102399997
      -2.235, -4.11999989,      -2.235,-0.102399997
       -2.23, -4.11999989,       -2.23,-0.102399997
      -2.225, -4.11999989,      -2.225,-0.102399997
       -2.22, -4.11999989,       -2.22,-0.102399997
      -2.215, -4.11999989,      -2.215,-0.102399997
       -2.21, -4.11999989,       -2.21,-0.102399997
      -2.205, -4.11999989,      -2.205,-0.102399997
        -2.2, -4.11999989,        -2.2,-0.102399997
      -2.195, -4.11999989,      -2.195,-0.102399997
       -2.19, -4.11999989,       -2.19,-0.102399997
      -2.185, -4.11999989,      -2.185,-0.102399997
       -2.18, -4.11999989,       -2.18,-0.102399997
      -2.175, -4.11999989,      -2.175,-0.102399997
       -2.17, -4.11999989,       -2.17,-0.102399997
      -2.165, -4.11999989,      -2.165,-0.102399997
       -2.16, -4.11999989,       -2.16,-0.102399997
      -2.155, -4.11999989,      -2.155,-0.102399997
       -2.15, -4.11999989,       -2.15,-0.102399997
      -2.145, -4.11999989,      -2.145,-0.102399997
       -2.14, -4.11999989,       -2.14,-0.102399997
      -2.135, -4.11999989,      -2.135,-0.102399997
       -2.13, -4.11999989,       -2.13,-0.102399997
      -2.125, -4.11999989,      -2.125,-0.102399997
       -2.12, -4.11999989,       -2.12,-0.102399997
      -2.115, -4.11999989,      -2.115,-0.102399997
       -2.11, -4.11999989,       -2.11,-0.102399997
      -2.105, -4.11999989,      -2.105,-0.102399997
        -2.1, -4.11999989,        -2.1,-0.102399997
      -2.095, -4.11999989,      -2.095,-0.102399997
       -2.09, -4.11999989,       -2.09,-0.102399997
      -2.085, -4.11999989,      -2.085,-0.102399997
       -2.08, -4.11999989,       -2.08,-0.102399997
      -2.075, -4.11999989,      -2.075,-0.102399997
       -2.07, -4.11999989,       -2.07,-0.102399997
      -2.065, -4.11999989,      -2.065,-0.102399997
       -2.06, -4.11999989,       -2.06,-0.102399997
      -2.055, -4.11999989,      -2.055,-0.102399997
       -2.05, -4.11999989,       -2.05,-0.102399997
      -2.045, -4.11999989,      -2.045,-0.102399997
       -2.04, -4.11999989,       -2.04,-0.102399997
      -2.035, -4.11999989,      -2.035,-0.102399997
       -2.03, -4.11999989,       -2.03,-0.102399997
      -2.025, -4.11999989,      -2.025,-0.102399997
       -2.02, -4.11999989,       -2.02,-0.102399997
      -2.015, -4.11999989,      -2.015,-0.102399997
       -2.01, -4.11999989,       -2.01,-0.102399997
      -2.005, -4.11999989,      -2.005,-0.102399997
          -2, -4.11999989,          -2,-0.102399997
      -1.995, -4.11999989,      -1.995,-0.102399997
       -1.99, -4.11999989,       -1.99,-0.102399997
      -1.985, -4.11999989,      -1.985,-0.102399997
       -1.98, -4.11999989,       -1.98,-0.102399997
      -1.975, -4.11999989,      -1.975,-0.102399997
       -1.97, -4.11999989,       -1.97,-0.102399997
      -1.965, -4.11999989,      -1.965,-0.102399997
       -1.96, -4.11999989,       -1.96,-0.102399997
      -1.955, -4.11999989,      -1.955,-0.102399997
       -1.95, -4.11999989,       -1.95,-0.102399997
      -1.945, -4.11999989,      -1.945,-0.102399997
       -1.94, -4.11999989,       -1.94,-0.102399997
      -1.935, -4.11999989,      -1.935,-0.102399997
       -1.93, -4.11999989,       -1.93,-0.102399997
      -1.925, -4.11999989,      -1.925,-0.102399997
       -1.92, -4.11999989,       -1.92,-0.102399997
      -1.915, -4.11999989,      -1.915,-0.102399997
       -1.91, -4.11999989,       -1.91,-0.102399997
      -1.905, -4.11999989,      -1.905,-0.102399997
        -1.9, -4.11999989,        -1.9,-0.102399997
      -1.895, -4.11999989,      -1.895,-0.102399997
       -1.89, -4.11999989,       -1.89,-0.102399997
      -1.885, -4.11999989,      -1.885,-0.102399997
       -1.88, -4.11999989,       -1.88,-0.102399997
      -1.875, -4.11999989,      -1.875,-0.102399997
       -1.87, -4.11999989,       -1.87,-0.102399997
      -1.865, -4.11999989,      -1.865,-0.102399997
       -1.86, -4.11999989,       -1.86,-0.102399997
      -1.855, -4.11999989,      -1.855,-0.102399997
       -1.85, -4.11999989,       -1.85,-0.102399997
      -1.845, -4.11999989,      -1.845,-0.102399997
       -1.84, -4.11999989,       -1.84,-0.102399997
      -1.835, -4.11999989,      -1.835,-0.102399997
       -1.83, -4.11999989,       -1.83,-0.102399997
      -1.825, -4.11999989,      -1.825,-0.102399997
       -1.82, -4.11999989,       -1.82,-0.102399997
      -1.815, -4.11999989,      -1.815,-0.102399997
       -1.81, -4.11999989,       -1.81,-0.102399997
      -1.805, -4.11999989,      -1.805,-0.102399997
        -1.8, -4.11999989,        -1.8,-0.102399997
      -1.795, -4.11999989,      -1.795,-0.102399997
       -1.79, -4.11999989,       -1.79,-0.102399997
      -1.785, -4.11999989,      -1.785,-0.102399997
       -1.78, -4.11999989,       -1.78,-0.102399997
      -1.775, -4.11999989,      -1.775,-0.102399997
       -1.77, -4.11999989,       -1.77,-0.102399997
      -1.765, -4.11999989,      -1.765,-0.102399997
       -1.76, -4.11999989,       -1.76,-0.102399997
      -1.755, -4.11999989,      -1.755,-0.102399997
       -1.75, -4.11999989,       -1.75,-0.102399997
      -1.745, -4.11999989,      -1.745,-0.102399997
       -1.74, -4.11999989,       -1.74,-0.102399997
      -1.735, -4.11999989,      -1.735,-0.102399997
       -1.73, -4.11999989,       -1.73,-0.102399997
      -1.725, -4.11999989,      -1.725,-0.102399997
       -1.72, -4.11999989,       -1.72,-0.102399997
      -1.715, -4.11999989,      -1.715,-0.102399997
       -1.71, -4.11999989,       -1.71,-0.102399997
      -1.705,  3.44000006,      -1.705,0.0223999992
        -1.7,  3.51999998,        -1.7,0.0263999999
      -1.695,  3.48000002,      -1.695,0.0255999994
       -1.69,  3.55999994,       -1.69,0.0320000015
      -1.685,   3.4000001,      -1.685,0.0280000009
       -1.68,  3.48000002,       -1.68,0.0272000004
      -1.675,   3.3599999,      -1.675,0.0272000004
       -1.67,  3.44000006,       -1.67,0.0280000009
      -1.665,  3.31999993,      -1.665,0.0287999995
       -1.66,  3.24000001,       -1.66,0.0320000015
      -1.655,  2.96000004,      -1.655,0.0304000005
       -1.65,           3,       -1.65,      0.0296
      -1.645,  2.72000003,      -1.645,0.0335999988
       -1.64,  2.68000007,       -1.64,0.0320000015
      -1.635,   2.4000001,      -1.635,0.0335999988
       -1.63,  2.44000006,       -1.63,0.0335999988
      -1.625,  2.07999992,      -1.625,0.0328000002
       -1.62,           2,       -1.62,0.0351999998
      -1.615,  1.91999996,      -1.615,0.0335999988
       -1.61,  1.72000003,       -1.61,0.0344000012
      -1.605,  1.51999998,      -1.605,0.0344000012
        -1.6,  1.51999998,        -1.6,0.0344000012
      -1.595,  1.36000001,      -1.595,0.0351999998
       -1.59, 0.959999979,       -1.59,0.0351999998
      -1.585, 0.720000029,      -1.585,0.0335999988
       -1.58, 0.639999986,       -1.58,0.0359999985
      -1.575, 0.479999989,      -1.575,0.0351999998
       -1.57, 0.239999995,       -1.57,0.0359999985
      -1.565,0.0799999982,      -1.565,0.0359999985
       -1.56, 0.119999997,       -1.56,0.0384000018
      -1.555, 0.239999995,      -1.555,0.0344000012
       -1.55, 0.119999997,       -1.55,0.0359999985
      -1.545, 0.159999996,      -1.545,0.0328000002
       -1.54,-0.0399999991,       -1.54,0.0368000008
      -1.535,-0.0799999982,      -1.535,0.0335999988
       -1.53,-0.0799999982,       -1.53,0.0359999985
      -1.525,-0.0799999982,      -1.525,0.0344000012
       -1.52,-0.0799999982,       -1.52,0.0384000018
      -1.515,-0.0399999991,      -1.515,0.0351999998
       -1.51,-0.0799999982,       -1.51,0.0344000012
      -1.505,-0.0399999991,      -1.505,0.0359999985
        -1.5,-0.0799999982,        -1.5,0.0392000005
      -1.495,-0.0399999991,      -1.495,0.0335999988
       -1.49,-0.0799999982,       -1.49,0.0375999995
      -1.485,-0.0799999982,      -1.485,0.0359999985
       -1.48,-0.0799999982,       -1.48,0.0359999985
      -1.475,-0.0799999982,      -1.475,0.0344000012
       -1.47,-0.0799999982,       -1.47,0.0359999985
      -1.465,-0.0799999982,      -1.465,0.0351999998
       -1.46,-0.0799999982,       -1.46,0.0368000008
      -1.455,-0.0399999991,      -1.455,0.0344000012
       -1.45,-0.0399999991,       -1.45,0.0368000008
      -1.445,-0.119999997,      -1.445,0.0335999988
       -1.44,-0.0399999991,       -1.44,0.0368000008
      -1.435,-0.0799999982,      -1.435,0.0344000012
       -1.43,-0.0399999991,       -1.43,0.0351999998
      -1.425,-0.0399999991,      -1.425,0.0351999998
       -1.42,-0.0799999982,       -1.42,0.0359999985
      -1.415,-0.0399999991,      -1.415,0.0351999998
       -1.41,-0.0799999982,       -1.41,0.0368000008
      -1.405,-0.0399999991,      -1.405,0.0359999985
        -1.4,           0,        -1.4,0.0375999995
      -1.395,-0.0799999982,      -1.395,0.0344000012
       -1.39,-0.0399999991,       -1.39,0.0375999995
      -1.385,-0.0799999982,      -1.385,0.0351999998
       -1.38,-0.0399999991,       -1.38,0.0384000018
      -1.375,-0.0399999991,      -1.375,0.0344000012
       -1.37,-0.0399999991,       -1.37,0.0368000008
      -1.365,-0.0799999982,      -1.365,0.0328000002
       -1.36,-0.0799999982,       -1.36,0.0344000012
      -1.355,-0.0799999982,      -1.355,0.0335999988
       -1.35,-0.0799999982,       -1.35,0.0351999998
      -1.345,-0.0399999991,      -1.345,0.0344000012
       -1.34,-0.0399999991,       -1.34,0.0375999995
      -1.335,-0.0799999982,      -1.335,0.0351999998
       -1.33,           0,       -1.33,0.0368000008
      -1.325,-0.0399999991,      -1.325,0.0328000002
       -1.32,           0,       -1.32,0.0399999991
      -1.315,-0.0799999982,      -1.315,0.0335999988
       -1.31,-0.0399999991,       -1.31,0.0359999985
      -1.305,-0.0399999991,      -1.305,0.0351999998
        -1.3,-0.0399999991,        -1.3,0.0351999998
      -1.295,-0.0399999991,      -1.295,0.0344000012
       -1.29,           0,       -1.29,0.0384000018
      -1.285,           0,      -1.285,0.0344000012
       -1.28,-0.0399999991,       -1.28,0.0344000012
      -1.275,-0.0399999991,      -1.275,0.0368000008
       -1.27,-0.0799999982,       -1.27,0.0375999995
      -1.265,-0.0399999991,      -1.265,0.0335999988
       -1.26,0.0399999991,       -1.26,0.0368000008
      -1.255,-0.0399999991,      -1.255,0.0359999985
       -1.25,-0.0799999982,       -1.25,0.0351999998
      -1.245,-0.0399999991,      -1.245,0.0344000012
       -1.24,           0,       -1.24,0.0368000008
      -1.235,-0.0399999991,      -1.235,0.0351999998
       -1.23,           0,       -1.23,0.0384000018
      -1.225, 0.119999997,      -1.225,0.0359999985
       -1.22, 0.159999996,       -1.22,0.0408000015
      -1.215,0.0799999982,      -1.215,0.0344000012
       -1.21, 0.119999997,       -1.21,0.0359999985
      -1.205, 0.159999996,      -1.205,0.0384000018
        -1.2, 0.239999995,        -1.2,0.0359999985
      -1.195, 0.200000003,      -1.195,0.0351999998
       -1.19, 0.280000001,       -1.19,0.0375999995
      -1.185, 0.200000003,      -1.185,0.0351999998
       -1.18, 0.239999995,       -1.18,0.0368000008
      -1.175, 0.119999997,      -1.175,0.0335999988
       -1.17, 0.119999997,       -1.17,0.0368000008
      -1.165, 0.159999996,      -1.165,0.0344000012
       -1.16,0.0399999991,       -1.16,      0.0296
      -1.155,0.0799999982,      -1.155,0.0344000012
       -1.15,0.0799999982,       -1.15,0.0359999985
      -1.145, 0.200000003,      -1.145,0.0351999998
       -1.14, 0.519999981,       -1.14,0.0359999985
      -1.135, 0.600000024,      -1.135,0.0328000002
       -1.13, 0.680000007,       -1.13,0.0359999985
      -1.125,  0.75999999,      -1.125,0.0335999988
       -1.12, 0.959999979,       -1.12,0.0384000018
      -1.115,  1.51999998,      -1.115,0.0351999998
       -1.11,  1.63999999,       -1.11,0.0351999998
      -1.105,  1.51999998,      -1.105,0.0335999988
        -1.1,  1.60000002,        -1.1,0.0368000008
      -1.095,  1.55999994,      -1.095,0.0359999985
       -1.09,  1.75999999,       -1.09,0.0359999985
      -1.085,        1.88,      -1.085,0.0375999995
       -1.08,           2,       -1.08,0.0359999985
      -1.075,  1.91999996,      -1.075,0.0344000012
       -1.07,           2,       -1.07,0.0351999998
      -1.065,  1.84000003,      -1.065,0.0320000015
       -1.06,  2.20000005,       -1.06,      0.0296
      -1.055,  2.03999996,      -1.055,0.0335999988
       -1.05,  2.51999998,       -1.05,0.0335999988
      -1.045,  2.68000007,      -1.045,0.0304000005
       -1.04,  2.75999999,       -1.04,0.0311999992
      -1.035,   2.5999999,      -1.035,0.0320000015
       -1.03,  2.72000003,       -1.03,0.0320000015
      -1.025,  2.48000002,      -1.025,0.0368000008
       -1.02,  2.75999999,       -1.02,0.0328000002
      -1.015,  2.68000007,      -1.015,      0.0296
       -1.01,  2.88000011,       -1.01,0.0311999992
      -1.005,  2.88000011,      -1.005,0.0304000005
          -1,  3.07999992,          -1,0.0311999992
      -0.995,  3.31999993,      -0.995,0.0280000009
       -0.99,   3.4000001,       -0.99,0.0287999995
      -0.985,  3.31999993,      -0.985,0.0304000005
       -0.98,  3.48000002,       -0.98,0.0272000004
      -0.975,   3.3599999,      -0.975,0.0272000004
       -0.97,   3.3599999,       -0.97,0.0287999995
      -0.965,  3.48000002,      -0.965,0.0263999999
       -0.96,  3.55999994,       -0.96,0.0248000007
      -0.955,  3.44000006,      -0.955,0.0248000007
       -0.95,  3.55999994,       -0.95,0.0263999999
      -0.945,  3.48000002,      -0.945,0.0263999999
       -0.94,  3.55999994,       -0.94,0.0255999994
      -0.935,  3.48000002,      -0.935,0.0255999994
       -0.93,  3.55999994,       -0.93,0.0231999997
      -0.925,  3.55999994,      -0.925,0.0223999992
       -0.92,   3.5999999,       -0.92,0.0248000007
      -0.915,  3.55999994,      -0.915,0.0240000002
       -0.91,  3.68000007,       -0.91,0.0216000006
      -0.905,   3.6400001,      -0.905,0.0199999996
        -0.9,  3.68000007,        -0.9,0.0255999994
      -0.895,   3.6400001,      -0.895,0.0199999996
       -0.89,  3.68000007,       -0.89,0.0199999996
      -0.885,   3.6400001,      -0.885,0.0192000009
       -0.88,  3.68000007,       -0.88,0.0192000009
      -0.875,  3.72000003,      -0.875,0.0184000004
       -0.87,  3.72000003,       -0.87,0.0167999994
      -0.865,  3.72000003,      -0.865,0.0175999999
       -0.86,  3.75999999,       -0.86,0.0184000004
      -0.855,  3.72000003,      -0.855,0.0167999994
       -0.85,  3.75999999,       -0.85,0.0167999994
      -0.845,  3.72000003,      -0.845,0.0175999999
       -0.84,  3.75999999,       -0.84,0.0152000003
      -0.835,  3.72000003,      -0.835,0.0175999999
       -0.83,  3.75999999,       -0.83,0.0167999994
      -0.825,  3.75999999,      -0.825,0.0152000003
       -0.82,  3.75999999,       -0.82,0.0143999998
      -0.815,  3.72000003,      -0.815,0.0143999998
       -0.81,  3.79999995,       -0.81,0.0152000003
      -0.805,  3.75999999,      -0.805,0.0152000003
        -0.8,  3.75999999,        -0.8,0.0136000002
      -0.795,  3.79999995,      -0.795,0.0167999994
       -0.79,  3.83999991,       -0.79,0.0143999998
      -0.785,  3.75999999,      -0.785,0.00960000046
       -0.78,  3.79999995,       -0.78,0.0127999997
      -0.775,  3.75999999,      -0.775,0.0143999998
       -0.77,  3.83999991,       -0.77,0.0136000002
      -0.765,  3.75999999,      -0.765,0.0111999996
       -0.76,  3.79999995,       -0.76,      0.0104
      -0.755,  3.79999995,      -0.755,0.0127999997
       -0.75,  3.79999995,       -0.75,0.0120000001
      -0.745,  3.79999995,      -0.745,0.0120000001
       -0.74,  3.88000011,       -0.74,0.0111999996
      -0.735,  3.79999995,      -0.735,0.0127999997
       -0.73,  3.88000011,       -0.73,0.00960000046
      -0.725,  3.83999991,      -0.725,0.0120000001
       -0.72,  3.83999991,       -0.72,0.0111999996
      -0.715,  3.79999995,      -0.715,0.0111999996
       -0.71,  3.83999991,       -0.71,      0.0104
      -0.705,  3.83999991,      -0.705,      0.0104
        -0.7,  3.83999991,        -0.7,0.0120000001
      -0.695,  3.83999991,      -0.695,      0.0104
       -0.69,  3.88000011,       -0.69,0.00639999984
      -0.685,  3.88000011,      -0.685,0.0111999996
       -0.68,  3.88000011,       -0.68,      0.0104
      -0.675,  3.83999991,      -0.675,0.0120000001
       -0.67,  3.83999991,       -0.67,0.0111999996
      -0.665,  3.83999991,      -0.665,0.00960000046
       -0.66,  3.92000008,       -0.66,0.00960000046
      -0.655,  3.83999991,      -0.655,0.00960000046
       -0.65,  3.88000011,       -0.65,      0.0104
      -0.645,  3.83999991,      -0.645,      0.0104
       -0.64,  3.88000011,       -0.64,0.00879999995
      -0.635,  3.83999991,      -0.635,0.00960000046
       -0.63,  3.83999991,       -0.63,0.0111999996
      -0.625,  3.83999991,      -0.625,      0.0104
       -0.62,  3.83999991,       -0.62,0.00879999995
      -0.615,  3.83999991,      -0.615,0.00879999995
       -0.61,  3.88000011,       -0.61,0.00879999995
      -0.605,  3.83999991,      -0.605,      0.0104
        -0.6,  3.88000011,        -0.6,0.00879999995
      -0.595,  3.83999991,      -0.595,0.00800000038
       -0.59,  3.88000011,       -0.59,      0.0104
      -0.585,  3.83999991,      -0.585,0.00960000046
       -0.58,  3.83999991,       -0.58,      0.0104
      -0.575,  3.83999991,      -0.575,0.00879999995
       -0.57,  3.88000011,       -0.57,0.00800000038
      -0.565,  3.88000011,      -0.565,0.00960000046
       -0.56,  3.88000011,       -0.56,0.00960000046
      -0.555,  3.88000011,      -0.555,0.00879999995
       -0.55,  3.88000011,       -0.55,0.0111999996
      -0.545,  3.83999991,      -0.545,      0.0104
       -0.54,  3.88000011,       -0.54,0.00879999995
      -0.535,  3.83999991,      -0.535,      0.0104
       -0.53,  3.83999991,       -0.53,0.00960000046
      -0.525,  3.83999991,      -0.525,0.00800000038
       -0.52,  3.88000011,       -0.52,0.00879999995
      -0.515,  3.88000011,      -0.515,      0.0104
       -0.51,  3.88000011,       -0.51,0.00960000046
      -0.505,  3.83999991,      -0.505,0.00960000046
        -0.5,  3.83999991,        -0.5,0.00960000046
      -0.495,  3.88000011,      -0.495,      0.0104
       -0.49,  3.88000011,       -0.49,      0.0104
      -0.485,  3.88000011,      -0.485,0.00800000038
       -0.48,  3.88000011,       -0.48,      0.0104
      -0.475,  3.88000011,      -0.475,0.00800000038
       -0.47,  3.83999991,       -0.47,0.00960000046
      -0.465,  3.88000011,      -0.465,0.00879999995
       -0.46,  3.88000011,       -0.46,0.00639999984
      -0.455,  3.88000011,      -0.455,0.00960000046
       -0.45,  3.88000011,       -0.45,0.00800000038
      -0.445,  3.83999991,      -0.445,0.00879999995
       -0.44,  3.88000011,       -0.44,0.00879999995
      -0.435,  3.83999991,      -0.435,0.0120000001
       -0.43,  3.83999991,       -0.43,0.00879999995
      -0.425,  3.88000011,      -0.425,      0.0104
       -0.42,  3.83999991,       -0.42,0.00879999995
      -0.415,  3.88000011,      -0.415,0.00879999995
       -0.41,  3.83999991,       -0.41,      0.0104
      -0.405,  3.83999991,      -0.405,0.00960000046
        -0.4,  3.88000011,        -0.4,0.00960000046
      -0.395,  3.83999991,      -0.395,0.0127999997
       -0.39,  3.88000011,       -0.39,0.0111999996
      -0.385,  3.79999995,      -0.385,0.0120000001
       -0.38,  3.83999991,       -0.38,0.00960000046
      -0.375,  3.83999991,      -0.375,0.0111999996
       -0.37,  3.83999991,       -0.37,0.0111999996
      -0.365,  3.79999995,      -0.365,0.0120000001
       -0.36,  3.79999995,       -0.36,      0.0104
      -0.355,  3.79999995,      -0.355,0.0120000001
       -0.35,  3.83999991,       -0.35,0.0111999996
      -0.345,  3.83999991,      -0.345,0.0152000003
       -0.34,  3.79999995,       -0.34,0.0127999997
      -0.335,  3.79999995,      -0.335,0.0111999996
       -0.33,  3.83999991,       -0.33,0.0152000003
      -0.325,  3.79999995,      -0.325,0.0111999996
       -0.32,  3.79999995,       -0.32,0.0127999997
      -0.315,  3.79999995,      -0.315,0.0136000002
       -0.31,  3.79999995,       -0.31,0.0111999996
      -0.305,  3.79999995,      -0.305,0.0143999998
        -0.3,  3.79999995,        -0.3,0.0120000001
      -0.295,  3.75999999,      -0.295,0.0120000001
       -0.29,  3.79999995,       -0.29,0.0152000003
      -0.285,  3.75999999,      -0.285,0.0143999998
       -0.28,  3.83999991,       -0.28,0.0152000003
      -0.275,  3.75999999,      -0.275,0.0152000003
       -0.27,  3.79999995,       -0.27,0.0167999994
      -0.265,  3.75999999,      -0.265,0.0143999998
       -0.26,  3.79999995,       -0.26,0.0152000003
      -0.255,  3.75999999,      -0.255,0.0152000003
       -0.25,  3.75999999,       -0.25,0.0152000003
      -0.245,  3.72000003,      -0.245,0.0143999998
       -0.24,  3.79999995,       -0.24,0.0184000004
      -0.235,  3.72000003,      -0.235,0.0152000003
       -0.23,  3.75999999,       -0.23,0.0152000003
      -0.225,  3.72000003,      -0.225,0.0199999996
       -0.22,  3.75999999,       -0.22,0.0184000004
      -0.215,  3.72000003,      -0.215,0.0160000008
       -0.21,  3.75999999,       -0.21,0.0175999999
      -0.205,  3.68000007,      -0.205,0.0175999999
        -0.2,  3.75999999,        -0.2,0.0175999999
      -0.195,  3.68000007,      -0.195,0.0184000004
       -0.19,  3.72000003,       -0.19,0.0167999994
      -0.185,  3.68000007,      -0.185,0.0192000009
       -0.18,  3.72000003,       -0.18,0.0199999996
      -0.175,  3.68000007,      -0.175,0.0199999996
       -0.17,  3.72000003,       -0.17,0.0184000004
      -0.165,  3.68000007,      -0.165,0.0199999996
       -0.16,  3.72000003,       -0.16,0.0208000001
      -0.155,   3.6400001,      -0.155,0.0208000001
       -0.15,  3.68000007,       -0.15,0.0216000006
      -0.145,   3.5999999,      -0.145,0.0223999992
       -0.14,   3.6400001,       -0.14,0.0216000006
      -0.135,   3.5999999,      -0.135,0.0208000001
       -0.13,   3.5999999,       -0.13,0.0231999997
      -0.125,  3.55999994,      -0.125,0.0231999997
       -0.12,  3.55999994,       -0.12,0.0223999992
      -0.115,  3.55999994,      -0.115,0.0231999997
       -0.11,  3.55999994,       -0.11,0.0248000007
      -0.105,  3.48000002,      -0.105,0.0255999994
        -0.1,  3.51999998,        -0.1,0.0272000004
      -0.095,  3.48000002,      -0.095,0.0272000004
       -0.09,  3.48000002,       -0.09,0.0255999994
      -0.085,   3.4000001,      -0.085,0.0240000002
       -0.08,  3.44000006,       -0.08,0.0280000009
      -0.075,   3.3599999,      -0.075,0.0263999999
       -0.07,  3.44000006,       -0.07,0.0263999999
      -0.065,  3.31999993,      -0.065,0.0280000009
       -0.06,   3.4000001,       -0.06,      0.0296
      -0.055,  3.03999996,      -0.055,0.0304000005
       -0.05,  3.07999992,       -0.05,0.0320000015
      -0.045,  2.92000008,      -0.045,      0.0296
       -0.04,  2.83999991,       -0.04,0.0311999992
      -0.035,   2.5999999,      -0.035,0.0320000015
       -0.03,   2.6400001,       -0.03,0.0335999988
      -0.025,  2.51999998,      -0.025,0.0320000015
       -0.02,   2.4000001,       -0.02,0.0335999988
      -0.015,  2.11999989,      -0.015,0.0328000002
       -0.01,  2.20000005,       -0.01,0.0320000015
      -0.005,  1.91999996,      -0.005,0.0328000002
           0,  1.96000004,           0,0.0351999998
       0.005,  1.75999999,       0.005,0.0351999998
        0.01,  1.75999999,        0.01,0.0328000002
       0.015,  1.55999994,       0.015,0.0344000012
        0.02,  1.60000002,        0.02,0.0359999985
       0.025,  1.27999997,       0.025,0.0351999998
        0.03,  1.32000005,        0.03,0.0351999998
       0.035, 0.920000017,       0.035,0.0344000012
        0.04, 0.800000012,        0.04,0.0368000008
       0.045, 0.639999986,       0.045,0.0351999998
        0.05, 0.519999981,        0.05,0.0335999988
       0.055,0.0399999991,       0.055,0.0351999998
        0.06,0.0799999982,        0.06,0.0359999985
       0.065,0.0799999982,       0.065,0.0351999998
        0.07, 0.280000001,        0.07,0.0359999985
       0.075, 0.119999997,       0.075,0.0351999998
        0.08, 0.239999995,        0.08,0.0368000008
       0.085, 0.239999995,       0.085,0.0351999998
        0.09,           0,        0.09,0.0368000008
       0.095,-0.0399999991,       0.095,0.0344000012
         0.1,-0.0799999982,         0.1,0.0344000012
       0.105,-0.0799999982,       0.105,0.0351999998
        0.11,-0.0399999991,        0.11,0.0351999998
       0.115,-0.0799999982,       0.115,0.0368000008
        0.12,-0.0399999991,        0.12,0.0399999991
       0.125,-0.0399999991,       0.125,0.0351999998
        0.13,-0.0399999991,        0.13,0.0359999985
       0.135,-0.0799999982,       0.135,0.0351999998
        0.14,-0.0799999982,        0.14,0.0359999985
       0.145,-0.0799999982,       0.145,0.0351999998
        0.15,-0.0399999991,        0.15,0.0392000005
       0.155,-0.0799999982,       0.155,0.0351999998
        0.16,-0.0399999991,        0.16,0.0359999985
       0.165,-0.0399999991,       0.165,0.0351999998
        0.17,-0.0399999991,        0.17,0.0368000008
       0.175,-0.0399999991,       0.175,0.0392000005
        0.18,-0.0799999982,        0.18,0.0359999985
       0.185,-0.0799999982,       0.185,0.0359999985
        0.19,-0.0399999991,        0.19,0.0368000008
       0.195,-0.0799999982,       0.195,0.0335999988
         0.2,-0.0399999991,         0.2,0.0368000008
       0.205,-0.0399999991,       0.205,0.0344000012
        0.21,-0.0799999982,        0.21,0.0344000012
       0.215,-0.0799999982,       0.215,0.0351999998
        0.22,-0.0799999982,        0.22,0.0344000012
       0.225,-0.0399999991,       0.225,0.0351999998
        0.23,-0.0399999991,        0.23,0.0351999998
       0.235,-0.0399999991,       0.235,0.0344000012
        0.24,-0.0399999991,        0.24,0.0384000018
       0.245,-0.0399999991,       0.245,0.0384000018
        0.25,-0.0399999991,        0.25,0.0351999998
       0.255,-0.0399999991,       0.255,0.0351999998
        0.26,-0.0399999991,        0.26,0.0359999985
       0.265,           0,       0.265,0.0351999998
        0.27, 0.159999996,        0.27,0.0368000008
       0.275, 0.119999997,       0.275,0.0359999985
        0.28, 0.119999997,        0.28,0.0344000012
       0.285, 0.119999997,       0.285,0.0320000015
        0.29, 0.159999996,        0.29,0.0375999995
       0.295, 0.200000003,       0.295,0.0351999998
         0.3, 0.200000003,         0.3,0.0351999998
       0.305, 0.239999995,       0.305,0.0359999985
        0.31, 0.200000003,        0.31,0.0359999985
       0.315, 0.200000003,       0.315,0.0359999985
        0.32, 0.200000003,        0.32,0.0384000018
       0.325, 0.119999997,       0.325,0.0351999998
        0.33, 0.200000003,        0.33,0.0351999998
       0.335, 0.119999997,       0.335,0.0344000012
        0.34,0.0799999982,        0.34,0.0351999998
       0.345,0.0799999982,       0.345,0.0359999985
        0.35, 0.200000003,        0.35,0.0416000001
       0.355, 0.400000006,       0.355,0.0344000012
        0.36, 0.680000007,        0.36,0.0368000008
       0.365, 0.639999986,       0.365,0.0351999998
        0.37, 0.639999986,        0.37,0.0344000012
       0.375, 0.800000012,       0.375,0.0344000012
        0.38, 0.800000012,        0.38,0.0351999998
       0.385, 0.879999995,       0.385,0.0335999988
        0.39,           1,        0.39,0.0368000008
       0.395,  1.51999998,       0.395,0.0344000012
         0.4,  1.60000002,         0.4,0.0368000008
       0.405,  1.55999994,       0.405,0.0351999998
        0.41,  1.63999999,        0.41,0.0351999998
       0.415,  1.55999994,       0.415,0.0344000012
        0.42,  1.63999999,        0.42,0.0368000008
       0.425,  1.55999994,       0.425,0.0344000012
        0.43,  1.60000002,        0.43,0.0344000012
       0.435,  1.63999999,       0.435,0.0320000015
        0.44,  1.67999995,        0.44,0.0335999988
       0.445,        1.88,       0.445,0.0344000012
        0.45,           2,        0.45,0.0351999998
       0.455,  1.91999996,       0.455,0.0344000012
        0.46,  1.96000004,        0.46,0.0351999998
       0.465,        1.88,       0.465,0.0351999998
        0.47,           2,        0.47,0.0344000012
       0.475,        1.88,       0.475,0.0320000015
        0.48,  1.96000004,        0.48,0.0351999998
       0.485,  2.11999989,       0.485,0.0328000002
        0.49,  2.24000001,        0.49,0.0344000012
       0.495,  2.11999989,       0.495,0.0328000002
         0.5,  2.20000005,         0.5,0.0335999988
       0.505,  2.11999989,       0.505,0.0311999992
        0.51,  2.20000005,        0.51,0.0359999985
       0.515,  2.48000002,       0.515,0.0320000015
        0.52,  2.51999998,        0.52,0.0328000002
       0.525,   2.3599999,       0.525,0.0320000015
        0.53,  2.79999995,        0.53,0.0344000012
       0.535,  2.72000003,       0.535,0.0328000002
        0.54,   2.6400001,        0.54,0.0328000002
       0.545,  2.55999994,       0.545,0.0311999992
        0.55,  2.79999995,        0.55,0.0328000002
       0.555,  2.68000007,       0.555,0.0320000015
        0.56,   2.6400001,        0.56,0.0335999988
       0.565,  2.55999994,       0.565,0.0311999992
        0.57,  2.72000003,        0.57,0.0344000012
       0.575,  2.51999998,       0.575,0.0304000005
        0.58,   2.5999999,        0.58,0.0335999988
       0.585,  2.51999998,       0.585,0.0328000002
        0.59,  2.75999999,        0.59,0.0368000008
       0.595,   2.6400001,       0.595,0.0320000015
         0.6,  2.72000003,         0.6,0.0328000002
       0.605,  2.72000003,       0.605,0.0216000006
        0.61,  2.79999995,        0.61,0.0320000015
       0.615,  2.72000003,       0.615,0.0344000012
        0.62,  2.92000008,        0.62,0.0320000015
       0.625,  2.79999995,       0.625,0.0311999992
        0.63,  2.88000011,        0.63,0.0320000015
       0.635,  2.88000011,       0.635,0.0304000005
        0.64,           3,        0.64,0.0320000015
       0.645,  2.96000004,       0.645,0.0304000005
        0.65,   3.4000001,        0.65,0.0287999995
       0.655,  3.31999993,       0.655,0.0287999995
        0.66,   3.3599999,        0.66,0.0287999995
       0.665,  3.31999993,       0.665,      0.0296
        0.67,   3.4000001,        0.67,0.0287999995
       0.675,  3.31999993,       0.675,0.0280000009
        0.68,   3.4000001,        0.68,0.0287999995
       0.685,  3.31999993,       0.685,0.0287999995
        0.69,  3.44000006,        0.69,0.0272000004
       0.695,   3.3599999,       0.695,0.0263999999
         0.7,  3.44000006,         0.7,0.0280000009
       0.705,   3.3599999,       0.705,0.0272000004
        0.71,  3.44000006,        0.71,0.0272000004
       0.715,  3.48000002,       0.715,0.0248000007
        0.72,  3.48000002,        0.72,0.0223999992
       0.725,  3.48000002,       0.725,0.0263999999
        0.73,  3.51999998,        0.73,0.0272000004
       0.735,  3.48000002,       0.735,-0.00319999992
        0.74,  3.51999998,        0.74,0.0263999999
       0.745,  3.48000002,       0.745,0.0255999994
        0.75,  3.55999994,        0.75,0.0240000002
       0.755,  3.51999998,       0.755,0.0248000007
        0.76,   3.5999999,        0.76,0.0248000007
       0.765,  3.51999998,       0.765,0.0240000002
        0.77,  3.55999994,        0.77,0.0248000007
       0.775,  3.51999998,       0.775,0.0248000007
        0.78,   3.5999999,        0.78,0.0240000002
       0.785,  3.55999994,       0.785,0.0216000006
        0.79,   3.5999999,        0.79,0.0216000006
       0.795,  3.55999994,       0.795,0.0231999997
         0.8,   3.6400001,         0.8,0.0240000002
       0.805,   3.6400001,       0.805,0.0208000001
        0.81,  3.72000003,        0.81,0.0216000006
       0.815,  3.68000007,       0.815,0.0199999996
        0.82,  3.72000003,        0.82,0.0184000004
       0.825,   3.6400001,       0.825,0.0216000006
        0.83,  3.68000007,        0.83,0.0199999996
       0.835,   3.6400001,       0.835,0.0199999996
        0.84,  3.68000007,        0.84,0.0184000004
       0.845,  3.68000007,       0.845,0.0208000001
        0.85,  3.72000003,        0.85,0.0199999996
       0.855,  3.68000007,       0.855,0.0192000009
        0.86,  3.75999999,        0.86,0.0199999996
       0.865,  3.68000007,       0.865,0.0167999994
        0.87,  3.72000003,        0.87,0.0184000004
       0.875,  3.68000007,       0.875,0.0167999994
        0.88,  3.72000003,        0.88,0.0199999996
       0.885,  3.72000003,       0.885,0.0175999999
        0.89,  3.75999999,        0.89,0.0167999994
       0.895,  3.75999999,       0.895,0.0199999996
         0.9,  3.72000003,         0.9,0.0175999999
       0.905,  3.72000003,       0.905,0.0167999994
        0.91,  3.75999999,        0.91,0.0167999994
       0.915,  3.72000003,       0.915,0.0184000004
        0.92,  3.75999999,        0.92,0.0167999994
       0.925,  3.75999999,       0.925,0.0160000008
        0.93,  3.79999995,        0.93,0.0192000009
       0.935,  3.79999995,       0.935,0.0160000008
        0.94,  3.75999999,        0.94,0.0167999994
       0.945,  3.75999999,       0.945,0.0143999998
        0.95,  3.75999999,        0.95,0.0143999998
       0.955,  3.79999995,       0.955,0.0127999997
        0.96,  3.75999999,        0.96,0.0152000003
       0.965,  3.75999999,       0.965,0.0152000003
        0.97,  3.79999995,        0.97,0.0167999994
       0.975,  3.79999995,       0.975,0.0152000003
        0.98,  3.83999991,        0.98,0.0423999988
       0.985,  3.79999995,       0.985,0.0136000002
        0.99,  3.79999995,        0.99,0.0152000003
       0.995,  3.79999995,       0.995,0.0208000001
           1,  3.79999995,           1,0.0120000001
       1.005,  3.75999999,       1.005,0.0136000002
        1.01,  3.79999995,        1.01,0.0127999997
       1.015,  3.75999999,       1.015,0.00960000046
        1.02,  3.79999995,        1.02,0.0143999998
       1.025,  3.79999995,       1.025,0.0143999998
        1.03,  3.79999995,        1.03,0.0127999997
       1.035,  3.79999995,       1.035,0.0111999996
        1.04,  3.83999991,        1.04,0.0127999997
       1.045,  3.79999995,       1.045,0.00960000046
        1.05,  3.83999991,        1.05,0.0127999997
       1.055,  3.79999995,       1.055,0.0143999998
        1.06,  3.79999995,        1.06,0.0127999997
       1.065,  3.75999999,       1.065,      0.0104
        1.07,  3.83999991,        1.07,0.0127999997
       1.075,  3.75999999,       1.075,0.0136000002
        1.08,  3.83999991,        1.08,0.0136000002
       1.085,  3.79999995,       1.085,0.0143999998
        1.09,  3.79999995,        1.09,0.0127999997
       1.095,  3.83999991,       1.095,0.0111999996
         1.1,  3.83999991,         1.1,0.0120000001
       1.105,  3.83999991,       1.105,0.0111999996
        1.11,  3.79999995,        1.11,0.0111999996
       1.115,  3.79999995,       1.115,      0.0104
        1.12,  3.83999991,        1.12,0.0120000001
       1.125,  3.79999995,       1.125,0.0127999997
        1.13,  3.83999991,        1.13,0.0120000001
       1.135,  3.83999991,       1.135,0.0127999997
        1.14,  3.83999991,        1.14,0.0111999996
       1.145,  3.83999991,       1.145,0.0120000001
        1.15,  3.83999991,        1.15,      0.0104
       1.155,  3.79999995,       1.155,0.0111999996
        1.16,  3.88000011,        1.16,0.00879999995
       1.165,  3.79999995,       1.165,0.0111999996
        1.17,  3.83999991,        1.17,0.00960000046
       1.175,  3.83999991,       1.175,0.0111999996
        1.18,  3.83999991,        1.18,0.0111999996
       1.185,  3.83999991,       1.185,0.00960000046
        1.19,  3.88000011,        1.19,      0.0104
       1.195,  3.83999991,       1.195,      0.0104
         1.2,  3.88000011,         1.2,0.0120000001
       1.205,  3.83999991,       1.205,0.0111999996
        1.21,  3.88000011,        1.21,0.00960000046
       1.215,  3.83999991,       1.215,0.00960000046
        1.22,  3.88000011,        1.22,      0.0104
       1.225,  3.83999991,       1.225,0.00719999988
        1.23,  3.88000011,        1.23,0.0136000002
       1.235,  3.83999991,       1.235,0.00960000046
        1.24,  3.88000011,        1.24,0.00879999995
       1.245,  3.83999991,       1.245,      0.0104
        1.25,  3.88000011,        1.25,      0.0104
       1.255,  3.83999991,       1.255,0.00879999995
        1.26,  3.83999991,        1.26,0.00879999995
       1.265,  3.88000011,       1.265,0.00800000038
        1.27,  3.83999991,        1.27,0.00719999988
       1.275,  3.88000011,       1.275,      0.0104
        1.28,  3.83999991,        1.28,0.00960000046
       1.285,  3.88000011,       1.285,0.00879999995
        1.29,  3.88000011,        1.29,0.0111999996
       1.295,  3.83999991,       1.295,0.00960000046
         1.3,  3.88000011,         1.3,0.00719999988
       1.305,  3.88000011,       1.305,0.00960000046
        1.31,  3.88000011,        1.31,0.00960000046
       1.315,  3.88000011,       1.315,      0.0104
        1.32,  3.88000011,        1.32,0.00879999995
       1.325,  3.83999991,       1.325,0.00879999995
        1.33,  3.92000008,        1.33,0.00879999995
       1.335,  3.88000011,       1.335,0.00879999995
        1.34,  3.83999991,        1.34,      0.0104
       1.345,  3.83999991,       1.345,0.00879999995
        1.35,  3.88000011,        1.35,0.00879999995
       1.355,  3.83999991,       1.355,0.0111999996
        1.36,  3.88000011,        1.36,0.00960000046
       1.365,  3.83999991,       1.365,0.00960000046
        1.37,  3.88000011,        1.37,0.00960000046
       1.375,  3.88000011,       1.375,0.00960000046
        1.38,  3.88000011,        1.38,0.00879999995
       1.385,  3.83999991,       1.385,0.00879999995
        1.39,  3.88000011,        1.39,0.00879999995
       1.395,  3.83999991,       1.395,0.00719999988
         1.4,  3.88000011,         1.4,0.00960000046
       1.405,  3.83999991,       1.405,0.00879999995
        1.41,  3.83999991,        1.41,0.00960000046
       1.415,  3.88000011,       1.415,0.00800000038
        1.42,  3.83999991,        1.42,0.00639999984
       1.425,  3.83999991,       1.425,0.00879999995
        1.43,  3.92000008,        1.43,0.00800000038
       1.435,  3.83999991,       1.435,0.00960000046
        1.44,  3.88000011,        1.44,0.00960000046
       1.445,  3.83999991,       1.445,0.00960000046
        1.45,  3.88000011,        1.45,0.00480000023
       1.455,  3.83999991,       1.455,0.00879999995
        1.46,  3.88000011,        1.46,0.00960000046
       1.465,  3.83999991,       1.465,      0.0104
        1.47,  3.83999991,        1.47,0.00719999988
       1.475,  3.83999991,       1.475,0.00879999995
        1.48,  3.83999991,        1.48,0.0111999996
       1.485,  3.83999991,       1.485,0.00879999995
        1.49,  3.83999991,        1.49,0.00960000046
       1.495,  3.83999991,       1.495,0.0120000001
         1.5,  3.88000011,         1.5,0.0111999996
       1.505,  3.88000011,       1.505,0.00879999995
        1.51,  3.83999991,        1.51,0.00879999995
       1.515,  3.88000011,       1.515,0.00800000038
        1.52,  3.83999991,        1.52,0.00879999995
       1.525,  3.83999991,       1.525,0.00960000046
        1.53,  3.83999991,        1.53,0.00960000046
       1.535,  3.83999991,       1.535,0.00639999984
        1.54,  3.83999991,        1.54,      0.0104
       1.545,  3.83999991,       1.545,0.00960000046
        1.55,  3.88000011,        1.55,0.00960000046
       1.555,  3.88000011,       1.555,0.00800000038
        1.56,  3.83999991,        1.56,0.00800000038
       1.565,  3.83999991,       1.565,      0.0104
        1.57,  3.88000011,        1.57,0.00960000046
       1.575,  3.83999991,       1.575,0.00879999995
        1.58,  3.83999991,        1.58,      0.0104
       1.585,  3.92000008,       1.585,      0.0104
        1.59,  3.83999991,        1.59,0.00960000046
       1.595,  3.83999991,       1.595,0.00719999988
         1.6,  3.88000011,         1.6,0.00800000038
       1.605,  3.83999991,       1.605,0.00960000046
        1.61,  3.83999991,        1.61,0.00800000038
       1.615,  3.83999991,       1.615,0.0136000002
        1.62,  3.88000011,        1.62,      0.0104
       1.625,  3.83999991,       1.625,0.00879999995
        1.63,  3.83999991,        1.63,      0.0104
       1.635,  3.83999991,       1.635,0.0120000001
        1.64,  3.83999991,        1.64,0.00960000046
       1.645,  3.83999991,       1.645,0.00960000046
        1.65,  3.92000008,        1.65,      0.0104
       1.655,  3.88000011,       1.655,      0.0104
        1.66,  3.83999991,        1.66,0.0111999996
       1.665,  3.79999995,       1.665,0.0120000001
        1.67,  3.88000011,        1.67,0.0136000002
       1.675,  3.83999991,       1.675,0.00960000046
        1.68,  3.83999991,        1.68,0.00960000046
       1.685,  3.83999991,       1.685,0.00960000046
        1.69,  3.83999991,        1.69,0.0120000001
       1.695,  3.83999991,       1.695,0.0120000001
         1.7,  3.83999991,         1.7,0.0127999997
       1.705,  3.79999995,       1.705,0.0111999996
        1.71,  3.79999995,        1.71,0.0055999998
       1.715,  3.79999995,       1.715,0.0120000001
        1.72,  3.83999991,        1.72,0.0120000001
       1.725,  3.83999991,       1.725,0.0120000001
        1.73,  3.79999995,        1.73,      0.0104
       1.735,  3.79999995,       1.735,0.0120000001
        1.74,  3.83999991,        1.74,0.0127999997
       1.745,  3.79999995,       1.745,0.0111999996
        1.75,  3.83999991,        1.75,0.0111999996
       1.755,  3.79999995,       1.755,0.0136000002
        1.76,  3.83999991,        1.76,0.0111999996
       1.765,  3.79999995,       1.765,0.0136000002
        1.77,  3.79999995,        1.77,0.0143999998
       1.775,  3.79999995,       1.775,0.0120000001
        1.78,  3.79999995,        1.78,0.0120000001
       1.785,  3.79999995,       1.785,0.0143999998
        1.79,  3.79999995,        1.79,0.0136000002
       1.795,  3.79999995,       1.795,0.0127999997
         1.8,  3.79999995,         1.8,0.0143999998
       1.805,  3.75999999,       1.805,0.0136000002
        1.81,  3.83999991,        1.81,0.0160000008
       1.815,  3.75999999,       1.815,0.0136000002
        1.82,  3.79999995,        1.82,0.0136000002
       1.825,  3.79999995,       1.825,0.0152000003
        1.83,  3.75999999,        1.83,0.0143999998
       1.835,  3.75999999,       1.835,0.0143999998
        1.84,  3.75999999,        1.84,0.0143999998
       1.845,  3.75999999,       1.845,0.0127999997
        1.85,  3.79999995,        1.85,0.0160000008
       1.855,  3.79999995,       1.855,0.0152000003
        1.86,  3.75999999,        1.86,0.0160000008
       1.865,  3.79999995,       1.865,0.0160000008
        1.87,  3.79999995,        1.87,0.0136000002
       1.875,  3.75999999,       1.875,0.0160000008
        1.88,  3.75999999,        1.88,0.0152000003
       1.885,  3.79999995,       1.885,0.0167999994
        1.89,  3.75999999,        1.89,0.0175999999
       1.895,  3.68000007,       1.895,0.0152000003
         1.9,  3.75999999,         1.9,0.0175999999
       1.905,  3.75999999,       1.905,0.0184000004
        1.91,  3.75999999,        1.91,0.0175999999
       1.915,  3.72000003,       1.915,0.0175999999
        1.92,  3.72000003,        1.92,0.0160000008
       1.925,  3.72000003,       1.925,0.0152000003
        1.93,  3.72000003,        1.93,0.0175999999
       1.935,  3.68000007,       1.935,0.0160000008
        1.94,  3.75999999,        1.94,0.0175999999
       1.945,  3.72000003,       1.945,0.0192000009
        1.95,  3.72000003,        1.95,0.0175999999
       1.955,  3.72000003,       1.955,0.0175999999
        1.96,  3.75999999,        1.96,0.0175999999
       1.965,  3.68000007,       1.965,0.0192000009
        1.97,  3.75999999,        1.97,0.0192000009
       1.975,  3.72000003,       1.975,0.0175999999
        1.98,  3.75999999,        1.98,0.0175999999
       1.985,  3.68000007,       1.985,0.0184000004
        1.99,  3.72000003,        1.99,0.0184000004
       1.995,   3.6400001,       1.995,0.0192000009
           2,  3.68000007,           2,0.0175999999
       2.005,  3.68000007,       2.005,0.0216000006
        2.01,   3.6400001,        2.01,0.0208000001
       2.015,   3.6400001,       2.015,0.0208000001
        2.02,   3.6400001,        2.02,0.0199999996
       2.025,  3.68000007,       2.025,0.0199999996
        2.03,  3.72000003,        2.03,0.0199999996
       2.035,   3.6400001,       2.035,0.0160000008
        2.04,  3.72000003,        2.04,0.0199999996
       2.045,  3.68000007,       2.045,0.0208000001
        2.05,  3.72000003,        2.05,0.0208000001
       2.055,   3.6400001,       2.055,0.0216000006
        2.06,   3.6400001,        2.06,0.0223999992
       2.065,   3.5999999,       2.065,0.0223999992
        2.07,   3.6400001,        2.07,0.0216000006
       2.075,   3.5999999,       2.075,0.0231999997
        2.08,  3.55999994,        2.08,0.0216000006
       2.085,   3.5999999,       2.085,0.0223999992
        2.09,   3.5999999,        2.09,0.0240000002
       2.095,  3.55999994,       2.095,0.0223999992
         2.1,   3.5999999,         2.1,0.0223999992
       2.105,  3.55999994,       2.105,0.0231999997
        2.11,  3.51999998,        2.11,0.0255999994
       2.115,  3.51999998,       2.115,0.0240000002
        2.12,  3.51999998,        2.12,0.0175999999
       2.125,  3.51999998,       2.125,0.0240000002
        2.13,  3.55999994,        2.13,0.0255999994
       2.135,  3.51999998,       2.135,0.0263999999
        2.14,  3.55999994,        2.14,0.0263999999
       2.145,  3.48000002,       2.145,0.0248000007
        2.15,  3.51999998,        2.15,0.0263999999
       2.155,  3.48000002,       2.155,0.0255999994
        2.16,  3.48000002,        2.16,0.0248000007
       2.165,  3.48000002,       2.165,0.0255999994
        2.17,  3.48000002,        2.17,0.0248000007
       2.175,  3.44000006,       2.175,0.0263999999
        2.18,  3.51999998,        2.18,0.0255999994
       2.185,  3.48000002,       2.185,0.0263999999
        2.19,  3.51999998,        2.19,0.0231999997
       2.195,   3.4000001,       2.195,0.0280000009
         2.2,   3.3599999,         2.2,0.0263999999
       2.205,   3.3599999,       2.205,0.0272000004
        2.21,   3.4000001,        2.21,0.0272000004
       2.215,   3.4000001,       2.215,0.0272000004
        2.22,   3.4000001,        2.22,0.0280000009
       2.225,   3.4000001,       2.225,0.0272000004
        2.23,   3.4000001,        2.23,0.0287999995
       2.235,  3.31999993,       2.235,0.0287999995
        2.24,   3.3599999,        2.24,0.0280000009
       2.245,  3.31999993,       2.245,0.0280000009
        2.25,   3.3599999,        2.25,0.0263999999
       2.255,  3.11999989,       2.255,0.0311999992
        2.26,  3.11999989,        2.26,0.0328000002
       2.265,  3.03999996,       2.265,0.0311999992
        2.27,  3.07999992,        2.27,0.0311999992
       2.275,  2.88000011,       2.275,0.0304000005
        2.28,  2.96000004,        2.28,0.0328000002
       2.285,  2.83999991,       2.285,0.0320000015
        2.29,  2.79999995,        2.29,0.0320000015
       2.295,   2.6400001,       2.295,0.0311999992
         2.3,  2.68000007,         2.3,0.0328000002
       2.305,  2.55999994,       2.305,0.0320000015
        2.31,   2.5999999,        2.31,0.0328000002
       2.315,  2.51999998,       2.315,0.0311999992
        2.32,   2.5999999,        2.32,0.0320000015
       2.325,   2.5999999,       2.325,0.0304000005
        2.33,   2.5999999,        2.33,0.0320000015
       2.335,   2.5999999,       2.335,0.0320000015
        2.34,   2.5999999,        2.34,0.0311999992
       2.345,  2.55999994,       2.345,0.0311999992
        2.35,   2.5999999,        2.35,0.0328000002
       2.355,  2.55999994,       2.355,0.0311999992
        2.36,   2.6400001,        2.36,0.0328000002
       2.365,  2.55999994,       2.365,0.0328000002
        2.37,   2.6400001,        2.37,0.0335999988
       2.375,  2.51999998,       2.375,0.0311999992
        2.38,  2.55999994,        2.38,0.0304000005
       2.385,  2.55999994,       2.385,0.0320000015
        2.39,   2.5999999,        2.39,0.0311999992
       2.395,  2.55999994,       2.395,0.0351999998
         2.4,   2.6400001,         2.4,0.0335999988
       2.405,  2.55999994,       2.405,0.0311999992
        2.41,   2.5999999,        2.41,0.0328000002
       2.415,  2.55999994,       2.415,0.0328000002
        2.42,   2.5999999,        2.42,0.0359999985
       2.425,  2.51999998,       2.425,0.0328000002
        2.43,   2.5999999,        2.43,0.0344000012
       2.435,  2.51999998,       2.435,0.0311999992
        2.44,   2.5999999,        2.44,0.0335999988
       2.445,  2.51999998,       2.445,0.0335999988
        2.45,   2.5999999,        2.45,0.0344000012
       2.455,  2.51999998,       2.455,0.0320000015
        2.46,   2.5999999,        2.46,0.0328000002
       2.465,  2.55999994,       2.465,0.0328000002
        2.47,   2.5999999,        2.47,0.0351999998
       2.475,  2.55999994,       2.475,0.0328000002
        2.48,   2.5999999,        2.48,0.0320000015
       2.485,  2.51999998,       2.485,0.0328000002
        2.49,   2.6400001,        2.49,0.0335999988
       2.495,  2.55999994,       2.495,0.0304000005