s,Volts,s,Volts
          -5,  1.51999998,          -5,0.0192000009
       -4.99,  1.51999998,       -4.99,0.0208000001
       -4.98,         1.5,       -4.98,0.0175999999
       -4.97,  1.53999996,       -4.97,0.0231999997
       -4.96,  1.51999998,       -4.96,0.0192000009
       -4.95,  1.55999994,       -4.95,0.0248000007
       -4.94,  1.51999998,       -4.94,0.0208000001
       -4.93,  1.51999998,       -4.93,0.0199999996
       -4.92,  1.51999998,       -4.92,0.0208000001
       -4.91,  1.53999996,       -4.91,0.0223999992
        -4.9,  1.51999998,        -4.9,0.0199999996
       -4.89,         1.5,       -4.89,0.0167999994
       -4.88,         1.5,       -4.88,0.0136000002
       -4.87,  1.51999998,       -4.87,0.0216000006
       -4.86,  1.51999998,       -4.86,0.0208000001
       -4.85,  1.51999998,       -4.85,0.0208000001
       -4.84,  1.51999998,       -4.84,0.0199999996
       -4.83,  1.51999998,       -4.83,0.0192000009
       -4.82,  1.51999998,       -4.82,0.0192000009
       -4.81,  1.51999998,       -4.81,0.0208000001
        -4.8,  1.51999998,        -4.8,0.0199999996
       -4.79,  1.51999998,       -4.79,0.0208000001
       -4.78,  1.51999998,       -4.78,0.0208000001
       -4.77,  1.53999996,       -4.77,0.0223999992
       -4.76,  1.53999996,       -4.76,0.0223999992
       -4.75,  1.51999998,       -4.75,0.0216000006
       -4.74,  1.53999996,       -4.74,0.0231999997
       -4.73,  1.53999996,       -4.73,0.0231999997
       -4.72,  1.51999998,       -4.72,0.0199999996
       -4.71,  1.51999998,       -4.71,0.0208000001
        -4.7,  1.53999996,        -4.7,0.0223999992
       -4.69,  1.51999998,       -4.69,0.0216000006
       -4.68,  1.51999998,       -4.68,0.0199999996
       -4.67,         1.5,       -4.67,0.0192000009
       -4.66,  1.51999998,       -4.66,0.0184000004
       -4.65,  1.51999998,       -4.65,0.0216000006
       -4.64,  1.53999996,       -4.64,0.0208000001
       -4.63,         1.5,       -4.63,0.0208000001
       -4.62,         1.5,       -4.62,0.0192000009
       -4.61,  1.51999998,       -4.61,0.0208000001
        -4.6,         1.5,        -4.6,0.0192000009
       -4.59,  1.51999998,       -4.59,0.0208000001
       -4.58,         1.5,       -4.58,0.0167999994
       -4.57,  1.51999998,       -4.57,0.0231999997
       -4.56,  1.51999998,       -4.56,0.0208000001
       -4.55,  1.58000004,       -4.55,0.0248000007
       -4.54,  1.51999998,       -4.54,0.0216000006
       -4.53,  1.58000004,       -4.53,0.0255999994
       -4.52,         1.5,       -4.52,0.0192000009
       -4.51,  1.53999996,       -4.51,0.0223999992
        -4.5,  1.51999998,        -4.5,0.0199999996
       -4.49,  1.51999998,       -4.49,0.0231999997
       -4.48,  1.51999998,       -4.48,0.0199999996
       -4.47,  1.55999994,       -4.47,0.0240000002
       -4.46,  1.51999998,       -4.46,0.0223999992
       -4.45,  1.53999996,       -4.45,0.0199999996
       -4.44,  1.51999998,       -4.44,0.0192000009
       -4.43,         1.5,       -4.43,0.0192000009
       -4.42,         1.5,       -4.42,0.0199999996
       -4.41,  1.51999998,       -4.41,0.0223999992
        -4.4,  1.51999998,        -4.4,0.0216000006
       -4.39,  1.51999998,       -4.39,0.0199999996
       -4.38,  1.51999998,       -4.38,0.0192000009
       -4.37,  1.53999996,       -4.37,0.0231999997
       -4.36,  1.53999996,       -4.36,0.0240000002
       -4.35,  1.51999998,       -4.35,0.0199999996
       -4.34,  1.51999998,       -4.34,0.0208000001
       -4.33,  1.51999998,       -4.33,0.0223999992
       -4.32,  1.53999996,       -4.32,0.0223999992
       -4.31,         1.5,       -4.31,0.0208000001
        -4.3,         1.5,        -4.3,0.0223999992
       -4.29,  1.51999998,       -4.29,0.0192000009
       -4.28,  1.51999998,       -4.28,0.0208000001
       -4.27,  1.51999998,       -4.27,0.0216000006
       -4.26,         1.5,       -4.26,0.0208000001
       -4.25,  1.51999998,       -4.25,0.0223999992
       -4.24,  1.46000004,       -4.24,0.0152000003
       -4.23,  1.48000002,       -4.23,0.0231999997
       -4.22,  1.51999998,       -4.22,0.0152000003
       -4.21,  1.51999998,       -4.21,0.0216000006
        -4.2,  1.51999998,        -4.2,0.0208000001
       -4.19,         1.5,       -4.19,0.0192000009
       -4.18,         1.5,       -4.18,0.0208000001
       -4.17,         1.5,       -4.17,0.0175999999
       -4.16,  1.51999998,       -4.16,0.0216000006
       -4.15,  1.51999998,       -4.15,0.0216000006
       -4.14,         1.5,       -4.14,0.0208000001
       -4.13,  1.51999998,       -4.13,0.0216000006
       -4.12,  1.51999998,       -4.12,0.0199999996
       -4.11,  1.53999996,       -4.11,0.0216000006
        -4.1,  1.51999998,        -4.1,0.0199999996
       -4.09,  1.51999998,       -4.09,0.0199999996
       -4.08,         1.5,       -4.08,0.0175999999
       -4.07,  1.51999998,       -4.07,0.0192000009
       -4.06,  1.51999998,       -4.06,0.0199999996
       -4.05,         1.5,       -4.05,0.0199999996
       -4.04,  1.51999998,       -4.04,0.0184000004
       -4.03,  1.51999998,       -4.03,0.0216000006
       -4.02,  1.51999998,       -4.02,0.0199999996
       -4.01,  1.51999998,       -4.01,0.0199999996
          -4,  1.51999998,          -4,0.0223999992
       -3.99,  1.51999998,       -3.99,0.0199999996
       -3.98,  1.51999998,       -3.98,0.0208000001
       -3.97,         1.5,       -3.97,0.0184000004
       -3.96,  1.51999998,       -3.96,0.0216000006
       -3.95,  1.53999996,       -3.95,0.0216000006
       -3.94,  1.53999996,       -3.94,0.0216000006
       -3.93,  1.51999998,       -3.93,0.0199999996
       -3.92,  1.51999998,       -3.92,0.0208000001
       -3.91,  1.51999998,       -3.91,0.0199999996
        -3.9,         1.5,        -3.9,0.0192000009
       -3.89,  1.51999998,       -3.89,0.0192000009
       -3.88,         1.5,       -3.88,0.0208000001
       -3.87,  1.51999998,       -3.87,0.0208000001
       -3.86,  1.51999998,       -3.86,0.0199999996
       -3.85,         1.5,       -3.85,0.0184000004
       -3.84,  1.51999998,       -3.84,0.0199999996
       -3.83,  1.51999998,       -3.83,0.0216000006
       -3.82,  1.51999998,       -3.82,0.0199999996
       -3.81,         1.5,       -3.81,0.0160000008
        -3.8,  1.51999998,        -3.8,0.0223999992
       -3.79,  1.51999998,       -3.79,0.0208000001
       -3.78,  1.51999998,       -3.78,0.0216000006
       -3.77,  1.51999998,       -3.77,0.0208000001
       -3.76,  1.51999998,       -3.76,0.0184000004
       -3.75,  1.51999998,       -3.75,0.0192000009
       -3.74,  1.51999998,       -3.74,0.0199999996
       -3.73,  1.51999998,       -3.73,0.0216000006
       -3.72,         1.5,       -3.72,0.0192000009
       -3.71,  1.51999998,       -3.71,0.0208000001
        -3.7,         1.5,        -3.7,0.0208000001
       -3.69,  1.51999998,       -3.69,0.0055999998
       -3.68,  1.51999998,       -3.68,0.0184000004
       -3.67,  1.51999998,       -3.67,0.0248000007
       -3.66,  1.51999998,       -3.66,0.0216000006
       -3.65,  1.51999998,       -3.65,0.0223999992
       -3.64,  1.51999998,       -3.64,0.0231999997
       -3.63,  1.51999998,       -3.63,0.0208000001
       -3.62,         1.5,       -3.62,0.0199999996
       -3.61,  1.53999996,       -3.61,0.0223999992
        -3.6,  1.51999998,        -3.6,0.0175999999
       -3.59,  1.51999998,       -3.59,0.0208000001
       -3.58,  1.51999998,       -3.58,0.0208000001
       -3.57,  1.51999998,       -3.57,0.0143999998
       -3.56,         1.5,       -3.56,0.0192000009
       -3.55,  1.53999996,       -3.55,0.0120000001
       -3.54,  1.53999996,       -3.54,0.0223999992
       -3.53,  1.51999998,       -3.53,0.0192000009
       -3.52,  1.51999998,       -3.52,0.0192000009
       -3.51,  1.53999996,       -3.51,0.0223999992
        -3.5,         1.5,        -3.5,0.0216000006
       -3.49,  1.51999998,       -3.49,0.0208000001
       -3.48,  1.51999998,       -3.48,0.0175999999
       -3.47,  1.51999998,       -3.47,0.0199999996
       -3.46,  1.51999998,       -3.46,0.0199999996
       -3.45,  1.53999996,       -3.45,0.0240000002
       -3.44,         1.5,       -3.44,0.0167999994
       -3.43,  1.51999998,       -3.43,0.0175999999
       -3.42,  1.51999998,       -3.42,0.0167999994
       -3.41,  1.51999998,       -3.41,0.0160000008
        -3.4,  1.53999996,        -3.4,0.0167999994
       -3.39,  1.51999998,       -3.39,0.0160000008
       -3.38,  1.51999998,       -3.38,0.0136000002
       -3.37,         1.5,       -3.37,0.0152000003
       -3.36,         1.5,       -3.36,0.0111999996
       -3.35,  1.53999996,       -3.35,0.0143999998
       -3.34,  1.53999996,       -3.34,0.0136000002
       -3.33,  1.53999996,       -3.33,0.0143999998
       -3.32,  1.55999994,       -3.32,0.0175999999
       -3.31,  1.53999996,       -3.31,0.0127999997
        -3.3,  1.53999996,        -3.3,0.0127999997
       -3.29,  1.53999996,       -3.29,0.0120000001
       -3.28,  1.51999998,       -3.28,      0.0104
       -3.27,  1.51999998,       -3.27,      0.0104
       -3.26,  1.51999998,       -3.26,0.0111999996
       -3.25,  1.53999996,       -3.25,0.0111999996
       -3.24,  1.53999996,       -3.24,0.0111999996
       -3.23,  1.53999996,       -3.23,0.0111999996
       -3.22,  1.53999996,       -3.22,0.0111999996
       -3.21,  1.53999996,       -3.21,0.0111999996
        -3.2,  1.51999998,        -3.2,0.00879999995
       -3.19,  1.51999998,       -3.19,0.00800000038
       -3.18,  1.51999998,       -3.18,0.00879999995
       -3.17,  1.53999996,       -3.17,      0.0104
       -3.16,  1.51999998,       -3.16,0.00719999988
       -3.15,  1.53999996,       -3.15,0.00800000038
       -3.14,  1.53999996,       -3.14,0.00719999988
       -3.13,  1.53999996,       -3.13,0.00960000046
       -3.12,  1.53999996,       -3.12,0.00960000046
       -3.11,  1.51999998,       -3.11,0.00719999988
        -3.1,  1.53999996,        -3.1,0.00960000046
       -3.09,  1.55999994,       -3.09,0.00879999995
       -3.08,  1.51999998,       -3.08,0.00879999995
       -3.07,  1.51999998,       -3.07,0.00719999988
       -3.06,  1.53999996,       -3.06,0.00800000038
       -3.05,  1.53999996,       -3.05,0.00960000046
       -3.04,  1.53999996,       -3.04,0.00800000038
       -3.03,  1.53999996,       -3.03,0.00800000038
       -3.02,  1.53999996,       -3.02,0.00960000046
       -3.01,  1.53999996,       -3.01,0.00879999995
          -3,  1.53999996,          -3,0.0111999996
       -2.99,  1.51999998,       -2.99,0.00800000038
       -2.98,  1.53999996,       -2.98,0.0120000001
       -2.97,  1.51999998,       -2.97,0.00960000046
       -2.96,  1.53999996,       -2.96,      0.0104
       -2.95,  1.51999998,       -2.95,0.00800000038
       -2.94,  1.60000002,       -2.94,0.0223999992
       -2.93,  1.53999996,       -2.93,0.00960000046
       -2.92,  1.51999998,       -2.92,0.00800000038
       -2.91,  1.53999996,       -2.91,0.0111999996
        -2.9,  1.53999996,        -2.9,0.00960000046
       -2.89,  1.58000004,       -2.89,0.0167999994
       -2.88,  1.53999996,       -2.88,      0.0104
       -2.87,  1.53999996,       -2.87,      0.0104
       -2.86,  1.51999998,       -2.86,0.00960000046
       -2.85,  1.55999994,       -2.85,0.0120000001
       -2.84,  1.51999998,       -2.84,0.0127999997
       -2.83,  1.51999998,       -2.83,0.0136000002
       -2.82,  1.51999998,       -2.82,0.0167999994
       -2.81,  1.53999996,       -2.81,0.0127999997
        -2.8,  1.53999996,        -2.8,0.0143999998
       -2.79,  1.53999996,       -2.79,0.0167999994
       -2.78,  1.51999998,       -2.78,0.0136000002
       -2.77,  1.51999998,       -2.77,0.0127999997
       -2.76,  1.51999998,       -2.76,0.0136000002
       -2.75,  1.51999998,       -2.75,0.0136000002
       -2.74,  1.53999996,       -2.74,0.0143999998
       -2.73,  1.51999998,       -2.73,0.0152000003
       -2.72,  1.51999998,       -2.72,0.0152000003
       -2.71,  1.51999998,       -2.71,0.0167999994
        -2.7,  1.53999996,        -2.7,0.0160000008
       -2.69,  1.53999996,       -2.69,0.0192000009
       -2.68,  1.51999998,       -2.68,0.0167999994
       -2.67,  1.51999998,       -2.67,0.0175999999
       -2.66,  1.51999998,       -2.66,0.0184000004
       -2.65,  1.51999998,       -2.65,0.0184000004
       -2.64,  1.51999998,       -2.64,0.0208000001
       -2.63,  1.51999998,       -2.63,0.0216000006
       -2.62,  1.51999998,       -2.62,0.0208000001
       -2.61,         1.5,       -2.61,0.0216000006
        -2.6,  1.48000002,        -2.6,0.0208000001
       -2.59,  1.53999996,       -2.59,0.0248000007
       -2.58,  1.51999998,       -2.58,0.0248000007
       -2.57,         1.5,       -2.57,0.0248000007
       -2.56,         1.5,       -2.56,0.0255999994
       -2.55,  1.51999998,       -2.55,0.0287999995
       -2.54,  1.55999994,       -2.54,0.0320000015
       -2.53,         1.5,       -2.53,0.0311999992
       -2.52,  1.48000002,       -2.52,0.0328000002
       -2.51,  1.46000004,       -2.51,0.0320000015
        -2.5,  1.48000002,        -2.5,0.0359999985
       -2.49,         1.5,       -2.49,0.0408000015
       -2.48,  1.48000002,       -2.48,0.0447999984
       -2.47,  1.44000006,       -2.47,0.0480000004
       -2.46,  1.44000006,       -2.46,0.0520000011
       -2.45,  1.41999996,       -2.45,0.0631999969
       -2.44,        1.38,       -2.44,0.0751999989
       -2.43,  1.27999997,       -2.43,0.0904000029
       -2.42,  1.13999999,       -2.42, 0.103200004
       -2.41, 0.860000014,       -2.41, 0.104800001
        -2.4,         0.5,        -2.4,      0.1096
       -2.39, 0.200000003,       -2.39, 0.107199997
       -2.38, 0.200000003,       -2.38, 0.108000003
       -2.37, 0.620000005,       -2.37, 0.106399998
       -2.36, 0.219999999,       -2.36, 0.107199997
       -2.35, 0.219999999,       -2.35, 0.108000003
       -2.34, 0.200000003,       -2.34, 0.106399998
       -2.33, 0.200000003,       -2.33, 0.107199997
       -2.32, 0.200000003,       -2.32, 0.108000003
       -2.31, 0.200000003,       -2.31, 0.108800001
        -2.3, 0.200000003,        -2.3, 0.108000003
       -2.29, 0.200000003,       -2.29, 0.108000003
       -2.28, 0.200000003,       -2.28,      0.1096
       -2.27, 0.200000003,       -2.27, 0.108000003
       -2.26, 0.200000003,       -2.26, 0.105599999
       -2.25, 0.200000003,       -2.25, 0.108800001
       -2.24, 0.219999999,       -2.24,      0.1096
       -2.23, 0.219999999,       -2.23, 0.110399999
       -2.22, 0.200000003,       -2.22,      0.1096
       -2.21, 0.219999999,       -2.21, 0.110399999
        -2.2, 0.200000003,        -2.2, 0.108000003
       -2.19, 0.239999995,       -2.19, 0.112800002
       -2.18, 0.219999999,       -2.18, 0.107199997
       -2.17, 0.219999999,       -2.17, 0.108800001
       -2.16, 0.219999999,       -2.16, 0.107199997
       -2.15, 0.219999999,       -2.15, 0.108000003
       -2.14, 0.540000021,       -2.14, 0.110399999
       -2.13, 0.920000017,       -2.13, 0.106399998
       -2.12,  1.17999995,       -2.12, 0.100000001
       -2.11,  1.34000003,       -2.11,0.0856000036
        -2.1,        1.38,        -2.1, 0.072800003
       -2.09,  1.44000006,       -2.09,0.0631999969
       -2.08,  1.46000004,       -2.08,0.0504000001
       -2.07,  1.44000006,       -2.07,0.0416000001
       -2.06,  1.48000002,       -2.06,0.0392000005
       -2.05,  1.46000004,       -2.05,0.0335999988
       -2.04,         1.5,       -2.04,0.0328000002
       -2.03,  1.48000002,       -2.03,0.0272000004
       -2.02,         1.5,       -2.02,0.0280000009
       -2.01,  1.51999998,       -2.01,0.0280000009
          -2,  1.51999998,          -2,0.0263999999
       -1.99,  1.51999998,       -1.99,0.0280000009
       -1.98,  1.51999998,       -1.98,0.0231999997
       -1.97,         1.5,       -1.97,0.0192000009
       -1.96,  1.51999998,       -1.96,0.0231999997
       -1.95,         1.5,       -1.95,0.0223999992
       -1.94,  1.48000002,       -1.94,0.0192000009
       -1.93,  1.51999998,       -1.93,0.0184000004
       -1.92,  1.53999996,       -1.92,0.0199999996
       -1.91,  1.51999998,       -1.91,0.0184000004
        -1.9,  1.51999998,        -1.9,0.0184000004
       -1.89,  1.51999998,       -1.89,0.0184000004
       -1.88,  1.51999998,       -1.88,0.0143999998
       -1.87,  1.51999998,       -1.87,0.0175999999
       -1.86,         1.5,       -1.86,0.0167999994
       -1.85,  1.51999998,       -1.85,0.0136000002
       -1.84,  1.51999998,       -1.84,0.0136000002
       -1.83,  1.53999996,       -1.83,0.0143999998
       -1.82,  1.53999996,       -1.82,0.0136000002
       -1.81,  1.53999996,       -1.81,0.0120000001
        -1.8,  1.51999998,        -1.8,0.0127999997
       -1.79,         1.5,       -1.79,0.0111999996
       -1.78,  1.53999996,       -1.78,0.0111999996
       -1.77,  1.53999996,       -1.77,0.0120000001
       -1.76,  1.53999996,       -1.76,0.0127999997
       -1.75,  1.53999996,       -1.75,0.0127999997
       -1.74,  1.51999998,       -1.74,0.00960000046
       -1.73,  1.53999996,       -1.73,      0.0104
       -1.72,  1.55999994,       -1.72,      0.0104
       -1.71,  1.53999996,       -1.71,0.0120000001
        -1.7,  1.53999996,        -1.7,0.0120000001
       -1.69,  1.53999996,       -1.69,      0.0104
       -1.68,  1.51999998,       -1.68,0.00719999988
       -1.67,  1.53999996,       -1.67,      0.0104
       -1.66,  1.53999996,       -1.66,0.00960000046
       -1.65,  1.51999998,       -1.65,0.00879999995
       -1.64,  1.55999994,       -1.64,0.0111999996
       -1.63,  1.53999996,       -1.63,0.00879999995
       -1.62,  1.53999996,       -1.62,0.00879999995
       -1.61,  1.53999996,       -1.61,0.00719999988
        -1.6,  1.53999996,        -1.6,0.00879999995
       -1.59,  1.51999998,       -1.59,0.00480000023
       -1.58,  1.51999998,       -1.58,      0.0104
       -1.57,  1.51999998,       -1.57,0.00719999988
       -1.56,  1.51999998,       -1.56,0.00639999984
       -1.55,  1.51999998,       -1.55,0.00879999995
       -1.54,         1.5,       -1.54,0.0055999998
       -1.53,  1.53999996,       -1.53,0.00960000046
       -1.52,  1.53999996,       -1.52,0.00879999995
       -1.51,  1.55999994,       -1.51,0.00960000046
        -1.5,  1.53999996,        -1.5,0.00800000038
       -1.49,  1.58000004,       -1.49,0.0111999996
       -1.48,  1.53999996,       -1.48,0.00800000038
       -1.47,  1.53999996,       -1.47,0.0055999998
       -1.46,  1.53999996,       -1.46,0.00719999988
       -1.45,  1.55999994,       -1.45,0.0120000001
       -1.44,  1.51999998,       -1.44,0.00879999995
       -1.43,  1.53999996,       -1.43,0.00800000038
       -1.42,  1.53999996,       -1.42,0.00879999995
       -1.41,  1.51999998,       -1.41,0.00879999995
        -1.4,  1.51999998,        -1.4,0.00960000046
       -1.39,  1.51999998,       -1.39,0.00800000038
       -1.38,  1.51999998,       -1.38,0.00719999988
       -1.37,  1.53999996,       -1.37,0.00879999995
       -1.36,  1.53999996,       -1.36,      0.0104
       -1.35,  1.53999996,       -1.35,0.00960000046
       -1.34,  1.53999996,       -1.34,      0.0104
       -1.33,  1.51999998,       -1.33,      0.0104
       -1.32,  1.55999994,       -1.32,      0.0104
       -1.31,  1.51999998,       -1.31,0.0111999996
        -1.3,  1.51999998,        -1.3,      0.0104
       -1.29,  1.53999996,       -1.29,0.00879999995
       -1.28,  1.51999998,       -1.28,      0.0104
       -1.27,  1.55999994,       -1.27,0.0136000002
       -1.26,  1.55999994,       -1.26,      0.0104
       -1.25,  1.53999996,       -1.25,0.0111999996
       -1.24,  1.51999998,       -1.24,0.0127999997
       -1.23,  1.53999996,       -1.23,0.0127999997
       -1.22,  1.53999996,       -1.22,0.0111999996
       -1.21,  1.51999998,       -1.21,0.0127999997
        -1.2,  1.53999996,        -1.2,0.0111999996
       -1.19,  1.51999998,       -1.19,0.0120000001
       -1.18,  1.53999996,       -1.18,0.0127999997
       -1.17,  1.53999996,       -1.17,0.0136000002
       -1.16,  1.53999996,       -1.16,0.0152000003
       -1.15,  1.51999998,       -1.15,0.0143999998
       -1.14,  1.51999998,       -1.14,0.0143999998
       -1.13,  1.51999998,       -1.13,0.0136000002
       -1.12,  1.51999998,       -1.12,0.0152000003
       -1.11,  1.53999996,       -1.11,0.0175999999
        -1.1,  1.51999998,        -1.1,0.0152000003
       -1.09,         1.5,       -1.09,0.0184000004
       -1.08,  1.51999998,       -1.08,0.0167999994
       -1.07,  1.51999998,       -1.07,0.0192000009
       -1.06,  1.51999998,       -1.06,0.0184000004
       -1.05,  1.53999996,       -1.05,0.0192000009
       -1.04,         1.5,       -1.04,0.0160000008
       -1.03,  1.51999998,       -1.03,0.0208000001
       -1.02,  1.51999998,       -1.02,0.0175999999
       -1.01,  1.51999998,       -1.01,0.0216000006
          -1,  1.51999998,          -1,0.0175999999
       -0.99,  1.53999996,       -0.99,0.0216000006
       -0.98,         1.5,       -0.98,0.0199999996
       -0.97,  1.48000002,       -0.97,0.0192000009
       -0.96,         1.5,       -0.96,0.0208000001
       -0.95,  1.51999998,       -0.95,0.0223999992
       -0.94,         1.5,       -0.94,0.0248000007
       -0.93,  1.51999998,       -0.93,0.0240000002
       -0.92,         1.5,       -0.92,0.0263999999
       -0.91,         1.5,       -0.91,0.0272000004
        -0.9,  1.46000004,        -0.9,0.0272000004
       -0.89,         1.5,       -0.89,0.0304000005
       -0.88,  1.48000002,       -0.88,0.0304000005
       -0.87,         1.5,       -0.87,0.0320000015
       -0.86,  1.48000002,       -0.86,0.0368000008
       -0.85,  1.46000004,       -0.85,0.0392000005
       -0.84,  1.44000006,       -0.84,0.0399999991
       -0.83,  1.46000004,       -0.83,0.0463999994
       -0.82,  1.41999996,       -0.82,0.0504000001
       -0.81,  1.41999996,       -0.81,0.0623999983
        -0.8,  1.39999998,        -0.8,0.0680000037
       -0.79,  1.34000003,       -0.79,0.0807999969
       -0.78,  1.29999995,       -0.78,0.0960000008
       -0.77,        1.12,       -0.77, 0.103200004
       -0.76, 0.920000017,       -0.76, 0.108000003
       -0.75, 0.660000026,       -0.75, 0.111199997
       -0.74, 0.419999987,       -0.74, 0.108800001
       -0.73, 0.219999999,       -0.73,      0.1096
       -0.72,  0.25999999,       -0.72, 0.108000003
       -0.71, 0.200000003,       -0.71, 0.108800001
        -0.7, 0.200000003,        -0.7,      0.1096
       -0.69, 0.200000003,       -0.69, 0.107199997
       -0.68, 0.200000003,       -0.68, 0.108000003
       -0.67, 0.200000003,       -0.67, 0.108800001
       -0.66, 0.219999999,       -0.66, 0.108800001
       -0.65, 0.200000003,       -0.65, 0.108000003
       -0.64, 0.219999999,       -0.64, 0.108800001
       -0.63, 0.200000003,       -0.63, 0.106399998
       -0.62, 0.200000003,       -0.62, 0.111199997
       -0.61, 0.200000003,       -0.61, 0.108800001
        -0.6, 0.219999999,        -0.6, 0.108000003
       -0.59, 0.200000003,       -0.59, 0.108000003
       -0.58, 0.219999999,       -0.58, 0.108000003
       -0.57, 0.200000003,       -0.57, 0.107199997
       -0.56, 0.180000007,       -0.56, 0.105599999
       -0.55, 0.200000003,       -0.55, 0.107199997
       -0.54, 0.219999999,       -0.54,      0.1096
       -0.53, 0.219999999,       -0.53,      0.1096
       -0.52, 0.620000005,       -0.52, 0.105599999
       -0.51,  1.03999996,       -0.51, 0.105599999
        -0.5,  1.29999995,        -0.5,0.0912000015
       -0.49,  1.39999998,       -0.49,0.0736000016
       -0.48,  1.41999996,       -0.48,0.0615999997
       -0.47,  1.46000004,       -0.47,0.0496000014
       -0.46,  1.48000002,       -0.46,0.0463999994
       -0.45,  1.46000004,       -0.45,0.0416000001
       -0.44,  1.48000002,       -0.44,0.0375999995
       -0.43,  1.48000002,       -0.43,0.0351999998
       -0.42,         1.5,       -0.42,0.0335999988
       -0.41,         1.5,       -0.41,0.0335999988
        -0.4,  1.51999998,        -0.4,0.0311999992
       -0.39,         1.5,       -0.39,      0.0296
       -0.38,  1.48000002,       -0.38,0.0272000004
       -0.37,  1.53999996,       -0.37,0.0287999995
       -0.36,  1.51999998,       -0.36,0.0280000009
       -0.35,  1.53999996,       -0.35,      0.0296
       -0.34,         1.5,       -0.34,0.0240000002
       -0.33,  1.51999998,       -0.33,0.0255999994
       -0.32,         1.5,       -0.32,0.0335999988
       -0.31,  1.51999998,       -0.31,0.0223999992
        -0.3,         1.5,        -0.3,0.0184000004
       -0.29,  1.51999998,       -0.29,0.0199999996
       -0.28,  1.51999998,       -0.28,0.0216000006
       -0.27,  1.51999998,       -0.27,0.0184000004
       -0.26,  1.51999998,       -0.26,0.0192000009
       -0.25,  1.51999998,       -0.25,0.0208000001
       -0.24,  1.51999998,       -0.24,0.0175999999
       -0.23,  1.51999998,       -0.23,0.0175999999
       -0.22,  1.51999998,       -0.22,0.0152000003
       -0.21,         1.5,       -0.21,0.0231999997
        -0.2,  1.53999996,        -0.2,0.0143999998
       -0.19,  1.51999998,       -0.19,0.0152000003
       -0.18,  1.53999996,       -0.18,0.0127999997
       -0.17,  1.51999998,       -0.17,0.0136000002
       -0.16,  1.51999998,       -0.16,0.0127999997
       -0.15,  1.51999998,       -0.15,0.0127999997
       -0.14,  1.55999994,       -0.14,0.00879999995
       -0.13,  1.53999996,       -0.13,0.0111999996
       -0.12,  1.53999996,       -0.12,0.0120000001
       -0.11,  1.51999998,       -0.11,0.0120000001
        -0.1,  1.51999998,        -0.1,0.0111999996
       -0.09,  1.55999994,       -0.09,0.0120000001
       -0.08,  1.53999996,       -0.08,0.0120000001
       -0.07,  1.51999998,       -0.07,      0.0104
       -0.06,  1.53999996,       -0.06,0.00960000046
       -0.05,  1.51999998,       -0.05,      0.0104
       -0.04,  1.53999996,       -0.04,0.00879999995
       -0.03,  1.53999996,       -0.03,0.00879999995
       -0.02,  1.53999996,       -0.02,0.00960000046
       -0.01,  1.53999996,       -0.01,0.00960000046
           0,  1.53999996,           0,0.00879999995
        0.01,  1.53999996,        0.01,0.0111999996
        0.02,  1.51999998,        0.02,0.00879999995
        0.03,  1.53999996,        0.03,0.00719999988
        0.04,  1.53999996,        0.04,0.00960000046
        0.05,  1.55999994,        0.05,0.0120000001
        0.06,  1.53999996,        0.06,      0.0104
        0.07,  1.51999998,        0.07,0.00719999988
        0.08,  1.53999996,        0.08,0.00319999992
        0.09,  1.53999996,        0.09,0.00800000038
         0.1,  1.53999996,         0.1,      0.0104
        0.11,  1.51999998,        0.11,0.00879999995
        0.12,  1.53999996,        0.12,0.00879999995
        0.13,  1.51999998,        0.13,0.00719999988
        0.14,  1.53999996,        0.14,      0.0104
        0.15,  1.53999996,        0.15,0.0111999996
        0.16,  1.53999996,        0.16,      0.0104
        0.17,  1.51999998,        0.17,      0.0104
        0.18,  1.51999998,        0.18,0.00879999995
        0.19,  1.53999996,        0.19,      0.0104
         0.2,  1.51999998,         0.2,      0.0104
        0.21,  1.53999996,        0.21,0.0111999996
        0.22,  1.51999998,        0.22,0.00960000046
        0.23,  1.55999994,        0.23,0.0120000001
        0.24,  1.53999996,        0.24,      0.0104
        0.25,  1.53999996,        0.25,0.0120000001
        0.26,  1.51999998,        0.26,0.0120000001
        0.27,  1.53999996,        0.27,0.0127999997
        0.28,  1.53999996,        0.28,0.0111999996
        0.29,         1.5,        0.29,0.0120000001
         0.3,  1.53999996,         0.3,0.0136000002
        0.31,  1.51999998,        0.31,0.0120000001
        0.32,  1.51999998,        0.32,0.0136000002
        0.33,  1.51999998,        0.33,0.0216000006
        0.34,  1.51999998,        0.34,0.0136000002
        0.35,  1.51999998,        0.35,0.0136000002
        0.36,  1.51999998,        0.36,0.0152000003
        0.37,  1.51999998,        0.37,0.0143999998
        0.38,  1.53999996,        0.38,0.0160000008
        0.39,  1.51999998,        0.39,0.0127999997
         0.4,  1.51999998,         0.4,0.0167999994
        0.41,  1.53999996,        0.41,0.0167999994
        0.42,  1.51999998,        0.42,0.0152000003
        0.43,  1.51999998,        0.43,0.0175999999
        0.44,  1.53999996,        0.44,0.0175999999
        0.45,  1.51999998,        0.45,0.0175999999
        0.46,  1.51999998,        0.46,0.0184000004
        0.47,         1.5,        0.47,0.0192000009
        0.48,  1.51999998,        0.48,0.0199999996
        0.49,  1.51999998,        0.49,0.0184000004
         0.5,  1.51999998,         0.5,0.0175999999
        0.51,  1.51999998,        0.51,0.0199999996
        0.52,  1.51999998,        0.52,0.0199999996
        0.53,  1.51999998,        0.53,0.0208000001
        0.54,         1.5,        0.54,0.0216000006
        0.55,  1.51999998,        0.55,0.0240000002
        0.56,  1.48000002,        0.56,0.0216000006
        0.57,         1.5,        0.57,0.0231999997
        0.58,         1.5,        0.58,0.0231999997
        0.59,  1.51999998,        0.59,0.0231999997
         0.6,  1.51999998,         0.6,0.0240000002
        0.61,         1.5,        0.61,0.0223999992
        0.62,  1.48000002,        0.62,0.0223999992
        0.63,  1.53999996,        0.63,0.0272000004
        0.64,         1.5,        0.64,0.0255999994
        0.65,         1.5,        0.65,0.0255999994
        0.66,         1.5,        0.66,0.0272000004
        0.67,         1.5,        0.67,0.0280000009
        0.68,  1.51999998,        0.68,0.0311999992
        0.69,         1.5,        0.69,0.0280000009
         0.7,  1.48000002,         0.7,0.0280000009
        0.71,         1.5,        0.71,0.0287999995
        0.72,  1.46000004,        0.72,      0.0296
        0.73,  1.51999998,        0.73,0.0311999992
        0.74,  1.48000002,        0.74,0.0304000005
        0.75,         1.5,        0.75,0.0311999992
        0.76,         1.5,        0.76,0.0304000005
        0.77,         1.5,        0.77,      0.0296
        0.78,         1.5,        0.78,0.0304000005
        0.79,         1.5,        0.79,      0.0296
         0.8,         1.5,         0.8,0.0311999992
        0.81,  1.48000002,        0.81,0.0311999992
        0.82,         1.5,        0.82,0.0304000005
        0.83,  1.48000002,        0.83,0.0287999995
        0.84,  1.48000002,        0.84,0.0311999992
        0.85,  1.48000002,        0.85,0.0311999992
        0.86,  1.48000002,        0.86,0.0304000005
        0.87,         1.5,        0.87,0.0311999992
        0.88,         1.5,        0.88,      0.0296
        0.89,         1.5,        0.89,0.0287999995
         0.9,         1.5,         0.9,0.0272000004
        0.91,  1.51999998,        0.91,0.0280000009
        0.92,         1.5,        0.92,0.0263999999
        0.93,         1.5,        0.93,0.0248000007
        0.94,  1.51999998,        0.94,0.0248000007
        0.95,  1.53999996,        0.95,0.0248000007
        0.96,  1.51999998,        0.96,0.0208000001
        0.97,  1.51999998,        0.97,0.0223999992
        0.98,  1.51999998,        0.98,0.0223999992
        0.99,         1.5,        0.99,0.0208000001
           1,         1.5,           1,0.0208000001
        1.01,  1.51999998,        1.01,0.0216000006
        1.02,  1.51999998,        1.02,0.0199999996
        1.03,  1.51999998,        1.03,0.0175999999
        1.04,  1.53999996,        1.04,0.0199999996
        1.05,         1.5,        1.05,0.0184000004
        1.06,  1.51999998,        1.06,0.0175999999
        1.07,  1.51999998,        1.07,0.0184000004
        1.08,  1.51999998,        1.08,0.0175999999
        1.09,  1.53999996,        1.09,0.0192000009
         1.1,  1.51999998,         1.1,0.0167999994
        1.11,  1.51999998,        1.11,0.0160000008
        1.12,  1.51999998,        1.12,0.0167999994
        1.13,  1.53999996,        1.13,0.0175999999
        1.14,  1.53999996,        1.14,0.0136000002
        1.15,  1.51999998,        1.15,0.0152000003
        1.16,  1.51999998,        1.16,0.0136000002
        1.17,  1.51999998,        1.17,0.0136000002
        1.18,  1.53999996,        1.18,0.0152000003
        1.19,  1.51999998,        1.19,0.0127999997
         1.2,  1.51999998,         1.2,0.00960000046
        1.21,  1.51999998,        1.21,0.0143999998
        1.22,  1.53999996,        1.22,0.0120000001
        1.23,  1.53999996,        1.23,0.0167999994
        1.24,  1.53999996,        1.24,0.0120000001
        1.25,  1.51999998,        1.25,0.0111999996
        1.26,  1.51999998,        1.26,0.00960000046
        1.27,  1.53999996,        1.27,0.0111999996
        1.28,  1.51999998,        1.28,0.0143999998
        1.29,  1.51999998,        1.29,0.0120000001
         1.3,  1.51999998,         1.3,0.0111999996
        1.31,         1.5,        1.31,0.00800000038
        1.32,  1.53999996,        1.32,0.00960000046
        1.33,  1.51999998,        1.33,0.00960000046
        1.34,  1.51999998,        1.34,0.0120000001
        1.35,  1.51999998,        1.35,0.00960000046
        1.36,  1.53999996,        1.36,0.0127999997
        1.37,  1.55999994,        1.37,0.0120000001
        1.38,  1.53999996,        1.38,0.0111999996
        1.39,  1.51999998,        1.39,0.0120000001
         1.4,  1.53999996,         1.4,0.0120000001
        1.41,  1.51999998,        1.41,      0.0104
        1.42,  1.55999994,        1.42,0.0136000002
        1.43,  1.51999998,        1.43,0.0111999996
        1.44,  1.51999998,        1.44,      0.0104
        1.45,  1.53999996,        1.45,0.0120000001
        1.46,  1.53999996,        1.46,      0.0104
        1.47,  1.51999998,        1.47,0.0120000001
        1.48,  1.53999996,        1.48,0.0111999996
        1.49,  1.53999996,        1.49,0.0111999996
         1.5,  1.53999996,         1.5,0.0120000001
        1.51,  1.53999996,        1.51,0.0127999997
        1.52,  1.53999996,        1.52,0.0127999997
        1.53,  1.53999996,        1.53,0.0120000001
        1.54,  1.51999998,        1.54,0.0120000001
        1.55,  1.51999998,        1.55,0.0111999996
        1.56,  1.53999996,        1.56,0.0127999997
        1.57,  1.51999998,        1.57,0.0111999996
        1.58,         1.5,        1.58,0.0111999996
        1.59,  1.51999998,        1.59,0.0120000001
         1.6,  1.51999998,         1.6,0.0120000001
        1.61,  1.53999996,        1.61,0.0143999998
        1.62,  1.51999998,        1.62,0.0152000003
        1.63,  1.51999998,        1.63,0.0152000003
        1.64,  1.53999996,        1.64,0.0167999994
        1.65,  1.53999996,        1.65,0.0167999994
        1.66,         1.5,        1.66,0.0120000001
        1.67,  1.51999998,        1.67,0.0152000003
        1.68,  1.51999998,        1.68,0.0160000008
        1.69,  1.51999998,        1.69,0.0160000008
         1.7,  1.51999998,         1.7,0.0175999999
        1.71,  1.51999998,        1.71,0.0175999999
        1.72,  1.51999998,        1.72,0.0160000008
        1.73,  1.51999998,        1.73,0.0152000003
        1.74,  1.51999998,        1.74,0.0160000008
        1.75,  1.51999998,        1.75,0.0175999999
        1.76,  1.51999998,        1.76,0.0184000004
        1.77,  1.51999998,        1.77,0.0167999994
        1.78,  1.53999996,        1.78,0.0175999999
        1.79,  1.51999998,        1.79,0.0167999994
         1.8,  1.51999998,         1.8,0.0192000009
        1.81,  1.51999998,        1.81,0.0192000009
        1.82,  1.51999998,        1.82,0.0192000009
        1.83,  1.51999998,        1.83,0.0175999999
        1.84,  1.51999998,        1.84,0.0184000004
        1.85,  1.51999998,        1.85,0.0192000009
        1.86,  1.53999996,        1.86,0.0223999992
        1.87,  1.53999996,        1.87,      0.0296
        1.88,  1.51999998,        1.88,0.0199999996
        1.89,  1.51999998,        1.89,0.0216000006
         1.9,  1.51999998,         1.9,0.0216000006
        1.91,  1.48000002,        1.91,0.0184000004
        1.92,         1.5,        1.92,0.0223999992
        1.93,  1.51999998,        1.93,0.0223999992
        1.94,  1.51999998,        1.94,0.0223999992
        1.95,  1.51999998,        1.95,0.0223999992
        1.96,         1.5,        1.96,0.0223999992
        1.97,  1.51999998,        1.97,0.0248000007
        1.98,         1.5,        1.98,0.0248000007
        1.99,  1.53999996,        1.99,0.0152000003
           2,         1.5,           2,0.0255999994
        2.01,         1.5,        2.01,0.0280000009
        2.02,         1.5,        2.02,0.0280000009
        2.03,         1.5,        2.03,0.0272000004
        2.04,  1.51999998,        2.04,      0.0296
        2.05,         1.5,        2.05,0.0320000015
        2.06,         1.5,        2.06,0.0304000005
        2.07,  1.48000002,        2.07,0.0335999988
        2.08,  1.48000002,        2.08,0.0351999998
        2.09,  1.48000002,        2.09,0.0384000018
         2.1,         1.5,         2.1,0.0416000001
        2.11,  1.48000002,        2.11,0.0423999988
        2.12,  1.48000002,        2.12,0.0456000008
        2.13,  1.46000004,        2.13,0.0463999994
        2.14,  1.48000002,        2.14,0.0511999987
        2.15,  1.46000004,        2.15,0.0504000001
        2.16,  1.46000004,        2.16,0.0511999987
        2.17,  1.46000004,        2.17,0.0551999994
        2.18,  1.46000004,        2.18,0.0527999997
        2.19,  1.44000006,        2.19,0.0535999984
         2.2,  1.44000006,         2.2,0.0527999997
        2.21,  1.46000004,        2.21,0.0504000001
        2.22,  1.46000004,        2.22,0.0511999987
        2.23,  1.46000004,        2.23,0.0496000014
        2.24,  1.44000006,        2.24,0.0496000014
        2.25,  1.44000006,        2.25,0.0496000014
        2.26,  1.48000002,        2.26,0.0463999994
        2.27,  1.48000002,        2.27,0.0392000005
        2.28,  1.48000002,        2.28,0.0368000008
        2.29,         1.5,        2.29,0.0328000002
         2.3,         1.5,         2.3,0.0311999992
        2.31,         1.5,        2.31,0.0311999992
        2.32,         1.5,        2.32,0.0280000009
        2.33,         1.5,        2.33,0.0272000004
        2.34,  1.51999998,        2.34,0.0263999999
        2.35,         1.5,        2.35,0.0248000007
        2.36,  1.51999998,        2.36,0.0231999997
        2.37,         1.5,        2.37,0.0199999996
        2.38,  1.51999998,        2.38,0.0208000001
        2.39,         1.5,        2.39,0.0184000004
         2.4,  1.48000002,         2.4,0.0184000004
        2.41,  1.51999998,        2.41,0.0192000009
        2.42,  1.51999998,        2.42,0.0167999994
        2.43,         1.5,        2.43,0.0152000003
        2.44,         1.5,        2.44,0.0152000003
        2.45,  1.51999998,        2.45,0.0152000003
        2.46,  1.51999998,        2.46,0.0167999994
        2.47,  1.51999998,        2.47,0.0167999994
        2.48,  1.51999998,        2.48,0.0160000008
        2.49,  1.53999996,        2.49,0.0160000008
         2.5,  1.51999998,         2.5,0.0143999998
        2.51,         1.5,        2.51,0.0143999998
        2.52,  1.51999998,        2.52,0.0127999997
        2.53,  1.51999998,        2.53,0.0152000003
        2.54,  1.53999996,        2.54,0.0152000003
        2.55,  1.51999998,        2.55,0.0120000001
        2.56,  1.51999998,        2.56,0.0111999996
        2.57,  1.51999998,        2.57,0.0127999997
        2.58,  1.53999996,        2.58,0.0143999998
        2.59,  1.53999996,        2.59,0.0120000001
         2.6,  1.51999998,         2.6,0.0120000001
        2.61,  1.51999998,        2.61,0.0136000002
        2.62,  1.53999996,        2.62,0.0120000001
        2.63,  1.53999996,        2.63,0.0152000003
        2.64,  1.53999996,        2.64,      0.0104
        2.65,  1.53999996,        2.65,0.00960000046
        2.66,  1.51999998,        2.66,0.0120000001
        2.67,  1.53999996,        2.67,0.0111999996
        2.68,  1.51999998,        2.68,      0.0104
        2.69,  1.51999998,        2.69,      0.0104
         2.7,  1.51999998,         2.7,0.0111999996
        2.71,  1.51999998,        2.71,      0.0104
        2.72,  1.53999996,        2.72,0.0120000001
        2.73,  1.51999998,        2.73,0.00960000046
        2.74,  1.53999996,        2.74,      0.0104
        2.75,  1.51999998,        2.75,0.0120000001
        2.76,  1.53999996,        2.76,0.0127999997
        2.77,  1.51999998,        2.77,0.0120000001
        2.78,  1.53999996,        2.78,0.0120000001
        2.79,  1.53999996,        2.79,0.0120000001
         2.8,  1.53999996,         2.8,0.0120000001
        2.81,  1.55999994,        2.81,0.00639999984
        2.82,  1.53999996,        2.82,0.0120000001
        2.83,  1.53999996,        2.83,      0.0104
        2.84,  1.53999996,        2.84,0.0120000001
        2.85,  1.53999996,        2.85,0.0111999996
        2.86,  1.53999996,        2.86,0.0152000003
        2.87,  1.51999998,        2.87,0.00800000038
        2.88,  1.51999998,        2.88,0.0120000001
        2.89,  1.53999996,        2.89,0.0120000001
         2.9,  1.51999998,         2.9,0.0127999997
        2.91,  1.51999998,        2.91,0.0127999997
        2.92,  1.51999998,        2.92,0.0127999997
        2.93,  1.51999998,        2.93,0.0127999997
        2.94,  1.51999998,        2.94,0.0160000008
        2.95,  1.53999996,        2.95,0.0152000003
        2.96,         1.5,        2.96,0.0160000008
        2.97,  1.53999996,        2.97,0.0152000003
        2.98,  1.51999998,        2.98,0.0304000005
        2.99,  1.51999998,        2.99,0.0160000008
           3,  1.53999996,           3,0.0152000003
        3.01,  1.51999998,        3.01,0.0152000003
        3.02,  1.51999998,        3.02,0.0167999994
        3.03,  1.51999998,        3.03,0.0184000004
        3.04,  1.51999998,        3.04,0.0175999999
        3.05,  1.53999996,        3.05,0.0184000004
        3.06,  1.51999998,        3.06,0.0192000009
        3.07,  1.51999998,        3.07,0.0199999996
        3.08,  1.51999998,        3.08,0.0192000009
        3.09,  1.51999998,        3.09,0.0184000004
         3.1,  1.51999998,         3.1,0.0199999996
        3.11,         1.5,        3.11,0.0208000001
        3.12,  1.51999998,        3.12,0.0231999997
        3.13,         1.5,        3.13,0.0216000006
        3.14,         1.5,        3.14,0.0216000006
        3.15,  1.51999998,        3.15,0.0248000007
        3.16,  1.51999998,        3.16,0.0231999997
        3.17,  1.51999998,        3.17,0.0248000007
        3.18,  1.51999998,        3.18,0.0263999999
        3.19,         1.5,        3.19,0.0280000009
         3.2,  1.48000002,         3.2,0.0248000007
        3.21,         1.5,        3.21,0.0287999995
        3.22,  1.48000002,        3.22,      0.0296
        3.23,         1.5,        3.23,0.0287999995
        3.24,         1.5,        3.24,      0.0296
        3.25,         1.5,        3.25,0.0351999998
        3.26,  1.48000002,        3.26,0.0359999985
        3.27,  1.46000004,        3.27,0.0384000018
        3.28,  1.48000002,        3.28,0.0423999988
        3.29,  1.48000002,        3.29,0.0463999994
         3.3,  1.46000004,         3.3,0.0511999987
        3.31,  1.41999996,        3.31,      0.0592
        3.32,  1.39999998,        3.32,0.0656000003
        3.33,  1.36000001,        3.33,0.0784000009
        3.34,  1.27999997,        3.34,0.0927999988
        3.35,  1.17999995,        3.35,      0.1008
        3.36,  1.01999998,        3.36, 0.105599999
        3.37, 0.959999979,        3.37, 0.105599999
        3.38, 0.939999998,        3.38, 0.110399999
        3.39, 0.899999976,        3.39, 0.106399998
         3.4, 0.899999976,         3.4, 0.105599999
        3.41, 0.899999976,        3.41, 0.107199997
        3.42, 0.899999976,        3.42, 0.105599999
        3.43, 0.920000017,        3.43, 0.108000003
        3.44,           1,        3.44, 0.107199997
        3.45,  1.03999996,        3.45, 0.103200004
        3.46,  1.22000003,        3.46,0.0992000028
        3.47,  1.32000005,        3.47,0.0832000002
        3.48,        1.38,        3.48,0.0719999969
        3.49,  1.44000006,        3.49, 0.064000003
         3.5,  1.46000004,         3.5,0.0535999984
        3.51,  1.48000002,        3.51,0.0496000014
        3.52,  1.44000006,        3.52,0.0384000018
        3.53,  1.48000002,        3.53,0.0375999995
        3.54,  1.48000002,        3.54,0.0351999998
        3.55,         1.5,        3.55,0.0328000002
        3.56,         1.5,        3.56,0.0287999995
        3.57,         1.5,        3.57,0.0280000009
        3.58,         1.5,        3.58,0.0272000004
        3.59,  1.51999998,        3.59,0.0255999994
         3.6,  1.51999998,         3.6,0.0248000007
        3.61,  1.51999998,        3.61,0.0223999992
        3.62,  1.51999998,        3.62,0.0216000006
        3.63,  1.53999996,        3.63,0.0208000001
        3.64,  1.51999998,        3.64,0.0208000001
        3.65,  1.51999998,        3.65,0.0216000006
        3.66,         1.5,        3.66,0.0184000004
        3.67,  1.51999998,        3.67,0.0216000006
        3.68,  1.51999998,        3.68,0.0199999996
        3.69,  1.51999998,        3.69,0.0175999999
         3.7,  1.51999998,         3.7,0.0199999996
        3.71,  1.51999998,        3.71,0.0167999994
        3.72,  1.51999998,        3.72,0.0167999994
        3.73,  1.51999998,        3.73,0.0143999998
        3.74,  1.53999996,        3.74,0.0152000003
        3.75,  1.51999998,        3.75,0.0143999998
        3.76,  1.53999996,        3.76,0.0152000003
        3.77,  1.51999998,        3.77,0.0152000003
        3.78,  1.53999996,        3.78,0.0136000002
        3.79,  1.53999996,        3.79,0.0152000003
         3.8,  1.51999998,         3.8,0.0143999998
        3.81,  1.53999996,        3.81,0.0136000002
        3.82,  1.53999996,        3.82,0.0136000002
        3.83,  1.53999996,        3.83,0.0136000002
        3.84,  1.51999998,        3.84,0.0127999997
        3.85,  1.51999998,        3.85,0.0127999997
        3.86,  1.53999996,        3.86,0.0136000002
        3.87,  1.53999996,        3.87,0.0127999997
        3.88,  1.51999998,        3.88,0.0127999997
        3.89,  1.53999996,        3.89,0.0111999996
         3.9,  1.53999996,         3.9,0.0111999996
        3.91,  1.53999996,        3.91,0.0111999996
        3.92,  1.53999996,        3.92,0.0120000001
        3.93,  1.51999998,        3.93,0.0120000001
        3.94,  1.53999996,        3.94,0.0120000001
        3.95,  1.53999996,        3.95,0.0120000001
        3.96,  1.53999996,        3.96,0.0111999996
        3.97,  1.51999998,        3.97,0.0127999997
        3.98,  1.53999996,        3.98,0.0120000001
        3.99,  1.51999998,        3.99,0.0120000001
           4,  1.53999996,           4,0.0136000002
        4.01,  1.51999998,        4.01,0.0120000001
        4.02,  1.53999996,        4.02,0.0127999997
        4.03,  1.51999998,        4.03,      0.0104
        4.04,  1.53999996,        4.04,0.0111999996
        4.05,  1.53999996,        4.05,0.0111999996
        4.06,  1.53999996,        4.06,0.0120000001
        4.07,  1.53999996,        4.07,0.0127999997
        4.08,  1.53999996,        4.08,0.0120000001
        4.09,  1.53999996,        4.09,0.0120000001
         4.1,  1.53999996,         4.1,0.0120000001
        4.11,  1.51999998,        4.11,0.0143999998
        4.12,  1.53999996,        4.12,0.0136000002
        4.13,  1.51999998,        4.13,0.0143999998
        4.14,  1.53999996,        4.14,0.0143999998
        4.15,  1.51999998,        4.15,0.0152000003
        4.16,  1.53999996,        4.16,0.0152000003
        4.17,  1.53999996,        4.17,0.0167999994
        4.18,  1.51999998,        4.18,0.0127999997
        4.19,  1.53999996,        4.19,0.0136000002
         4.2,  1.53999996,         4.2,0.0143999998
        4.21,  1.51999998,        4.21,0.0160000008
        4.22,  1.51999998,        4.22,0.0143999998
        4.23,  1.53999996,        4.23,0.0152000003
        4.24,  1.53999996,        4.24,0.0167999994
        4.25,  1.53999996,        4.25,0.0136000002
        4.26,  1.53999996,        4.26,0.0160000008
        4.27,  1.53999996,        4.27,0.0160000008
        4.28,  1.55999994,        4.28,0.0167999994
        4.29,  1.51999998,        4.29,0.0175999999
         4.3,  1.53999996,         4.3,0.0192000009
        4.31,  1.55999994,        4.31,0.0184000004
        4.32,  1.51999998,        4.32,0.0167999994
        4.33,  1.51999998,        4.33,0.0167999994
        4.34,         1.5,        4.34,0.0152000003
        4.35,  1.53999996,        4.35,0.0152000003
        4.36,  1.51999998,        4.36,0.0192000009
        4.37,  1.53999996,        4.37,0.0175999999
        4.38,  1.53999996,        4.38,0.0167999994
        4.39,  1.51999998,        4.39,0.0175999999
         4.4,  1.51999998,         4.4,0.0167999994
        4.41,  1.53999996,        4.41,0.0160000008
        4.42,  1.53999996,        4.42,0.0167999994
        4.43,  1.51999998,        4.43,0.0160000008
        4.44,  1.53999996,        4.44,0.0199999996
        4.45,  1.53999996,        4.45,0.0192000009
        4.46,  1.53999996,        4.46,0.0111999996
        4.47,  1.55999994,        4.47,0.0136000002
        4.48,  1.55999994,        4.48,           0
        4.49,  1.53999996,        4.49,0.0175999999
         4.5,  1.55999994,         4.5,0.0192000009
        4.51,  1.53999996,        4.51,0.0184000004
        4.52,  1.51999998,        4.52,0.0175999999
        4.53,  1.53999996,        4.53,0.0167999994
        4.54,  1.51999998,        4.54,0.0184000004
        4.55,  1.53999996,        4.55,0.0192000009
        4.56,  1.53999996,        4.56,0.0184000004
        4.57,  1.51999998,        4.57,0.0175999999
        4.58,  1.53999996,        4.58,0.0184000004
        4.59,  1.53999996,        4.59,0.0192000009
         4.6,  1.51999998,         4.6,0.0160000008
        4.61,  1.53999996,        4.61,0.0175999999
        4.62,  1.53999996,        4.62,0.0175999999
        4.63,  1.53999996,        4.63,0.0175999999
        4.64,  1.53999996,        4.64,0.0192000009
        4.65,  1.53999996,        4.65,0.0167999994
        4.66,  1.55999994,        4.66,0.0216000006
        4.67,  1.53999996,        4.67,0.0167999994
        4.68,  1.51999998,        4.68,0.0160000008
        4.69,  1.51999998,        4.69,0.0184000004
         4.7,  1.51999998,         4.7,0.0167999994
        4.71,  1.51999998,        4.71,0.0167999994
        4.72,  1.53999996,        4.72,0.0152000003
        4.73,  1.51999998,        4.73,0.0167999994
        4.74,  1.53999996,        4.74,0.0167999994
        4.75,  1.53999996,        4.75,0.0167999994
        4.76,  1.51999998,        4.76,0.0184000004
        4.77,  1.51999998,        4.77,0.0184000004
        4.78,  1.53999996,        4.78,0.0192000009
        4.79,  1.51999998,        4.79,0.0184000004
         4.8,  1.53999996,         4.8,0.0192000009
        4.81,  1.51999998,        4.81,0.0208000001
        4.82,  1.51999998,        4.82,0.0208000001
        4.83,  1.51999998,        4.83,0.0199999996
        4.84,  1.51999998,        4.84,0.0223999992
        4.85,  1.53999996,        4.85,0.0240000002
        4.86,  1.51999998,        4.86,0.0223999992
        4.87,  1.51999998,        4.87,0.0248000007
        4.88,  1.51999998,        4.88,0.0240000002
        4.89,  1.51999998,        4.89,0.0263999999
         4.9,  1.51999998,         4.9,0.0280000009
        4.91,  1.51999998,        4.91,0.0287999995
        4.92,  1.51999998,        4.92,0.0304000005
        4.93,         1.5,        4.93,0.0311999992
        4.94,  1.51999998,        4.94,0.0311999992
        4.95,  1.51999998,        4.95,0.0335999988
        4.96,         1.5,        4.96,0.0351999998
        4.97,         1.5,        4.97,0.0368000008
        4.98,         1.5,        4.98,0.0375999995
        4.99,         1.5,        4.99,0.0408000015