s,Volts,s,Volts
        -2.5,  1.67999995,        -2.5,0.00079999998
      -2.495,  1.67999995,      -2.495,0.00159999996
       -2.49,  1.63999999,       -2.49,0.00240000011
      -2.485,  1.67999995,      -2.485,0.00079999998
       -2.48,  1.67999995,       -2.48,0.00240000011
      -2.475,  1.63999999,      -2.475,0.00079999998
       -2.47,  1.67999995,       -2.47,0.00159999996
      -2.465,  1.67999995,      -2.465,0.00159999996
       -2.46,  1.63999999,       -2.46,0.00240000011
      -2.455,  1.63999999,      -2.455,0.00240000011
       -2.45,  1.67999995,       -2.45,0.00240000011
      -2.445,  1.67999995,      -2.445,0.00639999984
       -2.44,  1.63999999,       -2.44,-0.00079999998
      -2.435,  1.63999999,      -2.435,0.00079999998
       -2.43,  1.63999999,       -2.43,0.00159999996
      -2.425,  1.63999999,      -2.425,0.00240000011
       -2.42,  1.63999999,       -2.42,0.00079999998
      -2.415,  1.63999999,      -2.415,           0
       -2.41,  1.63999999,       -2.41,0.00240000011
      -2.405,  1.63999999,      -2.405,0.00159999996
        -2.4,  1.63999999,        -2.4,0.00240000011
      -2.395,  1.63999999,      -2.395,           0
       -2.39,  1.63999999,       -2.39,0.00240000011
      -2.385,  1.67999995,      -2.385,0.00240000011
       -2.38,  1.63999999,       -2.38,0.00240000011
      -2.375,  1.63999999,      -2.375,0.00319999992
       -2.37,  1.63999999,       -2.37,0.00240000011
      -2.365,  1.67999995,      -2.365,0.00159999996
       -2.36,  1.63999999,       -2.36,0.00240000011
      -2.355,  1.63999999,      -2.355,           0
       -2.35,  1.63999999,       -2.35,0.00159999996
      -2.345,  1.67999995,      -2.345,0.00079999998
       -2.34,  1.63999999,       -2.34,-0.00079999998
      -2.335,  1.67999995,      -2.335,0.00319999992
       -2.33,  1.63999999,       -2.33,0.00159999996
      -2.325,  1.63999999,      -2.325,0.00159999996
       -2.32,  1.67999995,       -2.32,0.00079999998
      -2.315,  1.67999995,      -2.315,0.00079999998
       -2.31,  1.63999999,       -2.31,0.00159999996
      -2.305,  1.60000002,      -2.305,0.00159999996
        -2.3,  1.63999999,        -2.3,           0
      -2.295,  1.67999995,      -2.295,0.00159999996
       -2.29,  1.67999995,       -2.29,0.00159999996
      -2.285,  1.67999995,      -2.285,0.00319999992
       -2.28,  1.63999999,       -2.28,           0
      -2.275,  1.63999999,      -2.275,0.00159999996
       -2.27,  1.63999999,       -2.27,0.00159999996
      -2.265,  1.67999995,      -2.265,0.00400000019
       -2.26,  1.63999999,       -2.26,0.00159999996
      -2.255,  1.67999995,      -2.255,0.00400000019
       -2.25,  1.63999999,       -2.25,0.00159999996
      -2.245,  1.67999995,      -2.245,0.00159999996
       -2.24,  1.67999995,       -2.24,0.00400000019
      -2.235,  1.63999999,      -2.235,0.00159999996
       -2.23,  1.60000002,       -2.23,-0.00159999996
      -2.225,  1.63999999,      -2.225,0.00240000011
       -2.22,  1.67999995,       -2.22,0.00240000011
      -2.215,  1.72000003,      -2.215,0.00400000019
       -2.21,  1.63999999,       -2.21,0.00240000011
      -2.205,  1.63999999,      -2.205,           0
        -2.2,  1.67999995,        -2.2,0.0055999998
      -2.195,  1.67999995,      -2.195,0.00079999998
       -2.19,  1.67999995,       -2.19,0.00159999996
      -2.185,  1.67999995,      -2.185,0.00240000011
       -2.18,  1.67999995,       -2.18,-0.00079999998
      -2.175,  1.63999999,      -2.175,0.00079999998
       -2.17,  1.63999999,       -2.17,0.00159999996
      -2.165,  1.63999999,      -2.165,           0
       -2.16,  1.63999999,       -2.16,0.00240000011
      -2.155,  1.67999995,      -2.155,0.00159999996
       -2.15,  1.63999999,       -2.15,-0.00079999998
      -2.145,  1.63999999,      -2.145,0.00319999992
       -2.14,  1.63999999,       -2.14,0.00079999998
      -2.135,  1.67999995,      -2.135,0.00319999992
       -2.13,  1.63999999,       -2.13,0.00240000011
      -2.125,  1.60000002,      -2.125,0.00159999996
       -2.12,  1.63999999,       -2.12,0.00400000019
      -2.115,  1.63999999,      -2.115,0.00079999998
       -2.11,  1.67999995,       -2.11,0.00159999996
      -2.105,  1.63999999,      -2.105,0.00079999998
        -2.1,  1.63999999,        -2.1,-0.00240000011
      -2.095,  1.63999999,      -2.095,0.00400000019
       -2.09,  1.67999995,       -2.09,0.00319999992
      -2.085,  1.63999999,      -2.085,0.00240000011
       -2.08,  1.63999999,       -2.08,0.00240000011
      -2.075,  1.63999999,      -2.075,0.00079999998
       -2.07,  1.63999999,       -2.07,0.00240000011
      -2.065,  1.63999999,      -2.065,0.00079999998
       -2.06,  1.63999999,       -2.06,0.00079999998
      -2.055,  1.63999999,      -2.055,0.00319999992
       -2.05,  1.63999999,       -2.05,0.00159999996
      -2.045,  1.67999995,      -2.045,0.00159999996
       -2.04,  1.67999995,       -2.04,0.00159999996
      -2.035,  1.63999999,      -2.035,           0
       -2.03,  1.67999995,       -2.03,0.00480000023
      -2.025,  1.67999995,      -2.025,0.00319999992
       -2.02,  1.67999995,       -2.02,0.00159999996
      -2.015,  1.67999995,      -2.015,0.00240000011
       -2.01,  1.67999995,       -2.01,0.00159999996
      -2.005,  1.63999999,      -2.005,0.00159999996
          -2,  1.63999999,          -2,0.00159999996
      -1.995,  1.67999995,      -1.995,0.00079999998
       -1.99,  1.63999999,       -1.99,           0
      -1.985,  1.67999995,      -1.985,0.00159999996
       -1.98,  1.67999995,       -1.98,           0
      -1.975,  1.63999999,      -1.975,0.00079999998
       -1.97,  1.63999999,       -1.97,0.00240000011
      -1.965,  1.63999999,      -1.965,0.00240000011
       -1.96,  1.67999995,       -1.96,0.00079999998
      -1.955,  1.67999995,      -1.955,0.00159999996
       -1.95,  1.63999999,       -1.95,0.00159999996
      -1.945,  1.63999999,      -1.945,0.00240000011
       -1.94,  1.67999995,       -1.94,0.00240000011
      -1.935,  1.63999999,      -1.935,           0
       -1.93,  1.63999999,       -1.93,-0.00079999998
      -1.925,  1.67999995,      -1.925,0.00240000011
       -1.92,  1.63999999,       -1.92,0.00159999996
      -1.915,  1.63999999,      -1.915,0.00319999992
       -1.91,  1.63999999,       -1.91,0.00079999998
      -1.905,  1.67999995,      -1.905,0.00159999996
        -1.9,  1.63999999,        -1.9,0.00079999998
      -1.895,  1.63999999,      -1.895,0.00240000011
       -1.89,  1.67999995,       -1.89,0.00240000011
      -1.885,  1.63999999,      -1.885,0.00159999996
       -1.88,  1.67999995,       -1.88,0.00079999998
      -1.875,  1.63999999,      -1.875,0.00240000011
       -1.87,  1.67999995,       -1.87,0.00159999996
      -1.865,  1.63999999,      -1.865,0.00159999996
       -1.86,  1.67999995,       -1.86,0.00240000011
      -1.855,  1.63999999,      -1.855,0.00240000011
       -1.85,  1.63999999,       -1.85,0.00240000011
      -1.845,  1.63999999,      -1.845,0.00079999998
       -1.84,  1.63999999,       -1.84,0.00159999996
      -1.835,  1.63999999,      -1.835,0.00079999998
       -1.83,  1.67999995,       -1.83,0.00079999998
      -1.825,  1.67999995,      -1.825,0.00240000011
       -1.82,  1.63999999,       -1.82,0.00079999998
      -1.815,  1.67999995,      -1.815,           0
       -1.81,  1.63999999,       -1.81,0.00240000011
      -1.805,  1.67999995,      -1.805,0.00240000011
        -1.8,  1.63999999,        -1.8,0.00240000011
      -1.795,  1.67999995,      -1.795,0.00159999996
       -1.79,  1.63999999,       -1.79,0.00159999996
      -1.785,  1.67999995,      -1.785,0.00079999998
       -1.78,  1.63999999,       -1.78,0.00159999996
      -1.775,  1.63999999,      -1.775,0.00240000011
       -1.77,  1.67999995,       -1.77,0.00159999996
      -1.765,  1.67999995,      -1.765,0.00240000011
       -1.76,  1.63999999,       -1.76,0.00240000011
      -1.755,  1.67999995,      -1.755,0.00319999992
       -1.75,  1.67999995,       -1.75,0.00240000011
      -1.745,  1.63999999,      -1.745,0.00240000011
       -1.74,  1.63999999,       -1.74,0.00079999998
      -1.735,  1.63999999,      -1.735,0.00240000011
       -1.73,  1.67999995,       -1.73,0.00240000011
      -1.725,  1.63999999,      -1.725,0.00240000011
       -1.72,  1.63999999,       -1.72,0.00319999992
      -1.715,  1.67999995,      -1.715,0.00159999996
       -1.71,  1.67999995,       -1.71,0.00400000019
      -1.705,  1.67999995,      -1.705,0.00159999996
        -1.7,  1.67999995,        -1.7,0.00240000011
      -1.695,  1.67999995,      -1.695,0.00079999998
       -1.69,  1.63999999,       -1.69,           0
      -1.685,  1.67999995,      -1.685,0.00319999992
       -1.68,  1.67999995,       -1.68,0.00159999996
      -1.675,  1.67999995,      -1.675,0.00240000011
       -1.67,  1.63999999,       -1.67,0.00079999998
      -1.665,  1.67999995,      -1.665,0.00319999992
       -1.66,  1.63999999,       -1.66,0.00159999996
      -1.655,  1.63999999,      -1.655,0.00079999998
       -1.65,  1.67999995,       -1.65,0.00159999996
      -1.645,  1.63999999,      -1.645,0.00240000011
       -1.64,  1.63999999,       -1.64,0.00159999996
      -1.635,  1.63999999,      -1.635,0.00319999992
       -1.63,  1.63999999,       -1.63,0.00319999992
      -1.625,  1.67999995,      -1.625,0.00240000011
       -1.62,  1.63999999,       -1.62,0.00159999996
      -1.615,  1.67999995,      -1.615,0.00079999998
       -1.61,  1.67999995,       -1.61,0.00240000011
      -1.605,  1.63999999,      -1.605,0.00159999996
        -1.6,  1.67999995,        -1.6,0.00159999996
      -1.595,  1.67999995,      -1.595,0.00079999998
       -1.59,  1.67999995,       -1.59,           0
      -1.585,  1.63999999,      -1.585,0.00159999996
       -1.58,  1.63999999,       -1.58,           0
      -1.575,  1.67999995,      -1.575,0.00159999996
       -1.57,  1.67999995,       -1.57,0.00079999998
      -1.565,  1.63999999,      -1.565,0.00159999996
       -1.56,  1.67999995,       -1.56,0.00159999996
      -1.555,  1.63999999,      -1.555,0.00079999998
       -1.55,  1.60000002,       -1.55,-0.00400000019
      -1.545,  1.67999995,      -1.545,0.00240000011
       -1.54,  1.67999995,       -1.54,0.00159999996
      -1.535,  1.67999995,      -1.535,0.00240000011
       -1.53,  1.67999995,       -1.53,0.00480000023
      -1.525,  1.67999995,      -1.525,0.00079999998
       -1.52,  1.67999995,       -1.52,0.00079999998
      -1.515,  1.67999995,      -1.515,0.0055999998
       -1.51,  1.67999995,       -1.51,0.00240000011
      -1.505,  1.67999995,      -1.505,0.00240000011
        -1.5,  1.63999999,        -1.5,0.00240000011
      -1.495,  1.63999999,      -1.495,0.00240000011
       -1.49,  1.63999999,       -1.49,0.00079999998
      -1.485,  1.63999999,      -1.485,0.00159999996
       -1.48,  1.67999995,       -1.48,0.00079999998
      -1.475,  1.63999999,      -1.475,0.00159999996
       -1.47,  1.63999999,       -1.47,0.00319999992
      -1.465,  1.67999995,      -1.465,0.00079999998
       -1.46,  1.67999995,       -1.46,0.00319999992
      -1.455,  1.63999999,      -1.455,0.00240000011
       -1.45,  1.63999999,       -1.45,0.00159999996
      -1.445,  1.63999999,      -1.445,0.00079999998
       -1.44,  1.67999995,       -1.44,0.00240000011
      -1.435,  1.63999999,      -1.435,0.00240000011
       -1.43,  1.67999995,       -1.43,0.00159999996
      -1.425,  1.63999999,      -1.425,0.00240000011
       -1.42,  1.63999999,       -1.42,0.00240000011
      -1.415,  1.63999999,      -1.415,0.00159999996
       -1.41,  1.63999999,       -1.41,0.00159999996
      -1.405,  1.67999995,      -1.405,-0.00159999996
        -1.4,  1.63999999,        -1.4,0.00159999996
      -1.395,  1.63999999,      -1.395,0.00159999996
       -1.39,  1.63999999,       -1.39,0.00240000011
      -1.385,  1.67999995,      -1.385,0.00240000011
       -1.38,  1.63999999,       -1.38,0.00159999996
      -1.375,  1.67999995,      -1.375,0.00079999998
       -1.37,  1.67999995,       -1.37,0.00159999996
      -1.365,  1.67999995,      -1.365,0.00079999998
       -1.36,  1.63999999,       -1.36,           0
      -1.355,  1.67999995,      -1.355,0.00079999998
       -1.35,  1.63999999,       -1.35,0.00319999992
      -1.345,  1.67999995,      -1.345,0.00240000011
       -1.34,  1.63999999,       -1.34,0.00159999996
      -1.335,  1.63999999,      -1.335,0.00079999998
       -1.33,  1.63999999,       -1.33,0.00159999996
      -1.325,  1.60000002,      -1.325,-0.00800000038
       -1.32,  1.67999995,       -1.32,0.00240000011
      -1.315,  1.63999999,      -1.315,0.00079999998
       -1.31,  1.63999999,       -1.31,           0
      -1.305,  1.67999995,      -1.305,0.00159999996
        -1.3,  1.67999995,        -1.3,0.00240000011
      -1.295,  1.67999995,      -1.295,0.00319999992
       -1.29,  1.72000003,       -1.29,-0.00079999998
      -1.285,  1.63999999,      -1.285,0.00159999996
       -1.28,  1.63999999,       -1.28,0.00159999996
      -1.275,  1.63999999,      -1.275,0.00240000011
       -1.27,  1.67999995,       -1.27,           0
      -1.265,  1.63999999,      -1.265,-0.00159999996
       -1.26,  1.60000002,       -1.26,0.00240000011
      -1.255,  1.67999995,      -1.255,0.00079999998
       -1.25,  1.63999999,       -1.25,0.00240000011
      -1.245,  1.67999995,      -1.245,0.00400000019
       -1.24,  1.63999999,       -1.24,           0
      -1.235,  1.63999999,      -1.235,0.00159999996
       -1.23,  1.63999999,       -1.23,0.00240000011
      -1.225,  1.63999999,      -1.225,0.00240000011
       -1.22,  1.67999995,       -1.22,0.00240000011
      -1.215,  1.63999999,      -1.215,0.00240000011
       -1.21,  1.63999999,       -1.21,0.00400000019
      -1.205,  1.67999995,      -1.205,0.00159999996
        -1.2,  1.67999995,        -1.2,0.00240000011
      -1.195,  1.67999995,      -1.195,0.00159999996
       -1.19,  1.63999999,       -1.19,0.00319999992
      -1.185,  1.63999999,      -1.185,0.00159999996
       -1.18,  1.63999999,       -1.18,0.00079999998
      -1.175,  1.67999995,      -1.175,0.00240000011
       -1.17,  1.63999999,       -1.17,0.00159999996
      -1.165,  1.67999995,      -1.165,0.00240000011
       -1.16,  1.67999995,       -1.16,0.00240000011
      -1.155,  1.67999995,      -1.155,0.00240000011
       -1.15,  1.67999995,       -1.15,0.00319999992
      -1.145,  1.67999995,      -1.145,0.00319999992
       -1.14,  1.67999995,       -1.14,0.00319999992
      -1.135,  1.63999999,      -1.135,0.00159999996
       -1.13,  1.67999995,       -1.13,0.00159999996
      -1.125,  1.67999995,      -1.125,0.00079999998
       -1.12,  1.67999995,       -1.12,0.00480000023
      -1.115,  1.63999999,      -1.115,0.00319999992
       -1.11,  1.63999999,       -1.11,0.00159999996
      -1.105,  1.67999995,      -1.105,0.00079999998
        -1.1,  1.67999995,        -1.1,0.00159999996
      -1.095,  1.67999995,      -1.095,0.00159999996
       -1.09,  1.63999999,       -1.09,0.00480000023
      -1.085,  1.63999999,      -1.085,0.00240000011
       -1.08,  1.63999999,       -1.08,0.00159999996
      -1.075,  1.67999995,      -1.075,0.00079999998
       -1.07,  1.67999995,       -1.07,0.00159999996
      -1.065,  1.67999995,      -1.065,0.00079999998
       -1.06,  1.63999999,       -1.06,           0
      -1.055,  1.67999995,      -1.055,0.00079999998
       -1.05,  1.63999999,       -1.05,0.00240000011
      -1.045,  1.63999999,      -1.045,-0.00079999998
       -1.04,  1.67999995,       -1.04,0.00159999996
      -1.035,  1.67999995,      -1.035,0.00079999998
       -1.03,  1.63999999,       -1.03,0.00240000011
      -1.025,  1.63999999,      -1.025,0.00240000011
       -1.02,  1.63999999,       -1.02,0.00159999996
      -1.015,  1.63999999,      -1.015,0.00079999998
       -1.01,  1.63999999,       -1.01,0.00240000011
      -1.005,  1.67999995,      -1.005,0.00240000011
          -1,  1.60000002,          -1,0.00159999996
      -0.995,  1.67999995,      -0.995,0.00240000011
       -0.99,  1.63999999,       -0.99,0.00240000011
      -0.985,  1.67999995,      -0.985,0.00240000011
       -0.98,  1.63999999,       -0.98,0.00240000011
      -0.975,  1.63999999,      -0.975,0.00240000011
       -0.97,  1.63999999,       -0.97,0.00240000011
      -0.965,  1.63999999,      -0.965,0.00159999996
       -0.96,  1.63999999,       -0.96,0.00319999992
      -0.955,  1.63999999,      -0.955,0.00159999996
       -0.95,  1.63999999,       -0.95,0.00240000011
      -0.945,  1.67999995,      -0.945,0.00079999998
       -0.94,  1.63999999,       -0.94,0.00240000011
      -0.935,  1.67999995,      -0.935,0.00240000011
       -0.93,  1.63999999,       -0.93,0.00079999998
      -0.925,  1.60000002,      -0.925,0.00159999996
       -0.92,  1.63999999,       -0.92,0.00159999996
      -0.915,  1.67999995,      -0.915,0.00079999998
       -0.91,  1.67999995,       -0.91,0.00159999996
      -0.905,  1.63999999,      -0.905,0.00079999998
        -0.9,  1.63999999,        -0.9,-0.00079999998
      -0.895,  1.67999995,      -0.895,0.00240000011
       -0.89,  1.67999995,       -0.89,0.00319999992
      -0.885,  1.67999995,      -0.885,0.00159999996
       -0.88,  1.63999999,       -0.88,           0
      -0.875,  1.63999999,      -0.875,0.00240000011
       -0.87,  1.63999999,       -0.87,0.00159999996
      -0.865,  1.67999995,      -0.865,0.0055999998
       -0.86,  1.67999995,       -0.86,0.00400000019
      -0.855,  1.63999999,      -0.855,0.00240000011
       -0.85,  1.63999999,       -0.85,0.00159999996
      -0.845,  1.67999995,      -0.845,0.00159999996
       -0.84,  1.63999999,       -0.84,0.00079999998
      -0.835,  1.63999999,      -0.835,0.00159999996
       -0.83,  1.63999999,       -0.83,0.00319999992
      -0.825,  1.63999999,      -0.825,0.00159999996
       -0.82,  1.63999999,       -0.82,0.00319999992
      -0.815,  1.63999999,      -0.815,0.00159999996
       -0.81,  1.63999999,       -0.81,0.00079999998
      -0.805,  1.63999999,      -0.805,0.00079999998
        -0.8,  1.63999999,        -0.8,0.00079999998
      -0.795,  1.63999999,      -0.795,0.00079999998
       -0.79,  1.63999999,       -0.79,0.00240000011
      -0.785,  1.63999999,      -0.785,0.00480000023
       -0.78,  1.67999995,       -0.78,0.00079999998
      -0.775,  1.67999995,      -0.775,0.00240000011
       -0.77,  1.67999995,       -0.77,0.00319999992
      -0.765,  1.67999995,      -0.765,0.00240000011
       -0.76,  1.67999995,       -0.76,0.00079999998
      -0.755,  1.72000003,      -0.755,0.00240000011
       -0.75,  1.67999995,       -0.75,0.00079999998
      -0.745,  1.63999999,      -0.745,0.00400000019
       -0.74,  1.67999995,       -0.74,0.00319999992
      -0.735,  1.63999999,      -0.735,0.00240000011
       -0.73,  1.67999995,       -0.73,0.00240000011
      -0.725,  1.67999995,      -0.725,0.00240000011
       -0.72,  1.63999999,       -0.72,0.00079999998
      -0.715,  1.67999995,      -0.715,0.00159999996
       -0.71,  1.67999995,       -0.71,0.00400000019
      -0.705,  1.63999999,      -0.705,0.00159999996
        -0.7,  1.67999995,        -0.7,0.00159999996
      -0.695,  1.67999995,      -0.695,0.00079999998
       -0.69,  1.67999995,       -0.69,0.00079999998
      -0.685,  1.63999999,      -0.685,0.00159999996
       -0.68,  1.67999995,       -0.68,0.00079999998
      -0.675,  1.63999999,      -0.675,0.00079999998
       -0.67,  1.63999999,       -0.67,           0
      -0.665,  1.63999999,      -0.665,0.00159999996
       -0.66,  1.67999995,       -0.66,0.00319999992
      -0.655,  1.63999999,      -0.655,0.00159999996
       -0.65,  1.67999995,       -0.65,           0
      -0.645,  1.63999999,      -0.645,0.00240000011
       -0.64,  1.67999995,       -0.64,0.00159999996
      -0.635,  1.63999999,      -0.635,0.00159999996
       -0.63,  1.63999999,       -0.63,0.00240000011
      -0.625,  1.67999995,      -0.625,           0
       -0.62,  1.63999999,       -0.62,-0.00079999998
      -0.615,  1.67999995,      -0.615,0.00079999998
       -0.61,  1.63999999,       -0.61,0.00240000011
      -0.605,  1.67999995,      -0.605,           0
        -0.6,  1.67999995,        -0.6,0.00079999998
      -0.595,  1.67999995,      -0.595,0.00159999996
       -0.59,  1.67999995,       -0.59,           0
      -0.585,  1.67999995,      -0.585,0.00319999992
       -0.58,  1.67999995,       -0.58,0.00079999998
      -0.575,  1.67999995,      -0.575,-0.00159999996
       -0.57,  1.63999999,       -0.57,0.00240000011
      -0.565,  1.67999995,      -0.565,0.00240000011
       -0.56,  1.63999999,       -0.56,0.00159999996
      -0.555,  1.67999995,      -0.555,0.00079999998
       -0.55,  1.63999999,       -0.55,0.00079999998
      -0.545,  1.67999995,      -0.545,0.00079999998
       -0.54,  1.63999999,       -0.54,0.00159999996
      -0.535,  1.63999999,      -0.535,0.00400000019
       -0.53,  1.67999995,       -0.53,0.00159999996
      -0.525,  1.67999995,      -0.525,0.00079999998
       -0.52,  1.67999995,       -0.52,0.00319999992
      -0.515,  1.63999999,      -0.515,0.00240000011
       -0.51,  1.63999999,       -0.51,0.00079999998
      -0.505,  1.67999995,      -0.505,0.00159999996
        -0.5,  1.63999999,        -0.5,0.00240000011
      -0.495,  1.63999999,      -0.495,0.00240000011
       -0.49,  1.63999999,       -0.49,0.00240000011
      -0.485,  1.63999999,      -0.485,0.00159999996
       -0.48,  1.63999999,       -0.48,0.00079999998
      -0.475,  1.67999995,      -0.475,0.00079999998
       -0.47,  1.63999999,       -0.47,0.00319999992
      -0.465,  1.63999999,      -0.465,0.00240000011
       -0.46,  1.63999999,       -0.46,0.00240000011
      -0.455,  1.67999995,      -0.455,0.00079999998
       -0.45,  1.63999999,       -0.45,0.00159999996
      -0.445,  1.67999995,      -0.445,0.00800000038
       -0.44,  1.63999999,       -0.44,0.00079999998
      -0.435,  1.63999999,      -0.435,0.00240000011
       -0.43,  1.63999999,       -0.43,0.00079999998
      -0.425,  1.60000002,      -0.425,0.00159999996
       -0.42,  1.63999999,       -0.42,0.00079999998
      -0.415,  1.63999999,      -0.415,0.00159999996
       -0.41,  1.60000002,       -0.41,0.00240000011
      -0.405,  1.63999999,      -0.405,0.00319999992
        -0.4,  1.63999999,        -0.4,0.00240000011
      -0.395,  1.63999999,      -0.395,0.00159999996
       -0.39,  1.60000002,       -0.39,0.00240000011
      -0.385,  1.63999999,      -0.385,0.00319999992
       -0.38,  1.60000002,       -0.38,0.00240000011
      -0.375,  1.55999994,      -0.375,0.00159999996
       -0.37,  1.55999994,       -0.37,           0
      -0.365,  1.60000002,      -0.365,0.00240000011
       -0.36,  1.55999994,       -0.36,           0
      -0.355,  1.60000002,      -0.355,0.00159999996
       -0.35,  1.55999994,       -0.35,0.00480000023
      -0.345,  1.55999994,      -0.345,0.00400000019
       -0.34,  1.51999998,       -0.34,0.00159999996
      -0.335,  1.55999994,      -0.335,0.00240000011
       -0.33,  1.51999998,       -0.33,0.00159999996
      -0.325,  1.55999994,      -0.325,0.00159999996
       -0.32,  1.51999998,       -0.32,           0
      -0.315,  1.51999998,      -0.315,0.00159999996
       -0.31,  1.55999994,       -0.31,0.00240000011
      -0.305,  1.55999994,      -0.305,0.00319999992
        -0.3,  1.51999998,        -0.3,0.00159999996
      -0.295,  1.55999994,      -0.295,0.00159999996
       -0.29,  1.55999994,       -0.29,0.00079999998
      -0.285,  1.51999998,      -0.285,0.00159999996
       -0.28,  1.51999998,       -0.28,0.00079999998
      -0.275,  1.48000002,      -0.275,0.00079999998
       -0.27,  1.48000002,       -0.27,0.00079999998
      -0.265,  1.48000002,      -0.265,0.00159999996
       -0.26,  1.51999998,       -0.26,0.00400000019
      -0.255,  1.51999998,      -0.255,0.00079999998
       -0.25,  1.48000002,       -0.25,0.00319999992
      -0.245,  1.48000002,      -0.245,0.00079999998
       -0.24,  1.51999998,       -0.24,0.00319999992
      -0.235,  1.48000002,      -0.235,0.00240000011
       -0.23,  1.44000006,       -0.23,0.00240000011
      -0.225,  1.44000006,      -0.225,0.00240000011
       -0.22,  1.44000006,       -0.22,0.00159999996
      -0.215,  1.48000002,      -0.215,0.00079999998
       -0.21,  1.44000006,       -0.21,0.00240000011
      -0.205,  1.39999998,      -0.205,0.00240000011
        -0.2,  1.44000006,        -0.2,0.00319999992
      -0.195,  1.44000006,      -0.195,0.00319999992
       -0.19,  1.39999998,       -0.19,0.00319999992
      -0.185,  1.44000006,      -0.185,0.00159999996
       -0.18,  1.39999998,       -0.18,           0
      -0.175,  1.39999998,      -0.175,0.00240000011
       -0.17,  1.39999998,       -0.17,0.00240000011
      -0.165,  1.39999998,      -0.165,0.00159999996
       -0.16,  1.39999998,       -0.16,           0
      -0.155,  1.36000001,      -0.155,0.00079999998
       -0.15,  1.36000001,       -0.15,0.00240000011
      -0.145,  1.39999998,      -0.145,0.00240000011
       -0.14,  1.39999998,       -0.14,0.00240000011
      -0.135,  1.39999998,      -0.135,0.00079999998
       -0.13,  1.36000001,       -0.13,0.00159999996
      -0.125,  1.36000001,      -0.125,0.00079999998
       -0.12,  1.36000001,       -0.12,0.00079999998
      -0.115,  1.32000005,      -0.115,0.00159999996
       -0.11,  1.32000005,       -0.11,0.00400000019
      -0.105,  1.32000005,      -0.105,0.00319999992
        -0.1,  1.32000005,        -0.1,0.00159999996
      -0.095,  1.32000005,      -0.095,0.00240000011
       -0.09,  1.27999997,       -0.09,0.00159999996
      -0.085,  1.32000005,      -0.085,0.00319999992
       -0.08,  1.27999997,       -0.08,0.00319999992
      -0.075,  1.24000001,      -0.075,0.00319999992
       -0.07,  1.24000001,       -0.07,0.00159999996
      -0.065,  1.24000001,      -0.065,0.00240000011
       -0.06,  1.24000001,       -0.06,0.00400000019
      -0.055,  1.24000001,      -0.055,0.00079999998
       -0.05,  1.24000001,       -0.05,0.00159999996
      -0.045,  1.24000001,      -0.045,0.00159999996
       -0.04,  1.24000001,       -0.04,0.00319999992
      -0.035,  1.20000005,      -0.035,0.00159999996
       -0.03,  1.48000002,       -0.03,0.00079999998
      -0.025,  1.20000005,      -0.025,0.00240000011
       -0.02,  2.16000009,       -0.02,           0
      -0.015,  1.20000005,      -0.015,0.00240000011
       -0.01,  1.24000001,       -0.01,0.00079999998
      -0.005,  1.15999997,      -0.005,0.00159999996
           0,  1.15999997,           0,0.00400000019
       0.005,  1.60000002,       0.005,-0.00079999998
        0.01,        1.12,        0.01,0.00240000011
       0.015,        1.12,       0.015,0.00159999996
        0.02,  1.15999997,        0.02,0.00240000011
       0.025,  1.51999998,       0.025,0.00240000011
        0.03,        1.12,        0.03,0.00240000011
       0.035,        1.12,       0.035,0.00400000019
        0.04,        1.12,        0.04,0.00480000023
       0.045,  1.08000004,       0.045,0.00240000011
        0.05,  1.03999996,        0.05,-0.00079999998
       0.055,  1.08000004,       0.055,0.00240000011
        0.06,  1.51999998,        0.06,           0
       0.065,  1.15999997,       0.065,0.00319999992
        0.07,           1,        0.07,0.00319999992
       0.075,  1.03999996,       0.075,0.00240000011
        0.08,  1.03999996,        0.08,0.00159999996
       0.085,        1.88,       0.085,0.00319999992
        0.09,           1,        0.09,0.00319999992
       0.095,           1,       0.095,0.00240000011
         0.1,  1.60000002,         0.1,           0
       0.105,           1,       0.105,0.00240000011
        0.11, 0.920000017,        0.11,0.00159999996
       0.115, 0.959999979,       0.115,0.00240000011
        0.12, 0.920000017,        0.12,0.00240000011
       0.125,  1.03999996,       0.125,0.00400000019
        0.13, 0.879999995,        0.13,0.00159999996
       0.135, 0.920000017,       0.135,0.00079999998
        0.14,           1,        0.14,           0
       0.145, 0.959999979,       0.145,0.00240000011
        0.15, 0.920000017,        0.15,0.00240000011
       0.155, 0.839999974,       0.155,0.00240000011
        0.16,        1.88,        0.16,-0.00079999998
       0.165, 0.920000017,       0.165,0.00240000011
        0.17,  0.75999999,        0.17,0.00159999996
       0.175, 0.839999974,       0.175,0.00240000011
        0.18, 0.800000012,        0.18,0.00159999996
       0.185,  0.75999999,       0.185,0.00159999996
        0.19,  0.75999999,        0.19,0.00240000011
       0.195,  0.75999999,       0.195,0.00240000011
         0.2,  0.75999999,         0.2,0.00240000011
       0.205,  0.75999999,       0.205,0.00319999992
        0.21,  0.75999999,        0.21,0.00240000011
       0.215,  0.75999999,       0.215,0.00319999992
        0.22, 0.680000007,        0.22,0.00240000011
       0.225, 0.720000029,       0.225,0.00240000011
        0.23, 0.680000007,        0.23,0.00240000011
       0.235, 0.680000007,       0.235,0.00240000011
        0.24, 0.680000007,        0.24,0.00319999992
       0.245, 0.680000007,       0.245,0.00240000011
        0.25, 0.639999986,        0.25,0.00400000019
       0.255, 0.639999986,       0.255,0.00240000011
        0.26, 0.600000024,        0.26,           0
       0.265, 0.639999986,       0.265,0.00319999992
        0.27, 0.600000024,        0.27,0.00159999996
       0.275, 0.560000002,       0.275,0.00240000011
        0.28, 0.600000024,        0.28,0.00240000011
       0.285, 0.600000024,       0.285,0.00240000011
        0.29, 0.560000002,        0.29,0.00719999988
       0.295, 0.560000002,       0.295,0.00319999992
         0.3, 0.560000002,         0.3,0.00079999998
       0.305, 0.519999981,       0.305,           0
        0.31, 0.560000002,        0.31,0.00319999992
       0.315, 0.479999989,       0.315,0.00319999992
        0.32, 0.479999989,        0.32,-0.00079999998
       0.325, 0.479999989,       0.325,0.00240000011
        0.33, 0.519999981,        0.33,0.00240000011
       0.335, 0.479999989,       0.335,0.00319999992
        0.34, 0.439999998,        0.34,0.00240000011
       0.345, 0.400000006,       0.345,0.00240000011
        0.35, 0.439999998,        0.35,0.00319999992
       0.355, 0.439999998,       0.355,0.00159999996
        0.36, 0.400000006,        0.36,0.00639999984
       0.365, 0.400000006,       0.365,0.00240000011
        0.37, 0.360000014,        0.37,0.00240000011
       0.375, 0.400000006,       0.375,-0.00480000023
        0.38, 0.360000014,        0.38,0.00400000019
       0.385, 0.360000014,       0.385,0.00240000011
        0.39, 0.319999993,        0.39,0.00159999996
       0.395, 0.280000001,       0.395,0.00240000011
         0.4, 0.280000001,         0.4,0.00240000011
       0.405, 0.280000001,       0.405,0.00400000019
        0.41, 0.280000001,        0.41,0.00159999996
       0.415, 0.239999995,       0.415,0.00400000019
        0.42, 0.280000001,        0.42,0.00240000011
       0.425, 0.200000003,       0.425,0.00240000011
        0.43, 0.239999995,        0.43,0.00319999992
       0.435, 0.200000003,       0.435,0.00159999996
        0.44, 0.200000003,        0.44,0.00240000011
       0.445, 0.200000003,       0.445,0.00400000019
        0.45, 0.200000003,        0.45,0.00240000011
       0.455, 0.200000003,       0.455,0.00240000011
        0.46, 0.200000003,        0.46,0.00400000019
       0.465, 0.200000003,       0.465,0.00079999998
        0.47, 0.159999996,        0.47,0.00240000011
       0.475, 0.159999996,       0.475,0.00240000011
        0.48, 0.119999997,        0.48,0.00400000019
       0.485,0.0799999982,       0.485,0.00240000011
        0.49,0.0799999982,        0.49,0.00319999992
       0.495,0.0799999982,       0.495,0.00159999996
         0.5,0.0399999991,         0.5,0.00319999992
       0.505,0.0399999991,       0.505,0.00159999996
        0.51,0.0399999991,        0.51,0.00319999992
       0.515,0.0799999982,       0.515,0.00240000011
        0.52,0.0399999991,        0.52,           0
       0.525,           0,       0.525,0.00240000011
        0.53,0.0399999991,        0.53,0.00400000019
       0.535,0.0399999991,       0.535,0.00240000011
        0.54,           0,        0.54,0.00319999992
       0.545,0.0399999991,       0.545,0.00400000019
        0.55,           0,        0.55,0.00240000011
       0.555,           0,       0.555,0.00319999992
        0.56,           0,        0.56,0.00240000011
       0.565,-0.0399999991,       0.565,0.00240000011
        0.57,-0.0399999991,        0.57,0.00240000011
       0.575,-0.0799999982,       0.575,0.00079999998
        0.58,-0.0399999991,        0.58,0.00719999988
       0.585,-0.0399999991,       0.585,0.00400000019
        0.59,-0.0799999982,        0.59,0.00319999992
       0.595,-0.0799999982,       0.595,0.00400000019
         0.6,-0.0399999991,         0.6,0.00319999992
       0.605,-0.119999997,       0.605,           0
        0.61,-0.119999997,        0.61,0.00159999996
       0.615,-0.0799999982,       0.615,0.00240000011
        0.62,-0.119999997,        0.62,0.00319999992
       0.625,-0.159999996,       0.625,0.00159999996
        0.63,-0.0799999982,        0.63,0.00400000019
       0.635,-0.159999996,       0.635,0.00240000011
        0.64,-0.119999997,        0.64,0.00240000011
       0.645,-0.0799999982,       0.645,0.00159999996
        0.65,-0.159999996,        0.65,0.00159999996
       0.655,-0.159999996,       0.655,0.00319999992
        0.66,-0.159999996,        0.66,0.00319999992
       0.665,-0.119999997,       0.665,0.00400000019
        0.67,-0.159999996,        0.67,0.00079999998
       0.675,-0.159999996,       0.675,0.00240000011
        0.68,-0.0799999982,        0.68,0.00319999992
       0.685,-0.159999996,       0.685,0.00240000011
        0.69,-0.119999997,        0.69,0.00480000023
       0.695,-0.119999997,       0.695,0.0055999998
         0.7,-0.159999996,         0.7,0.00400000019
       0.705,-0.119999997,       0.705,0.00319999992
        0.71,-0.119999997,        0.71,0.00400000019
       0.715,-0.119999997,       0.715,0.0055999998
        0.72,-0.159999996,        0.72,0.00159999996
       0.725,-0.119999997,       0.725,0.00079999998
        0.73,-0.0799999982,        0.73,0.00639999984
       0.735,-0.159999996,       0.735,0.00240000011
        0.74,-0.159999996,        0.74,0.00400000019
       0.745,-0.119999997,       0.745,0.00480000023
        0.75,-0.159999996,        0.75,0.00480000023
       0.755,-0.159999996,       0.755,0.00400000019
        0.76,-0.0799999982,        0.76,0.0120000001
       0.765,-0.119999997,       0.765,0.0055999998
        0.77,-0.119999997,        0.77,-0.00079999998
       0.775,-0.119999997,       0.775,-0.00319999992
        0.78,-0.0799999982,        0.78,0.0111999996
       0.785,-0.159999996,       0.785,0.00240000011
        0.79,-0.119999997,        0.79,0.00240000011
       0.795,-0.159999996,       0.795,0.00240000011
         0.8,-0.159999996,         0.8,0.00240000011
       0.805,-0.119999997,       0.805,0.00400000019
        0.81,-0.119999997,        0.81,0.00240000011
       0.815,-0.119999997,       0.815,0.00240000011
        0.82,-0.119999997,        0.82,0.00319999992
       0.825,-0.159999996,       0.825,0.00319999992
        0.83,-0.159999996,        0.83,0.00319999992
       0.835,-0.119999997,       0.835,0.00240000011
        0.84,-0.119999997,        0.84,0.00240000011
       0.845,-0.159999996,       0.845,0.00400000019
        0.85,-0.119999997,        0.85,0.00079999998
       0.855,-0.119999997,       0.855,0.00480000023
        0.86,-0.159999996,        0.86,0.00240000011
       0.865,-0.159999996,       0.865,0.00159999996
        0.87,-0.119999997,        0.87,0.00319999992
       0.875,-0.119999997,       0.875,0.00240000011
        0.88,-0.159999996,        0.88,0.00159999996
       0.885,-0.159999996,       0.885,0.00159999996
        0.89,-0.159999996,        0.89,0.00400000019
       0.895,-0.119999997,       0.895,0.00319999992
         0.9,-0.159999996,         0.9,0.00400000019
       0.905,-0.119999997,       0.905,0.00319999992
        0.91,-0.159999996,        0.91,0.00240000011
       0.915,-0.119999997,       0.915,0.00480000023
        0.92,-0.119999997,        0.92,0.00319999992
       0.925,-0.159999996,       0.925,0.00079999998
        0.93,-0.119999997,        0.93,0.00240000011
       0.935,-0.159999996,       0.935,0.00400000019
        0.94,-0.159999996,        0.94,0.00240000011
       0.945,-0.159999996,       0.945,0.00319999992
        0.95,-0.159999996,        0.95,0.00240000011
       0.955,-0.159999996,       0.955,0.00400000019
        0.96,-0.119999997,        0.96,0.00240000011
       0.965,-0.159999996,       0.965,0.00400000019
        0.97,-0.119999997,        0.97,0.00400000019
       0.975,-0.159999996,       0.975,0.00319999992
        0.98,-0.119999997,        0.98,0.00319999992
       0.985,-0.119999997,       0.985,0.00159999996
        0.99,-0.159999996,        0.99,0.00400000019
       0.995,-0.119999997,       0.995,0.00240000011
           1,-0.119999997,           1,0.00240000011
       1.005,-0.119999997,       1.005,0.00240000011
        1.01,-0.119999997,        1.01,0.00319999992
       1.015,-0.119999997,       1.015,0.00319999992
        1.02,-0.119999997,        1.02,0.00319999992
       1.025,-0.119999997,       1.025,0.00159999996
        1.03,-0.119999997,        1.03,0.00879999995
       1.035,-0.119999997,       1.035,0.00159999996
        1.04,-0.119999997,        1.04,0.00319999992
       1.045,-0.119999997,       1.045,0.00159999996
        1.05,-0.119999997,        1.05,0.00240000011
       1.055,-0.159999996,       1.055,0.00159999996
        1.06,-0.159999996,        1.06,0.00240000011
       1.065,-0.159999996,       1.065,0.00159999996
        1.07,-0.119999997,        1.07,0.00159999996
       1.075,-0.159999996,       1.075,0.00319999992
        1.08,-0.0799999982,        1.08,0.00240000011
       1.085,-0.119999997,       1.085,0.00159999996
        1.09,-0.159999996,        1.09,0.00240000011
       1.095,-0.119999997,       1.095,0.00079999998
         1.1,-0.159999996,         1.1,0.00159999996
       1.105,-0.119999997,       1.105,0.00319999992
        1.11,-0.119999997,        1.11,0.00240000011
       1.115,-0.119999997,       1.115,0.00240000011
        1.12,-0.159999996,        1.12,0.00079999998
       1.125,-0.159999996,       1.125,0.00079999998
        1.13,-0.159999996,        1.13,0.00240000011
       1.135,-0.119999997,       1.135,0.00240000011
        1.14,-0.119999997,        1.14,0.00319999992
       1.145,-0.119999997,       1.145,0.00159999996
        1.15,-0.119999997,        1.15,0.00319999992
       1.155,-0.119999997,       1.155,0.00400000019
        1.16,-0.119999997,        1.16,0.00319999992
       1.165,-0.159999996,       1.165,0.00240000011
        1.17,-0.0799999982,        1.17,0.00800000038
       1.175,-0.119999997,       1.175,0.00400000019
        1.18,-0.159999996,        1.18,0.00400000019
       1.185,-0.119999997,       1.185,0.00240000011
        1.19,-0.119999997,        1.19,0.00480000023
       1.195,-0.159999996,       1.195,0.00240000011
         1.2,-0.119999997,         1.2,0.00159999996
       1.205,-0.159999996,       1.205,0.00159999996
        1.21,-0.119999997,        1.21,0.00480000023
       1.215,-0.159999996,       1.215,0.00400000019
        1.22,-0.159999996,        1.22,0.00240000011
       1.225,-0.119999997,       1.225,0.00319999992
        1.23,-0.119999997,        1.23,0.00240000011
       1.235,-0.119999997,       1.235,0.00240000011
        1.24,-0.159999996,        1.24,0.00480000023
       1.245,-0.119999997,       1.245,0.00240000011
        1.25,-0.159999996,        1.25,0.00240000011
       1.255,-0.0799999982,       1.255,0.00319999992
        1.26,-0.119999997,        1.26,0.00319999992
       1.265,-0.159999996,       1.265,0.00319999992
        1.27,-0.119999997,        1.27,0.00079999998
       1.275,-0.159999996,       1.275,0.00319999992
        1.28,-0.159999996,        1.28,           0
       1.285,-0.159999996,       1.285,0.00240000011
        1.29,-0.119999997,        1.29,0.00319999992
       1.295,-0.159999996,       1.295,0.00319999992
         1.3,-0.119999997,         1.3,0.00079999998
       1.305,-0.119999997,       1.305,0.00240000011
        1.31,-0.119999997,        1.31,0.00400000019
       1.315,-0.159999996,       1.315,0.00400000019
        1.32,-0.159999996,        1.32,0.00240000011
       1.325,-0.119999997,       1.325,0.00159999996
        1.33,-0.159999996,        1.33,0.00319999992
       1.335,-0.119999997,       1.335,0.00079999998
        1.34,-0.119999997,        1.34,0.00480000023
       1.345,-0.119999997,       1.345,0.00400000019
        1.35,-0.119999997,        1.35,0.00240000011
       1.355,-0.119999997,       1.355,0.00240000011
        1.36,-0.159999996,        1.36,0.00240000011
       1.365,-0.119999997,       1.365,0.00319999992
        1.37,-0.119999997,        1.37,0.00159999996
       1.375,-0.159999996,       1.375,0.00319999992
        1.38,-0.159999996,        1.38,0.00159999996
       1.385,-0.119999997,       1.385,0.00240000011
        1.39,-0.119999997,        1.39,0.0055999998
       1.395,-0.119999997,       1.395,0.00079999998
         1.4,-0.159999996,         1.4,0.00079999998
       1.405,-0.119999997,       1.405,0.00319999992
        1.41,-0.119999997,        1.41,0.00240000011
       1.415,-0.119999997,       1.415,0.00319999992
        1.42,-0.159999996,        1.42,0.00240000011
       1.425,-0.159999996,       1.425,0.00319999992
        1.43,-0.119999997,        1.43,0.00480000023
       1.435,-0.119999997,       1.435,0.00240000011
        1.44,-0.119999997,        1.44,0.00319999992
       1.445,-0.159999996,       1.445,0.00319999992
        1.45,-0.159999996,        1.45,0.00400000019
       1.455,-0.159999996,       1.455,0.00240000011
        1.46,-0.119999997,        1.46,0.00240000011
       1.465,-0.159999996,       1.465,0.00159999996
        1.47,-0.119999997,        1.47,0.00319999992
       1.475,-0.159999996,       1.475,0.00480000023
        1.48,-0.119999997,        1.48,0.00480000023
       1.485,-0.159999996,       1.485,0.00240000011
        1.49,-0.119999997,        1.49,0.00240000011
       1.495,-0.119999997,       1.495,0.00240000011
         1.5,-0.159999996,         1.5,0.00159999996
       1.505,-0.159999996,       1.505,0.00240000011
        1.51,-0.119999997,        1.51,0.0055999998
       1.515,-0.119999997,       1.515,0.00240000011
        1.52,-0.119999997,        1.52,0.00319999992
       1.525,-0.119999997,       1.525,0.00240000011
        1.53,-0.119999997,        1.53,0.00480000023
       1.535,-0.119999997,       1.535,0.00240000011
        1.54,-0.119999997,        1.54,0.00719999988
       1.545,-0.159999996,       1.545,0.00159999996
        1.55,-0.119999997,        1.55,0.00400000019
       1.555,-0.119999997,       1.555,0.00240000011
        1.56,-0.159999996,        1.56,0.00319999992
       1.565,-0.119999997,       1.565,0.00240000011
        1.57,-0.119999997,        1.57,0.00639999984
       1.575,-0.159999996,       1.575,0.00319999992
        1.58,-0.119999997,        1.58,0.00159999996
       1.585,-0.119999997,       1.585,0.00319999992
        1.59,-0.119999997,        1.59,0.00400000019
       1.595,-0.119999997,       1.595,0.00400000019
         1.6,-0.119999997,         1.6,0.00240000011
       1.605,-0.119999997,       1.605,0.00319999992
        1.61,-0.119999997,        1.61,0.00639999984
       1.615,-0.119999997,       1.615,0.00319999992
        1.62,-0.159999996,        1.62,0.00319999992
       1.625,-0.159999996,       1.625,0.00240000011
        1.63,-0.119999997,        1.63,0.00240000011
       1.635,-0.119999997,       1.635,0.00480000023
        1.64,-0.119999997,        1.64,0.00240000011
       1.645,-0.119999997,       1.645,0.00240000011
        1.65,-0.159999996,        1.65,0.00319999992
       1.655,-0.159999996,       1.655,0.00240000011
        1.66,-0.159999996,        1.66,0.00079999998
       1.665,-0.119999997,       1.665,0.00480000023
        1.67,-0.159999996,        1.67,0.00319999992
       1.675,-0.159999996,       1.675,0.00240000011
        1.68,-0.119999997,        1.68,0.00400000019
       1.685,-0.119999997,       1.685,0.00240000011
        1.69,-0.119999997,        1.69,0.00079999998
       1.695,-0.159999996,       1.695,0.00159999996
         1.7,-0.159999996,         1.7,0.00319999992
       1.705,-0.119999997,       1.705,0.00159999996
        1.71,-0.159999996,        1.71,0.00400000019
       1.715,-0.119999997,       1.715,0.00400000019
        1.72,-0.159999996,        1.72,0.00400000019
       1.725,-0.159999996,       1.725,0.00319999992
        1.73,-0.119999997,        1.73,0.00319999992
       1.735,-0.119999997,       1.735,0.00159999996
        1.74,-0.159999996,        1.74,0.00240000011
       1.745,-0.159999996,       1.745,0.00159999996
        1.75,-0.159999996,        1.75,0.00319999992
       1.755,-0.119999997,       1.755,0.00240000011
        1.76,-0.119999997,        1.76,0.00480000023
       1.765,-0.159999996,       1.765,0.00240000011
        1.77,-0.119999997,        1.77,0.00159999996
       1.775,-0.119999997,       1.775,0.00240000011
        1.78,-0.119999997,        1.78,0.00240000011
       1.785,-0.119999997,       1.785,0.00240000011
        1.79,-0.0799999982,        1.79,0.00400000019
       1.795,-0.119999997,       1.795,0.00319999992
         1.8,-0.119999997,         1.8,0.00240000011
       1.805,-0.119999997,       1.805,0.00480000023
        1.81,-0.119999997,        1.81,0.00639999984
       1.815,-0.119999997,       1.815,0.00240000011
        1.82,-0.159999996,        1.82,0.00159999996
       1.825,-0.119999997,       1.825,0.00319999992
        1.83,-0.159999996,        1.83,0.00319999992
       1.835,-0.159999996,       1.835,0.00079999998
        1.84,-0.119999997,        1.84,0.00639999984
       1.845,-0.119999997,       1.845,0.00319999992
        1.85,-0.119999997,        1.85,0.00319999992
       1.855,-0.119999997,       1.855,0.00240000011
        1.86,-0.159999996,        1.86,0.00159999996
       1.865,-0.119999997,       1.865,0.00319999992
        1.87,-0.159999996,        1.87,0.00159999996
       1.875,-0.159999996,       1.875,0.00159999996
        1.88,-0.159999996,        1.88,0.00079999998
       1.885,-0.119999997,       1.885,0.00240000011
        1.89,-0.119999997,        1.89,0.00400000019
       1.895,-0.159999996,       1.895,0.00319999992
         1.9,-0.0799999982,         1.9,0.00480000023
       1.905,-0.159999996,       1.905,0.00240000011
        1.91,-0.159999996,        1.91,           0
       1.915,-0.159999996,       1.915,0.00319999992
        1.92,-0.119999997,        1.92,0.00480000023
       1.925,-0.119999997,       1.925,0.00159999996
        1.93,-0.159999996,        1.93,0.00079999998
       1.935,-0.119999997,       1.935,0.00319999992
        1.94,-0.159999996,        1.94,           0
       1.945,-0.119999997,       1.945,0.00400000019
        1.95,-0.119999997,        1.95,0.00240000011
       1.955,-0.119999997,       1.955,0.00159999996
        1.96,-0.119999997,        1.96,-0.00079999998
       1.965,-0.119999997,       1.965,0.00159999996
        1.97,-0.119999997,        1.97,0.00400000019
       1.975,-0.159999996,       1.975,0.00240000011
        1.98,-0.119999997,        1.98,      0.0104
       1.985,-0.119999997,       1.985,0.00240000011
        1.99,-0.119999997,        1.99,0.00719999988
       1.995,-0.119999997,       1.995,0.00240000011
           2,-0.119999997,           2,0.00159999996
       2.005,-0.159999996,       2.005,0.00240000011
        2.01,-0.159999996,        2.01,0.00400000019
       2.015,-0.159999996,       2.015,0.00240000011
        2.02,-0.119999997,        2.02,0.00079999998
       2.025,-0.119999997,       2.025,0.00319999992
        2.03,-0.159999996,        2.03,0.00159999996
       2.035,-0.119999997,       2.035,           0
        2.04,-0.159999996,        2.04,0.00480000023
       2.045,-0.119999997,       2.045,0.00400000019
        2.05,-0.159999996,        2.05,0.00240000011
       2.055,-0.119999997,       2.055,0.00319999992
        2.06,-0.119999997,        2.06,0.0055999998
       2.065,-0.159999996,       2.065,0.00319999992
        2.07,-0.119999997,        2.07,0.00240000011
       2.075,-0.119999997,       2.075,0.00240000011
        2.08,-0.159999996,        2.08,0.00240000011
       2.085,-0.119999997,       2.085,0.00319999992
        2.09,-0.159999996,        2.09,           0
       2.095,-0.119999997,       2.095,0.00159999996
         2.1,-0.119999997,         2.1,0.00480000023
       2.105,-0.159999996,       2.105,0.00240000011
        2.11,-0.119999997,        2.11,0.00240000011
       2.115,-0.159999996,       2.115,0.00480000023
        2.12,-0.0799999982,        2.12,0.0055999998
       2.125,-0.119999997,       2.125,0.00079999998
        2.13,-0.159999996,        2.13,0.00079999998
       2.135,-0.119999997,       2.135,0.00240000011
        2.14,-0.119999997,        2.14,0.00240000011
       2.145,-0.159999996,       2.145,0.00240000011
        2.15,-0.119999997,        2.15,0.00319999992
       2.155,-0.159999996,       2.155,0.00400000019
        2.16,-0.119999997,        2.16,0.00240000011
       2.165,-0.119999997,       2.165,0.00400000019
        2.17,-0.119999997,        2.17,0.00400000019
       2.175,-0.119999997,       2.175,0.00240000011
        2.18,-0.159999996,        2.18,0.00319999992
       2.185,-0.119999997,       2.185,0.00400000019
        2.19,-0.159999996,        2.19,0.00159999996
       2.195,-0.159999996,       2.195,0.00319999992
         2.2,-0.159999996,         2.2,0.00079999998
       2.205,-0.119999997,       2.205,0.00159999996
        2.21,-0.159999996,        2.21,0.00319999992
       2.215,-0.159999996,       2.215,0.00240000011
        2.22,-0.159999996,        2.22,0.00240000011
       2.225,-0.159999996,       2.225,0.00159999996
        2.23,-0.119999997,        2.23,0.00079999998
       2.235,-0.159999996,       2.235,0.00240000011
        2.24,-0.119999997,        2.24,0.00240000011
       2.245,-0.159999996,       2.245,0.00319999992
        2.25,-0.159999996,        2.25,0.00319999992
       2.255,-0.119999997,       2.255,0.00480000023
        2.26,-0.119999997,        2.26,0.00319999992
       2.265,-0.159999996,       2.265,-0.00159999996
        2.27,-0.119999997,        2.27,0.00480000023
       2.275,-0.159999996,       2.275,0.00319999992
        2.28,-0.159999996,        2.28,0.00400000019
       2.285,-0.159999996,       2.285,0.00240000011
        2.29,-0.159999996,        2.29,-0.00079999998
       2.295,-0.159999996,       2.295,0.00159999996
         2.3,-0.159999996,         2.3,-0.00159999996
       2.305,-0.159999996,       2.305,0.00400000019
        2.31,-0.119999997,        2.31,0.0055999998
       2.315,-0.119999997,       2.315,0.00319999992
        2.32,-0.159999996,        2.32,-0.00079999998
       2.325,-0.159999996,       2.325,0.00240000011
        2.33,-0.159999996,        2.33,-0.00240000011
       2.335,-0.119999997,       2.335,0.00480000023
        2.34,-0.159999996,        2.34,0.0055999998
       2.345,-0.119999997,       2.345,0.00240000011
        2.35,-0.159999996,        2.35,0.00400000019
       2.355,-0.159999996,       2.355,0.00240000011
        2.36,-0.159999996,        2.36,0.00319999992
       2.365,-0.119999997,       2.365,0.00319999992
        2.37,-0.159999996,        2.37,0.00240000011
       2.375,-0.159999996,       2.375,0.00240000011
        2.38,-0.119999997,        2.38,0.00240000011
       2.385,-0.119999997,       2.385,0.00159999996
        2.39,-0.159999996,        2.39,0.00159999996
       2.395,-0.159999996,       2.395,0.00240000011
         2.4,-0.159999996,         2.4,0.00240000011
       2.405,-0.119999997,       2.405,0.00400000019
        2.41,-0.119999997,        2.41,0.00240000011
       2.415,-0.159999996,       2.415,0.00319999992
        2.42,-0.119999997,        2.42,0.00400000019
       2.425,-0.119999997,       2.425,0.00319999992
        2.43,-0.159999996,        2.43,-0.00240000011
       2.435,-0.159999996,       2.435,0.00319999992
        2.44,-0.119999997,        2.44,0.00319999992
       2.445,-0.119999997,       2.445,0.00159999996
        2.45,-0.119999997,        2.45,0.00079999998
       2.455,-0.159999996,       2.455,0.00240000011
        2.46,-0.159999996,        2.46,0.00319999992
       2.465,-0.159999996,       2.465,0.00079999998
        2.47,-0.159999996,        2.47,0.00159999996
       2.475,-0.0799999982,       2.475,0.00319999992
        2.48,-0.159999996,        2.48,0.00240000011
       2.485,-0.119999997,       2.485,0.0055999998
        2.49,-0.119999997,        2.49,0.00319999992
       2.495,-0.119999997,       2.495,0.00319999992