s,Volts,s,Volts
         -10,  1.96000004,         -10,0.00860000029
       -9.98,  1.96000004,       -9.98,0.0102000004
       -9.96,  1.96000004,       -9.96,0.00980000012
       -9.94,  1.96000004,       -9.94,0.00939999986
       -9.92,  1.91999996,       -9.92,0.0083999997
        -9.9,  1.96000004,        -9.9,0.0092000002
       -9.88,  1.96000004,       -9.88,0.00980000012
       -9.86,  1.96000004,       -9.86,0.00879999995
       -9.84,  1.91999996,       -9.84,0.0108000003
       -9.82,  1.96000004,       -9.82,0.00899999961
        -9.8,  1.96000004,        -9.8,      0.0074
       -9.78,  1.91999996,       -9.78,0.0083999997
       -9.76,  1.96000004,       -9.76,0.00939999986
       -9.74,  1.91999996,       -9.74,0.00779999979
       -9.72,  1.91999996,       -9.72,0.00860000029
        -9.7,  1.91999996,        -9.7,0.00860000029
       -9.68,  1.91999996,       -9.68,0.00899999961
       -9.66,  1.91999996,       -9.66,0.00960000046
       -9.64,        1.88,       -9.64,0.00659999996
       -9.62,  1.91999996,       -9.62,0.0083999997
        -9.6,  1.91999996,        -9.6,0.0111999996
       -9.58,  1.91999996,       -9.58,0.00939999986
       -9.56,  1.91999996,       -9.56,0.00879999995
       -9.54,  1.91999996,       -9.54,0.00980000012
       -9.52,  1.91999996,       -9.52,0.0092000002
        -9.5,  1.96000004,        -9.5,0.0083999997
       -9.48,  1.91999996,       -9.48,0.00760000013
       -9.46,  1.96000004,       -9.46,0.00899999961
       -9.44,  1.91999996,       -9.44,0.00659999996
       -9.42,  1.91999996,       -9.42,0.00760000013
        -9.4,  1.96000004,        -9.4,0.0092000002
       -9.38,  1.96000004,       -9.38,0.00800000038
       -9.36,  1.91999996,       -9.36,0.00960000046
       -9.34,  1.91999996,       -9.34,0.00700000022
       -9.32,        1.88,       -9.32,0.00980000012
        -9.3,  1.79999995,        -9.3,0.00600000005
       -9.28,  1.72000003,       -9.28,0.00980000012
       -9.26,  1.67999995,       -9.26,0.0055999998
       -9.24,  1.60000002,       -9.24,0.00980000012
       -9.22,  1.60000002,       -9.22,0.0083999997
        -9.2,  1.55999994,        -9.2,0.00999999978
       -9.18,  1.55999994,       -9.18,0.00800000038
       -9.16,  1.44000006,       -9.16,0.00960000046
       -9.14,  1.39999998,       -9.14,0.0118000004
       -9.12,  1.32000005,       -9.12,0.0083999997
        -9.1,  1.27999997,        -9.1,0.00960000046
       -9.08,  1.20000005,       -9.08,0.00960000046
       -9.06,        1.12,       -9.06,0.0115999999
       -9.04,  1.03999996,       -9.04,0.00960000046
       -9.02, 0.920000017,       -9.02,0.0109999999
          -9, 0.839999974,          -9,0.00960000046
       -8.98, 0.800000012,       -8.98,0.0111999996
       -8.96,  0.75999999,       -8.96,      0.0104
       -8.94, 0.600000024,       -8.94,0.00960000046
       -8.92, 0.479999989,       -8.92,0.00960000046
        -8.9, 0.360000014,        -8.9,0.0115999999
       -8.88, 0.239999995,       -8.88,0.0114000002
       -8.86,0.0799999982,       -8.86,0.0140000004
       -8.84,-0.119999997,       -8.84,0.0115999999
       -8.82,-0.0799999982,       -8.82,0.0131999999
        -8.8,-0.119999997,        -8.8,0.0121999998
       -8.78,-0.119999997,       -8.78,0.00980000012
       -8.76,-0.159999996,       -8.76,0.0115999999
       -8.74,-0.159999996,       -8.74,0.0111999996
       -8.72,-0.119999997,       -8.72,0.0121999998
        -8.7,-0.119999997,        -8.7,0.0109999999
       -8.68,-0.159999996,       -8.68,0.0118000004
       -8.66,-0.119999997,       -8.66,0.0114000002
       -8.64,-0.159999996,       -8.64,0.0120000001
       -8.62,-0.119999997,       -8.62,0.0111999996
        -8.6,-0.0799999982,        -8.6,0.0127999997
       -8.58,-0.119999997,       -8.58,0.0124000004
       -8.56,-0.159999996,       -8.56,0.0124000004
       -8.54,-0.159999996,       -8.54,0.0136000002
       -8.52,-0.0799999982,       -8.52,0.0136000002
        -8.5,-0.0399999991,        -8.5,0.0118000004
       -8.48,-0.0799999982,       -8.48,0.0131999999
       -8.46,           0,       -8.46,0.0118000004
       -8.44, 0.200000003,       -8.44,0.0124000004
       -8.42, 0.360000014,       -8.42,0.0114000002
        -8.4, 0.519999981,        -8.4,0.0115999999
       -8.38, 0.560000002,       -8.38,0.0108000003
       -8.36, 0.720000029,       -8.36,0.0115999999
       -8.34, 0.879999995,       -8.34,0.0120000001
       -8.32, 0.920000017,       -8.32,0.0114000002
        -8.3,  1.08000004,        -8.3,0.00960000046
       -8.28,        1.12,       -8.28,0.0124000004
       -8.26,  1.24000001,       -8.26,0.00980000012
       -8.24,  1.27999997,       -8.24,0.00939999986
       -8.22,  1.36000001,       -8.22,0.0092000002
        -8.2,  1.48000002,        -8.2,0.00800000038
       -8.18,  1.55999994,       -8.18,0.00980000012
       -8.16,  1.63999999,       -8.16,0.00820000004
       -8.14,  1.67999995,       -8.14,0.00960000046
       -8.12,  1.75999999,       -8.12,0.00980000012
        -8.1,  1.84000003,        -8.1,0.00939999986
       -8.08,  1.96000004,       -8.08,0.00960000046
       -8.06,  1.96000004,       -8.06,0.00779999979
       -8.04,  1.96000004,       -8.04,0.00939999986
       -8.02,  2.03999996,       -8.02,0.00960000046
          -8,  2.03999996,          -8,0.00579999993
       -7.98,  2.03999996,       -7.98,0.0083999997
       -7.96,  2.03999996,       -7.96,0.00760000013
       -7.94,  2.07999992,       -7.94,0.00879999995
       -7.92,  2.07999992,       -7.92,0.00800000038
        -7.9,  2.03999996,        -7.9,0.00860000029
       -7.88,  2.07999992,       -7.88,0.0092000002
       -7.86,  2.07999992,       -7.86,0.00499999989
       -7.84,  2.07999992,       -7.84,0.00999999978
       -7.82,  2.11999989,       -7.82,0.0105999997
        -7.8,  2.16000009,        -7.8,0.0083999997
       -7.78,  2.16000009,       -7.78,0.00980000012
       -7.76,  2.16000009,       -7.76,0.00960000046
       -7.74,  2.11999989,       -7.74,0.00760000013
       -7.72,  2.16000009,       -7.72,0.00719999988
        -7.7,  2.16000009,        -7.7,0.00939999986
       -7.68,  2.16000009,       -7.68,0.0108000003
       -7.66,  2.20000005,       -7.66,0.00620000018
       -7.64,  2.20000005,       -7.64,0.0083999997
       -7.62,  2.20000005,       -7.62,0.00779999979
        -7.6,  2.20000005,        -7.6,0.00700000022
       -7.58,  2.20000005,       -7.58,0.0083999997
       -7.56,  2.20000005,       -7.56,0.00879999995
       -7.54,  2.20000005,       -7.54,0.00700000022
       -7.52,  2.20000005,       -7.52,      0.0104
        -7.5,  2.24000001,        -7.5,0.00659999996
       -7.48,  2.20000005,       -7.48,0.00879999995
       -7.46,  2.20000005,       -7.46,0.00800000038
       -7.44,  2.20000005,       -7.44,0.0092000002
       -7.42,  2.24000001,       -7.42,0.00860000029
        -7.4,  2.20000005,        -7.4,0.00860000029
       -7.38,  2.20000005,       -7.38,      0.0074
       -7.36,  2.16000009,       -7.36,0.00480000023
       -7.34,  2.16000009,       -7.34,0.0108000003
       -7.32,  2.11999989,       -7.32,0.00499999989
        -7.3,  2.11999989,        -7.3,      0.0074
       -7.28,  2.11999989,       -7.28,0.00939999986
       -7.26,  2.11999989,       -7.26,0.00760000013
       -7.24,  2.11999989,       -7.24,0.00680000009
       -7.22,  2.11999989,       -7.22,0.00800000038
        -7.2,  2.07999992,        -7.2,0.00899999961
       -7.18,  2.07999992,       -7.18,0.00860000029
       -7.16,  2.03999996,       -7.16,0.00860000029
       -7.14,  2.03999996,       -7.14,0.0083999997
       -7.12,  2.03999996,       -7.12,0.00439999998
        -7.1,           2,        -7.1,0.00800000038
       -7.08,           2,       -7.08,0.00760000013
       -7.06,           2,       -7.06,0.0102000004
       -7.04,  1.96000004,       -7.04,      0.0104
       -7.02,  1.91999996,       -7.02,      0.0104
          -7,  1.91999996,          -7,0.0092000002
       -6.98,  1.91999996,       -6.98,0.00760000013
       -6.96,  1.79999995,       -6.96,0.0102000004
       -6.94,  1.75999999,       -6.94,0.00600000005
       -6.92,  1.67999995,       -6.92,0.0083999997
        -6.9,  1.60000002,        -6.9,0.0055999998
       -6.88,  1.55999994,       -6.88,0.0120000001
       -6.86,  1.44000006,       -6.86,0.0092000002
       -6.84,  1.39999998,       -6.84,0.00820000004
       -6.82,  1.32000005,       -6.82,0.0092000002
        -6.8,  1.20000005,        -6.8,0.0102000004
       -6.78,  1.20000005,       -6.78,0.0137999998
       -6.76,        1.12,       -6.76,0.0105999997
       -6.74,  1.03999996,       -6.74,0.00939999986
       -6.72, 0.920000017,       -6.72,0.0109999999
        -6.7, 0.839999974,        -6.7,0.00980000012
       -6.68, 0.800000012,       -6.68,0.0105999997
       -6.66,  0.75999999,       -6.66,0.00860000029
       -6.64, 0.519999981,       -6.64,0.0140000004
       -6.62, 0.439999998,       -6.62,0.00960000046
        -6.6, 0.360000014,        -6.6,0.0114000002
       -6.58, 0.239999995,       -6.58,0.0121999998
       -6.56,0.0399999991,       -6.56,0.0115999999
       -6.54,-0.0799999982,       -6.54,0.0114000002
       -6.52,-0.0399999991,       -6.52,0.0152000003
        -6.5,-0.159999996,        -6.5,0.0137999998
       -6.48,-0.119999997,       -6.48,0.0118000004
       -6.46,-0.119999997,       -6.46,0.0133999996
       -6.44,-0.159999996,       -6.44,0.0127999997
       -6.42,-0.119999997,       -6.42,0.0130000003
        -6.4,-0.119999997,        -6.4,0.0143999998
       -6.38,-0.159999996,       -6.38,0.0105999997
       -6.36,-0.200000003,       -6.36,0.0149999997
       -6.34,-0.119999997,       -6.34,0.0111999996
       -6.32,-0.119999997,       -6.32,0.0149999997
        -6.3,-0.119999997,        -6.3,0.0127999997
       -6.28,-0.159999996,       -6.28,0.0131999999
       -6.26,-0.159999996,       -6.26,0.0142000001
       -6.24,-0.159999996,       -6.24,0.0137999998
       -6.22,-0.159999996,       -6.22,0.0140000004
        -6.2,-0.159999996,        -6.2,      0.0126
       -6.18,-0.119999997,       -6.18,      0.0126
       -6.16,-0.119999997,       -6.16,0.0133999996
       -6.14,-0.119999997,       -6.14,0.0121999998
       -6.12,-0.0399999991,       -6.12,0.0140000004
        -6.1,-0.0799999982,        -6.1,0.0115999999
       -6.08,-0.0399999991,       -6.08,0.0105999997
       -6.06,0.0799999982,       -6.06,0.0130000003
       -6.04, 0.319999993,       -6.04,      0.0104
       -6.02, 0.439999998,       -6.02,      0.0126
          -6, 0.560000002,          -6,      0.0126
       -5.98, 0.800000012,       -5.98,0.0083999997
       -5.96, 0.920000017,       -5.96,0.0137999998
       -5.94, 0.959999979,       -5.94,0.0115999999
       -5.92,  1.15999997,       -5.92,0.0114000002
        -5.9,  1.27999997,        -5.9,0.0121999998
       -5.88,  1.27999997,       -5.88,0.0114000002
       -5.86,  1.44000006,       -5.86,0.00999999978
       -5.84,  1.48000002,       -5.84,0.0109999999
       -5.82,  1.63999999,       -5.82,0.0083999997
        -5.8,  1.67999995,        -5.8,0.0120000001
       -5.78,  1.75999999,       -5.78,0.00860000029
       -5.76,  1.75999999,       -5.76,0.00879999995
       -5.74,        1.88,       -5.74,0.00800000038
       -5.72,  1.96000004,       -5.72,0.00999999978
        -5.7,           2,        -5.7,0.0102000004
       -5.68,  2.03999996,       -5.68,0.00899999961
       -5.66,           2,       -5.66,0.0102000004
       -5.64,  2.03999996,       -5.64,0.00860000029
       -5.62,  2.07999992,       -5.62,0.00879999995
        -5.6,  2.03999996,        -5.6,0.0102000004
       -5.58,           2,       -5.58,0.00680000009
       -5.56,  2.07999992,       -5.56,0.00779999979
       -5.54,           2,       -5.54,0.00879999995
       -5.52,  2.03999996,       -5.52,0.00820000004
        -5.5,  2.03999996,        -5.5,0.00719999988
       -5.48,           2,       -5.48,      0.0074
       -5.46,  2.03999996,       -5.46,0.00820000004
       -5.44,  2.03999996,       -5.44,0.00760000013
       -5.42,  2.03999996,       -5.42,0.00779999979
        -5.4,           2,        -5.4,0.00879999995
       -5.38,           2,       -5.38,0.00960000046
       -5.36,  2.03999996,       -5.36,0.00860000029
       -5.34,           2,       -5.34,0.00860000029
       -5.32,           2,       -5.32,0.00680000009
        -5.3,           2,        -5.3,0.00620000018
       -5.28,           2,       -5.28,0.00960000046
       -5.26,           2,       -5.26,0.00820000004
       -5.24,           2,       -5.24,0.00960000046
       -5.22,  1.96000004,       -5.22,0.0083999997
        -5.2,  1.96000004,        -5.2,0.00760000013
       -5.18,  1.96000004,       -5.18,0.00820000004
       -5.16,  1.91999996,       -5.16,0.00939999986
       -5.14,  1.91999996,       -5.14,      0.0104
       -5.12,  1.79999995,       -5.12,0.0102000004
        -5.1,  1.75999999,        -5.1,0.00600000005
       -5.08,  1.72000003,       -5.08,0.00980000012
       -5.06,  1.63999999,       -5.06,0.0092000002
       -5.04,  1.60000002,       -5.04,0.0115999999
       -5.02,  1.55999994,       -5.02,0.0102000004
          -5,  1.48000002,          -5,0.00860000029
       -4.98,  1.44000006,       -4.98,0.00879999995
       -4.96,  1.36000001,       -4.96,0.00719999988
       -4.94,  1.27999997,       -4.94,0.0108000003
       -4.92,  1.24000001,       -4.92,0.00980000012
        -4.9,  1.15999997,        -4.9,0.0102000004
       -4.88, 0.959999979,       -4.88,0.00960000046
       -4.86, 0.879999995,       -4.86,0.0115999999
       -4.84, 0.800000012,       -4.84,0.00760000013
       -4.82,  0.75999999,       -4.82,0.0115999999
        -4.8, 0.519999981,        -4.8,0.0108000003
       -4.78, 0.400000006,       -4.78,0.00999999978
       -4.76, 0.239999995,       -4.76,0.0143999998
       -4.74,-0.119999997,       -4.74,0.0131999999
       -4.72,-0.0799999982,       -4.72,0.0118000004
        -4.7,-0.159999996,        -4.7,      0.0126
       -4.68,-0.119999997,       -4.68,0.0120000001
       -4.66,-0.159999996,       -4.66,0.0130000003
       -4.64,-0.159999996,       -4.64,0.0127999997
       -4.62,-0.159999996,       -4.62,0.0121999998
        -4.6,-0.119999997,        -4.6,0.0115999999
       -4.58,-0.119999997,       -4.58,0.0140000004
       -4.56,-0.159999996,       -4.56,0.0130000003
       -4.54,-0.159999996,       -4.54,0.0127999997
       -4.52,-0.119999997,       -4.52,0.0105999997
        -4.5,-0.119999997,        -4.5,      0.0104
       -4.48,-0.159999996,       -4.48,0.0136000002
       -4.46,-0.159999996,       -4.46,0.0105999997
       -4.44,-0.159999996,       -4.44,0.0130000003
       -4.42,-0.119999997,       -4.42,0.0136000002
        -4.4,-0.119999997,        -4.4,0.0109999999
       -4.38,-0.119999997,       -4.38,0.00939999986
       -4.36,-0.159999996,       -4.36,0.0114000002
       -4.34,-0.159999996,       -4.34,0.0133999996
       -4.32,-0.159999996,       -4.32,0.0137999998
        -4.3,-0.119999997,        -4.3,0.0133999996
       -4.28,-0.119999997,       -4.28,0.0133999996
       -4.26,-0.119999997,       -4.26,0.0143999998
       -4.24,-0.119999997,       -4.24,      0.0148
       -4.22,-0.119999997,       -4.22,0.0108000003
        -4.2,-0.159999996,        -4.2,0.0127999997
       -4.18,-0.159999996,       -4.18,0.0137999998
       -4.16,-0.159999996,       -4.16,0.0109999999
       -4.14,-0.119999997,       -4.14,0.0170000009
       -4.12,-0.119999997,       -4.12,0.0127999997
        -4.1,-0.159999996,        -4.1,0.0118000004
       -4.08,-0.159999996,       -4.08,0.0149999997
       -4.06,-0.159999996,       -4.06,0.0127999997
       -4.04,-0.159999996,       -4.04,0.0127999997
       -4.02,-0.159999996,       -4.02,0.00980000012
          -4,-0.159999996,          -4,0.0118000004
       -3.98,-0.119999997,       -3.98,0.00960000046
       -3.96,-0.119999997,       -3.96,0.0083999997
       -3.94,-0.159999996,       -3.94,0.0133999996
       -3.92,-0.159999996,       -3.92,0.0115999999
        -3.9,-0.159999996,        -3.9,0.00800000038
       -3.88,-0.119999997,       -3.88,0.0130000003
       -3.86,-0.159999996,       -3.86,0.0131999999
       -3.84,-0.159999996,       -3.84,0.00879999995
       -3.82,-0.159999996,       -3.82,0.0105999997
        -3.8,-0.119999997,        -3.8,0.0114000002
       -3.78,-0.119999997,       -3.78,0.0133999996
       -3.76,-0.119999997,       -3.76,0.0111999996
       -3.74,-0.159999996,       -3.74,0.0114000002
       -3.72,-0.119999997,       -3.72,0.0146000003
        -3.7,-0.0799999982,        -3.7,      0.0126
       -3.68,-0.119999997,       -3.68,0.0131999999
       -3.66,-0.159999996,       -3.66,      0.0148
       -3.64,-0.119999997,       -3.64,0.0146000003
       -3.62,-0.0799999982,       -3.62,0.0140000004
        -3.6,-0.159999996,        -3.6,0.0114000002
       -3.58,-0.119999997,       -3.58,0.0120000001
       -3.56,-0.159999996,       -3.56,0.0120000001
       -3.54,-0.119999997,       -3.54,0.0136000002
       -3.52,-0.159999996,       -3.52,0.0109999999
        -3.5,-0.159999996,        -3.5,0.0146000003
       -3.48,-0.119999997,       -3.48,      0.0126
       -3.46,-0.119999997,       -3.46,0.0137999998
       -3.44,-0.159999996,       -3.44,      0.0126
       -3.42,-0.119999997,       -3.42,      0.0104
        -3.4,-0.119999997,        -3.4,0.0146000003
       -3.38,-0.119999997,       -3.38,0.0133999996
       -3.36,-0.159999996,       -3.36,0.0109999999
       -3.34,-0.159999996,       -3.34,0.0136000002
       -3.32,-0.119999997,       -3.32,      0.0104
        -3.3,-0.119999997,        -3.3,0.0115999999
       -3.28,-0.119999997,       -3.28,0.0130000003
       -3.26,-0.119999997,       -3.26,0.0140000004
       -3.24,-0.159999996,       -3.24,0.0120000001
       -3.22,-0.119999997,       -3.22,0.0133999996
        -3.2,-0.119999997,        -3.2,      0.0104
       -3.18,-0.159999996,       -3.18,0.0114000002
       -3.16,-0.159999996,       -3.16,0.0120000001
       -3.14,-0.119999997,       -3.14,0.0127999997
       -3.12,-0.119999997,       -3.12,0.0115999999
        -3.1,-0.119999997,        -3.1,0.0137999998
       -3.08,-0.119999997,       -3.08,0.0121999998
       -3.06,-0.119999997,       -3.06,0.0130000003
       -3.04,-0.119999997,       -3.04,0.0142000001
       -3.02,-0.119999997,       -3.02,0.0130000003
          -3,-0.159999996,          -3,0.0120000001
       -2.98,-0.159999996,       -2.98,0.0120000001
       -2.96,-0.119999997,       -2.96,0.0127999997
       -2.94,-0.159999996,       -2.94,0.0120000001
       -2.92,-0.159999996,       -2.92,0.0114000002
        -2.9,-0.159999996,        -2.9,0.0155999996
       -2.88,-0.200000003,       -2.88,0.00960000046
       -2.86,-0.159999996,       -2.86,0.0152000003
       -2.84,-0.159999996,       -2.84,      0.0126
       -2.82,-0.119999997,       -2.82,      0.0126
        -2.8,-0.159999996,        -2.8,0.0133999996
       -2.78,-0.119999997,       -2.78,0.0130000003
       -2.76,-0.159999996,       -2.76,0.0133999996
       -2.74,-0.159999996,       -2.74,0.0146000003
       -2.72,-0.159999996,       -2.72,0.0130000003
        -2.7,-0.119999997,        -2.7,0.0131999999
       -2.68,-0.159999996,       -2.68,0.0136000002
       -2.66,-0.119999997,       -2.66,0.0142000001
       -2.64,-0.159999996,       -2.64,0.0115999999
       -2.62,-0.159999996,       -2.62,0.0124000004
        -2.6,-0.159999996,        -2.6,0.0149999997
       -2.58,-0.119999997,       -2.58,0.0121999998
       -2.56,-0.159999996,       -2.56,0.0114000002
       -2.54,-0.159999996,       -2.54,0.0127999997
       -2.52,-0.119999997,       -2.52,0.0127999997
        -2.5,-0.159999996,        -2.5,0.0118000004
       -2.48,-0.159999996,       -2.48,0.0146000003
       -2.46,-0.119999997,       -2.46,0.0114000002
       -2.44,-0.159999996,       -2.44,0.0137999998
       -2.42,-0.159999996,       -2.42,0.0142000001
        -2.4,-0.119999997,        -2.4,0.0131999999
       -2.38,-0.119999997,       -2.38,0.0121999998
       -2.36,-0.159999996,       -2.36,0.0111999996
       -2.34,-0.119999997,       -2.34,0.0118000004
       -2.32,-0.0799999982,       -2.32,0.0124000004
        -2.3,-0.0799999982,        -2.3,0.0137999998
       -2.28,-0.119999997,       -2.28,0.0140000004
       -2.26,           0,       -2.26,0.0124000004
       -2.24, 0.239999995,       -2.24,0.0120000001
       -2.22, 0.400000006,       -2.22,      0.0104
        -2.2, 0.560000002,        -2.2,0.0121999998
       -2.18,  0.75999999,       -2.18,0.0114000002
       -2.16, 0.920000017,       -2.16,0.00879999995
       -2.14,           1,       -2.14,      0.0104
       -2.12,  1.15999997,       -2.12,0.0105999997
        -2.1,  1.32000005,        -2.1,0.0118000004
       -2.08,  1.36000001,       -2.08,0.00960000046
       -2.06,  1.27999997,       -2.06,0.0102000004
       -2.04,  1.36000001,       -2.04,0.00820000004
       -2.02,  1.48000002,       -2.02,0.0092000002
          -2,  1.51999998,          -2,0.00999999978
       -1.98,  1.55999994,       -1.98,0.0109999999
       -1.96,  1.60000002,       -1.96,0.00980000012
       -1.94,  1.63999999,       -1.94,0.00879999995
       -1.92,  1.67999995,       -1.92,0.00820000004
        -1.9,  1.63999999,        -1.9,0.0120000001
       -1.88,  1.67999995,       -1.88,0.0114000002
       -1.86,  1.67999995,       -1.86,0.00879999995
       -1.84,  1.67999995,       -1.84,      0.0104
       -1.82,  1.67999995,       -1.82,0.00779999979
        -1.8,  1.67999995,        -1.8,0.0083999997
       -1.78,  1.67999995,       -1.78,      0.0104
       -1.76,  1.63999999,       -1.76,0.0092000002
       -1.74,  1.67999995,       -1.74,0.00820000004
       -1.72,  1.63999999,       -1.72,      0.0104
        -1.7,  1.60000002,        -1.7,0.00680000009
       -1.68,  1.51999998,       -1.68,0.0055999998
       -1.66,  1.48000002,       -1.66,0.00860000029
       -1.64,  1.32000005,       -1.64,0.00939999986
       -1.62,  1.27999997,       -1.62,0.0083999997
        -1.6,  1.24000001,        -1.6,0.00960000046
       -1.58,  1.08000004,       -1.58,0.0083999997
       -1.56, 0.959999979,       -1.56,0.0111999996
       -1.54, 0.879999995,       -1.54,0.0136000002
       -1.52,  0.75999999,       -1.52,      0.0074
        -1.5, 0.560000002,        -1.5,0.0111999996
       -1.48, 0.400000006,       -1.48,0.0105999997
       -1.46, 0.239999995,       -1.46,0.0115999999
       -1.44,0.0399999991,       -1.44,0.0120000001
       -1.42,-0.0399999991,       -1.42,0.0124000004
        -1.4,-0.159999996,        -1.4,0.0120000001
       -1.38,-0.159999996,       -1.38,0.0118000004
       -1.36,-0.119999997,       -1.36,0.0124000004
       -1.34,-0.159999996,       -1.34,0.0143999998
       -1.32,-0.159999996,       -1.32,0.0109999999
        -1.3,-0.119999997,        -1.3,0.00960000046
       -1.28,-0.119999997,       -1.28,0.0118000004
       -1.26,-0.159999996,       -1.26,0.0133999996
       -1.24,-0.119999997,       -1.24,0.0127999997
       -1.22,-0.159999996,       -1.22,0.0130000003
        -1.2,-0.159999996,        -1.2,0.0121999998
       -1.18,-0.159999996,       -1.18,0.0120000001
       -1.16,-0.159999996,       -1.16,0.0105999997
       -1.14,-0.159999996,       -1.14,      0.0104
       -1.12,-0.0399999991,       -1.12,0.0118000004
        -1.1,-0.0799999982,        -1.1,0.0137999998
       -1.08,-0.119999997,       -1.08,0.00999999978
       -1.06,           0,       -1.06,0.0118000004
       -1.04,0.0799999982,       -1.04,0.0121999998
       -1.02, 0.280000001,       -1.02,0.0115999999
          -1, 0.400000006,          -1,0.0121999998
       -0.98, 0.519999981,       -0.98,0.0130000003
       -0.96, 0.800000012,       -0.96,0.0127999997
       -0.94, 0.920000017,       -0.94,      0.0104
       -0.92, 0.920000017,       -0.92,0.0102000004
        -0.9,  1.15999997,        -0.9,0.0109999999
       -0.88,  1.32000005,       -0.88,0.00860000029
       -0.86,  1.32000005,       -0.86,0.0120000001
       -0.84,  1.39999998,       -0.84,0.00999999978
       -0.82,  1.51999998,       -0.82,0.00939999986
        -0.8,  1.60000002,        -0.8,0.00800000038
       -0.78,  1.67999995,       -0.78,0.00939999986
       -0.76,  1.67999995,       -0.76,0.0105999997
       -0.74,  1.72000003,       -0.74,0.0109999999
       -0.72,  1.79999995,       -0.72,0.0083999997
        -0.7,  1.79999995,        -0.7,0.00939999986
       -0.68,        1.88,       -0.68,0.00999999978
       -0.66,  1.84000003,       -0.66,0.0083999997
       -0.64,  1.84000003,       -0.64,0.00719999988
       -0.62,        1.88,       -0.62,0.00899999961
        -0.6,        1.88,        -0.6,      0.0074
       -0.58,        1.88,       -0.58,0.00820000004
       -0.56,        1.88,       -0.56,0.00860000029
       -0.54,  1.79999995,       -0.54,0.00939999986
       -0.52,  1.84000003,       -0.52,0.0092000002
        -0.5,  1.79999995,        -0.5,0.00700000022
       -0.48,  1.79999995,       -0.48,0.00899999961
       -0.46,  1.79999995,       -0.46,0.00960000046
       -0.44,  1.72000003,       -0.44,0.00939999986
       -0.42,  1.63999999,       -0.42,0.00939999986
        -0.4,  1.60000002,        -0.4,0.00980000012
       -0.38,  1.60000002,       -0.38,0.0108000003
       -0.36,  1.51999998,       -0.36,0.0114000002
       -0.34,  1.44000006,       -0.34,0.0109999999
       -0.32,  1.36000001,       -0.32,      0.0104
        -0.3,  1.36000001,        -0.3,0.00939999986
       -0.28,  1.27999997,       -0.28,      0.0104
       -0.26,  1.20000005,       -0.26,      0.0104
       -0.24,  1.15999997,       -0.24,0.0083999997
       -0.22,           1,       -0.22,      0.0126
        -0.2, 0.920000017,        -0.2,0.00980000012
       -0.18, 0.839999974,       -0.18,      0.0104
       -0.16,  0.75999999,       -0.16,0.00899999961
       -0.14, 0.600000024,       -0.14,0.0127999997
       -0.12, 0.479999989,       -0.12,0.0146000003
        -0.1, 0.400000006,        -0.1,0.0120000001
       -0.08, 0.319999993,       -0.08,0.0124000004
       -0.06, 0.239999995,       -0.06,0.0115999999
       -0.04,0.0399999991,       -0.04,0.0105999997
       -0.02,-0.0799999982,       -0.02,0.0121999998
           0,-0.0399999991,           0,0.0133999996
        0.02,-0.159999996,        0.02,0.0127999997
        0.04,-0.119999997,        0.04,0.0164000001
        0.06,-0.159999996,        0.06,0.0102000004
        0.08,-0.119999997,        0.08,0.0133999996
         0.1,-0.119999997,         0.1,      0.0126
        0.12,-0.159999996,        0.12,0.0133999996
        0.14,-0.159999996,        0.14,0.0131999999
        0.16,-0.119999997,        0.16,0.0153999999
        0.18,-0.119999997,        0.18,0.0146000003
         0.2,-0.159999996,         0.2,0.0115999999
        0.22,-0.119999997,        0.22,0.0130000003
        0.24,-0.0799999982,        0.24,0.0115999999
        0.26,-0.0799999982,        0.26,0.0120000001
        0.28,           0,        0.28,0.0142000001
         0.3, 0.239999995,         0.3,      0.0126
        0.32, 0.360000014,        0.32,0.0127999997
        0.34, 0.519999981,        0.34,0.0131999999
        0.36, 0.639999986,        0.36,0.0102000004
        0.38, 0.800000012,        0.38,0.00960000046
         0.4, 0.920000017,         0.4,0.00960000046
        0.42, 0.959999979,        0.42,0.0111999996
        0.44,  1.15999997,        0.44,0.0092000002
        0.46,  1.27999997,        0.46,0.0115999999
        0.48,  1.32000005,        0.48,      0.0074
         0.5,  1.51999998,         0.5,0.0114000002
        0.52,  1.60000002,        0.52,0.00980000012
        0.54,  1.67999995,        0.54,0.0108000003
        0.56,  1.72000003,        0.56,0.0114000002
        0.58,  1.75999999,        0.58,0.0092000002
         0.6,  1.79999995,         0.6,0.00980000012
        0.62,  1.79999995,        0.62,      0.0104
        0.64,  1.79999995,        0.64,0.0083999997
        0.66,  1.79999995,        0.66,0.0118000004
        0.68,  1.79999995,        0.68,0.0102000004
         0.7,  1.79999995,         0.7,0.00879999995
        0.72,  1.75999999,        0.72,0.00800000038
        0.74,  1.79999995,        0.74,0.00960000046
        0.76,  1.79999995,        0.76,0.00680000009
        0.78,  1.79999995,        0.78,0.0083999997
         0.8,  1.72000003,         0.8,0.00999999978
        0.82,  1.63999999,        0.82,0.00680000009
        0.84,  1.51999998,        0.84,0.00960000046
        0.86,  1.44000006,        0.86,0.0092000002
        0.88,  1.36000001,        0.88,0.0133999996
         0.9,  1.36000001,         0.9,0.0109999999
        0.92,  1.24000001,        0.92,0.00960000046
        0.94,  1.24000001,        0.94,0.0115999999
        0.96,        1.12,        0.96,0.0108000003
        0.98,  1.03999996,        0.98,0.0115999999
           1, 0.959999979,           1,0.0118000004
        1.02, 0.879999995,        1.02,0.0109999999
        1.04, 0.839999974,        1.04,0.00960000046
        1.06, 0.800000012,        1.06,0.0136000002
        1.08, 0.639999986,        1.08,0.0120000001
         1.1, 0.519999981,         1.1,0.0102000004
        1.12, 0.360000014,        1.12,0.00999999978
        1.14, 0.239999995,        1.14,0.0108000003
        1.16,           0,        1.16,0.0118000004
        1.18,-0.0799999982,        1.18,0.0153999999
         1.2,-0.119999997,         1.2,0.0124000004
        1.22,-0.119999997,        1.22,0.0140000004
        1.24,-0.119999997,        1.24,0.0130000003
        1.26,-0.119999997,        1.26,0.0124000004
        1.28,-0.119999997,        1.28,0.0108000003
         1.3,-0.119999997,         1.3,0.0108000003
        1.32,-0.119999997,        1.32,0.0142000001
        1.34,-0.159999996,        1.34,0.0109999999
        1.36,-0.159999996,        1.36,0.0140000004
        1.38,-0.159999996,        1.38,0.0130000003
         1.4,-0.0799999982,         1.4,0.0114000002
        1.42,-0.0799999982,        1.42,0.0121999998
        1.44,-0.0399999991,        1.44,0.0137999998
        1.46,-0.0799999982,        1.46,0.0136000002
        1.48,           0,        1.48,0.0130000003
         1.5, 0.119999997,         1.5,0.0146000003
        1.52, 0.280000001,        1.52,      0.0148
        1.54, 0.319999993,        1.54,0.0130000003
        1.56, 0.400000006,        1.56,0.0105999997
        1.58, 0.519999981,        1.58,      0.0126
         1.6, 0.560000002,         1.6,0.0118000004
        1.62, 0.800000012,        1.62,0.0130000003
        1.64, 0.839999974,        1.64,0.0092000002
        1.66, 0.920000017,        1.66,0.00820000004
        1.68,           1,        1.68,0.0108000003
         1.7,        1.12,         1.7,0.0115999999
        1.72,  1.24000001,        1.72,0.0108000003
        1.74,  1.32000005,        1.74,      0.0126
        1.76,  1.36000001,        1.76,0.00980000012
        1.78,  1.48000002,        1.78,0.00860000029
         1.8,  1.48000002,         1.8,0.0105999997
        1.82,  1.51999998,        1.82,0.00939999986
        1.84,  1.63999999,        1.84,0.0102000004
        1.86,  1.67999995,        1.86,0.0108000003
        1.88,  1.75999999,        1.88,0.00939999986
         1.9,  1.79999995,         1.9,0.00939999986
        1.92,  1.79999995,        1.92,0.00860000029
        1.94,  1.79999995,        1.94,0.00939999986
        1.96,  1.79999995,        1.96,0.00860000029
        1.98,  1.79999995,        1.98,0.00939999986
           2,  1.79999995,           2,0.00680000009
        2.02,  1.79999995,        2.02,0.00899999961
        2.04,  1.79999995,        2.04,0.0109999999
        2.06,  1.79999995,        2.06,0.00779999979
        2.08,  1.79999995,        2.08,0.00860000029
         2.1,  1.79999995,         2.1,0.00639999984
        2.12,  1.79999995,        2.12,0.00960000046
        2.14,  1.75999999,        2.14,0.00800000038
        2.16,  1.79999995,        2.16,0.00879999995
        2.18,  1.79999995,        2.18,0.00820000004
         2.2,  1.79999995,         2.2,0.00639999984
        2.22,  1.79999995,        2.22,0.0108000003
        2.24,  1.75999999,        2.24,0.00680000009
        2.26,  1.79999995,        2.26,0.00820000004
        2.28,  1.75999999,        2.28,0.0083999997
         2.3,  1.75999999,         2.3,0.00719999988
        2.32,  1.79999995,        2.32,      0.0104
        2.34,  1.72000003,        2.34,0.00939999986
        2.36,  1.67999995,        2.36,0.00999999978
        2.38,  1.67999995,        2.38,0.0109999999
         2.4,  1.60000002,         2.4,      0.0074
        2.42,  1.51999998,        2.42,0.0111999996
        2.44,  1.44000006,        2.44,0.00820000004
        2.46,  1.39999998,        2.46,0.0102000004
        2.48,  1.32000005,        2.48,0.00800000038
         2.5,  1.27999997,         2.5,0.0105999997
        2.52,  1.24000001,        2.52,0.0102000004
        2.54,        1.12,        2.54,0.0092000002
        2.56,  1.08000004,        2.56,0.0114000002
        2.58, 0.959999979,        2.58,0.00999999978
         2.6, 0.879999995,         2.6,0.0133999996
        2.62, 0.839999974,        2.62,0.0120000001
        2.64,  0.75999999,        2.64,0.0111999996
        2.66, 0.560000002,        2.66,0.0109999999
        2.68, 0.439999998,        2.68,0.0111999996
         2.7, 0.360000014,         2.7,0.0115999999
        2.72, 0.200000003,        2.72,0.0118000004
        2.74, 0.119999997,        2.74,0.0124000004
        2.76,0.0799999982,        2.76,0.0111999996
        2.78,0.0799999982,        2.78,0.0133999996
         2.8,0.0799999982,         2.8,0.0121999998
        2.82,0.0399999991,        2.82,0.0114000002
        2.84,0.0399999991,        2.84,0.0114000002
        2.86,0.0799999982,        2.86,0.0114000002
        2.88,0.0799999982,        2.88,0.0114000002
         2.9,0.0399999991,         2.9,0.0118000004
        2.92, 0.119999997,        2.92,0.0102000004
        2.94,0.0799999982,        2.94,0.0133999996
        2.96,           0,        2.96,0.0111999996
        2.98,-0.0399999991,        2.98,0.0136000002
           3,-0.159999996,           3,0.0120000001
        3.02,-0.119999997,        3.02,0.0115999999
        3.04,-0.159999996,        3.04,0.0121999998
        3.06,-0.119999997,        3.06,0.0143999998
        3.08,-0.119999997,        3.08,0.0133999996
         3.1,-0.119999997,         3.1,0.0115999999
        3.12,-0.119999997,        3.12,0.0157999992
        3.14,-0.159999996,        3.14,0.0115999999
        3.16,-0.159999996,        3.16,0.0115999999
        3.18,-0.119999997,        3.18,0.0133999996
         3.2,-0.119999997,         3.2,0.0118000004
        3.22,-0.119999997,        3.22,0.0111999996
        3.24,-0.159999996,        3.24,      0.0126
        3.26,-0.159999996,        3.26,0.0137999998
        3.28,-0.0799999982,        3.28,0.0124000004
         3.3,-0.0799999982,         3.3,0.0131999999
        3.32,-0.0799999982,        3.32,0.0137999998
        3.34,-0.119999997,        3.34,0.0102000004
        3.36,           0,        3.36,0.0155999996
        3.38, 0.239999995,        3.38,0.0133999996
         3.4, 0.360000014,         3.4,0.0133999996
        3.42, 0.519999981,        3.42,0.0108000003
        3.44, 0.560000002,        3.44,0.0115999999
        3.46, 0.639999986,        3.46,      0.0126
        3.48, 0.800000012,        3.48,      0.0104
         3.5, 0.920000017,         3.5,0.0121999998
        3.52, 0.959999979,        3.52,0.0127999997
        3.54,  1.20000005,        3.54,0.00960000046
        3.56,  1.27999997,        3.56,0.0105999997
        3.58,  1.36000001,        3.58,0.0114000002
         3.6,  1.48000002,         3.6,0.00719999988
        3.62,  1.55999994,        3.62,0.00800000038
        3.64,  1.60000002,        3.64,0.00879999995
        3.66,  1.72000003,        3.66,0.00960000046
        3.68,  1.84000003,        3.68,0.00980000012
         3.7,  1.91999996,         3.7,0.0092000002
        3.72,           2,        3.72,0.00879999995
        3.74,           2,        3.74,0.00860000029
        3.76,  2.03999996,        3.76,0.00779999979
        3.78,           2,        3.78,0.0092000002
         3.8,  2.03999996,         3.8,0.00939999986
        3.82,  2.03999996,        3.82,0.00680000009
        3.84,  2.03999996,        3.84,0.00760000013
        3.86,  2.03999996,        3.86,0.00899999961
        3.88,           2,        3.88,0.00960000046
         3.9,           2,         3.9,0.0092000002
        3.92,  1.96000004,        3.92,0.00820000004
        3.94,           2,        3.94,0.00700000022
        3.96,  1.96000004,        3.96,0.00800000038
        3.98,  1.96000004,        3.98,0.00800000038
           4,  1.96000004,           4,0.00800000038
        4.02,  1.84000003,        4.02,0.00779999979
        4.04,  1.75999999,        4.04,0.00760000013
        4.06,  1.75999999,        4.06,0.0102000004
        4.08,  1.67999995,        4.08,0.0102000004
         4.1,  1.60000002,         4.1,0.00760000013
        4.12,  1.48000002,        4.12,0.00899999961
        4.14,  1.44000006,        4.14,0.0055999998
        4.16,  1.32000005,        4.16,0.0124000004
        4.18,  1.27999997,        4.18,      0.0104
         4.2,  1.24000001,         4.2,0.0108000003
        4.22,  1.20000005,        4.22,0.0105999997
        4.24,  1.08000004,        4.24,      0.0074
        4.26,  1.03999996,        4.26,0.0115999999
        4.28, 0.879999995,        4.28,0.0115999999
         4.3, 0.839999974,         4.3,0.0111999996
        4.32, 0.800000012,        4.32,0.0120000001
        4.34, 0.639999986,        4.34,0.0105999997
        4.36, 0.479999989,        4.36,0.0115999999
        4.38, 0.400000006,        4.38,0.0118000004
         4.4, 0.280000001,         4.4,0.0140000004
        4.42, 0.239999995,        4.42,0.0149999997
        4.44,0.0399999991,        4.44,0.0120000001
        4.46,-0.0799999982,        4.46,0.0115999999
        4.48,-0.0799999982,        4.48,      0.0126
         4.5,-0.0399999991,         4.5,0.0133999996
        4.52,-0.0799999982,        4.52,0.0136000002
        4.54,-0.0399999991,        4.54,0.0130000003
        4.56,-0.0399999991,        4.56,0.0115999999
        4.58,-0.0799999982,        4.58,      0.0126
         4.6,-0.0799999982,         4.6,0.0121999998
        4.62,-0.0799999982,        4.62,0.0136000002
        4.64,-0.0799999982,        4.64,0.0127999997
        4.66,-0.119999997,        4.66,      0.0126
        4.68,-0.119999997,        4.68,0.0124000004
         4.7,-0.0799999982,         4.7,0.0136000002
        4.72,0.0399999991,        4.72,0.0136000002
        4.74, 0.280000001,        4.74,0.0131999999
        4.76, 0.319999993,        4.76,0.00999999978
        4.78, 0.360000014,        4.78,0.0136000002
         4.8, 0.519999981,         4.8,0.0105999997
        4.82, 0.519999981,        4.82,0.0143999998
        4.84, 0.600000024,        4.84,0.0115999999
        4.86, 0.800000012,        4.86,0.00980000012
        4.88, 0.839999974,        4.88,0.0121999998
         4.9, 0.879999995,         4.9,0.0124000004
        4.92, 0.920000017,        4.92,0.0124000004
        4.94,           1,        4.94,0.0108000003
        4.96,        1.12,        4.96,0.00999999978
        4.98,        1.12,        4.98,0.0118000004
           5,  1.24000001,           5,0.0114000002
        5.02,  1.27999997,        5.02,0.00800000038
        5.04,  1.36000001,        5.04,0.00860000029
        5.06,  1.48000002,        5.06,0.0109999999
        5.08,  1.48000002,        5.08,0.00999999978
         5.1,  1.55999994,         5.1,0.00980000012
        5.12,  1.67999995,        5.12,0.00939999986
        5.14,  1.67999995,        5.14,0.00860000029
        5.16,  1.75999999,        5.16,0.00939999986
        5.18,  1.79999995,        5.18,0.00960000046
         5.2,  1.84000003,         5.2,0.00960000046
        5.22,           2,        5.22,0.0102000004
        5.24,  2.03999996,        5.24,0.00939999986
        5.26,           2,        5.26,0.00899999961
        5.28,  2.03999996,        5.28,0.00820000004
         5.3,           2,         5.3,0.00719999988
        5.32,           2,        5.32,0.00999999978
        5.34,  2.03999996,        5.34,0.00960000046
        5.36,           2,        5.36,0.0083999997
        5.38,           2,        5.38,0.00779999979
         5.4,           2,         5.4,0.00800000038
        5.42,           2,        5.42,0.00800000038
        5.44,           2,        5.44,0.00820000004
        5.46,  1.96000004,        5.46,0.00860000029
        5.48,           2,        5.48,0.00659999996
         5.5,  1.96000004,         5.5,0.00800000038
        5.52,           2,        5.52,0.00860000029
        5.54,  1.96000004,        5.54,0.00960000046
        5.56,  1.96000004,        5.56,      0.0104
        5.58,  1.75999999,        5.58,0.00879999995
         5.6,  1.72000003,         5.6,0.0114000002
        5.62,  1.63999999,        5.62,0.00779999979
        5.64,  1.55999994,        5.64,0.00800000038
        5.66,  1.48000002,        5.66,      0.0104
        5.68,  1.39999998,        5.68,0.0092000002
         5.7,  1.32000005,         5.7,0.00960000046
        5.72,  1.24000001,        5.72,      0.0104
        5.74,  1.20000005,        5.74,0.0105999997
        5.76,  1.08000004,        5.76,0.00800000038
        5.78,           1,        5.78,0.00999999978
         5.8, 0.920000017,         5.8,0.00999999978
        5.82, 0.839999974,        5.82,      0.0104
        5.84, 0.639999986,        5.84,      0.0126
        5.86, 0.519999981,        5.86,0.00999999978
        5.88, 0.360000014,        5.88,0.0109999999
         5.9, 0.159999996,         5.9,0.0105999997
        5.92,0.0399999991,        5.92,0.0121999998
        5.94,-0.119999997,        5.94,0.0124000004
        5.96,-0.0399999991,        5.96,0.0120000001
        5.98,-0.119999997,        5.98,0.0105999997
           6,-0.119999997,           6,0.0124000004
        6.02,-0.159999996,        6.02,0.0118000004
        6.04,-0.159999996,        6.04,0.0124000004
        6.06,-0.119999997,        6.06,0.0118000004
        6.08,-0.159999996,        6.08,0.0108000003
         6.1,-0.119999997,         6.1,0.00999999978
        6.12,-0.159999996,        6.12,      0.0104
        6.14,-0.159999996,        6.14,0.0115999999
        6.16,-0.119999997,        6.16,0.0120000001
        6.18,-0.119999997,        6.18,0.0133999996
         6.2,-0.119999997,         6.2,0.0133999996
        6.22,-0.159999996,        6.22,0.0105999997
        6.24,-0.119999997,        6.24,      0.0126
        6.26,-0.0799999982,        6.26,0.0111999996
        6.28,-0.0399999991,        6.28,0.0124000004
         6.3,-0.0799999982,         6.3,0.0131999999
        6.32,-0.119999997,        6.32,0.0121999998
        6.34,0.0399999991,        6.34,0.0109999999
        6.36, 0.239999995,        6.36,0.0130000003
        6.38, 0.280000001,        6.38,0.0114000002
         6.4, 0.360000014,         6.4,0.0108000003
        6.42, 0.439999998,        6.42,0.0111999996
        6.44, 0.519999981,        6.44,0.0108000003
        6.46, 0.600000024,        6.46,0.00899999961
        6.48,  0.75999999,        6.48,0.0109999999
         6.5, 0.920000017,         6.5,0.0092000002
        6.52, 0.920000017,        6.52,0.0115999999
        6.54,  1.03999996,        6.54,0.00899999961
        6.56,  1.15999997,        6.56,0.0092000002
        6.58,  1.24000001,        6.58,0.0111999996
         6.6,  1.32000005,         6.6,0.00999999978
        6.62,  1.36000001,        6.62,0.00899999961
        6.64,  1.48000002,        6.64,0.0114000002
        6.66,  1.51999998,        6.66,0.00879999995
        6.68,  1.60000002,        6.68,0.0105999997
         6.7,  1.63999999,         6.7,0.00939999986
        6.72,  1.72000003,        6.72,      0.0104
        6.74,  1.79999995,        6.74,0.0109999999
        6.76,  1.84000003,        6.76,0.00980000012
        6.78,           2,        6.78,0.00680000009
         6.8,           2,         6.8,0.00980000012
        6.82,           2,        6.82,0.0083999997
        6.84,  2.03999996,        6.84,0.00820000004
        6.86,  2.03999996,        6.86,0.00760000013
        6.88,  2.03999996,        6.88,0.0092000002
         6.9,           2,         6.9,0.00760000013
        6.92,  2.03999996,        6.92,      0.0104
        6.94,           2,        6.94,0.00980000012
        6.96,  2.03999996,        6.96,0.0102000004
        6.98,  2.03999996,        6.98,0.00680000009
           7,  2.03999996,           7,0.00700000022
        7.02,           2,        7.02,0.00879999995
        7.04,           2,        7.04,0.00960000046
        7.06,  1.96000004,        7.06,0.0083999997
        7.08,  1.96000004,        7.08,0.00999999978
         7.1,  1.91999996,         7.1,0.00800000038
        7.12,  1.96000004,        7.12,0.00879999995
        7.14,  1.91999996,        7.14,0.00800000038
        7.16,  1.84000003,        7.16,0.00820000004
        7.18,  1.75999999,        7.18,0.0102000004
         7.2,  1.72000003,         7.2,0.00939999986
        7.22,  1.63999999,        7.22,0.00820000004
        7.24,  1.55999994,        7.24,0.0092000002
        7.26,  1.51999998,        7.26,0.0105999997
        7.28,  1.39999998,        7.28,0.00879999995
         7.3,  1.32000005,         7.3,0.0115999999
        7.32,  1.27999997,        7.32,0.00860000029
        7.34,  1.15999997,        7.34,0.00939999986
        7.36,  1.08000004,        7.36,0.0108000003
        7.38, 0.920000017,        7.38,0.00719999988
         7.4, 0.879999995,         7.4,0.0109999999
        7.42, 0.839999974,        7.42,0.00980000012
        7.44, 0.639999986,        7.44,0.00820000004
        7.46, 0.439999998,        7.46,0.00999999978
        7.48, 0.360000014,        7.48,0.0127999997
         7.5, 0.200000003,         7.5,0.0114000002
        7.52,-0.0399999991,        7.52,0.0111999996
        7.54,-0.0399999991,        7.54,0.0121999998
        7.56,-0.159999996,        7.56,0.0114000002
        7.58,-0.119999997,        7.58,      0.0126
         7.6,-0.119999997,         7.6,      0.0104
        7.62,-0.119999997,        7.62,0.0130000003
        7.64,-0.119999997,        7.64,0.0118000004
        7.66,-0.159999996,        7.66,0.0121999998
        7.68,-0.159999996,        7.68,0.0131999999
         7.7,-0.119999997,         7.7,0.0115999999
        7.72,-0.119999997,        7.72,0.0137999998
        7.74,-0.159999996,        7.74,0.0130000003
        7.76,-0.119999997,        7.76,0.0120000001
        7.78,-0.119999997,        7.78,0.0111999996
         7.8,-0.119999997,         7.8,0.0121999998
        7.82,-0.0799999982,        7.82,0.0131999999
        7.84,-0.0799999982,        7.84,0.0137999998
        7.86,-0.0799999982,        7.86,0.0130000003
        7.88,-0.0799999982,        7.88,0.0137999998
         7.9,-0.119999997,         7.9,0.0121999998
        7.92,0.0399999991,        7.92,0.0124000004
        7.94, 0.239999995,        7.94,0.0137999998
        7.96, 0.319999993,        7.96,0.0124000004
        7.98, 0.400000006,        7.98,0.0137999998
           8, 0.519999981,           8,0.00899999961
        8.02, 0.639999986,        8.02,      0.0126
        8.04, 0.800000012,        8.04,0.00960000046
        8.06, 0.879999995,        8.06,0.00820000004
        8.08, 0.920000017,        8.08,0.00899999961
         8.1,  1.15999997,         8.1,0.00700000022
        8.12,  1.24000001,        8.12,0.0105999997
        8.14,  1.32000005,        8.14,0.00999999978
        8.16,  1.39999998,        8.16,0.00960000046
        8.18,  1.55999994,        8.18,0.00980000012
         8.2,  1.63999999,         8.2,0.0102000004
        8.22,  1.72000003,        8.22,0.0083999997
        8.24,  1.75999999,        8.24,0.0083999997
        8.26,        1.88,        8.26,0.00779999979
        8.28,  1.96000004,        8.28,0.00779999979
         8.3,  1.96000004,         8.3,0.00719999988
        8.32,  2.03999996,        8.32,0.0083999997
        8.34,           2,        8.34,0.00800000038
        8.36,  2.03999996,        8.36,0.00620000018
        8.38,  2.03999996,        8.38,0.00939999986
         8.4,  2.11999989,         8.4,0.00879999995
        8.42,  2.07999992,        8.42,0.00879999995
        8.44,  2.07999992,        8.44,0.00960000046
        8.46,  2.07999992,        8.46,0.00860000029
        8.48,  2.11999989,        8.48,0.00879999995
         8.5,  2.07999992,         8.5,      0.0104
        8.52,  2.11999989,        8.52,0.00860000029
        8.54,  2.16000009,        8.54,0.00820000004
        8.56,  2.11999989,        8.56,0.00499999989
        8.58,  2.20000005,        8.58,0.00680000009
         8.6,  2.20000005,         8.6,0.00879999995
        8.62,  2.20000005,        8.62,0.0092000002
        8.64,  2.24000001,        8.64,0.00879999995
        8.66,  2.24000001,        8.66,0.00960000046
        8.68,  2.24000001,        8.68,0.00620000018
         8.7,  2.27999997,         8.7,0.00899999961
        8.72,  2.27999997,        8.72,0.00980000012
        8.74,  2.24000001,        8.74,0.00820000004
        8.76,  2.24000001,        8.76,0.00760000013
        8.78,  2.27999997,        8.78,0.00700000022
         8.8,  2.24000001,         8.8,0.00860000029
        8.82,  2.27999997,        8.82,0.00899999961
        8.84,  2.24000001,        8.84,0.00659999996
        8.86,  2.24000001,        8.86,0.00600000005
        8.88,  2.27999997,        8.88,0.0083999997
         8.9,  2.27999997,         8.9,0.00680000009
        8.92,  2.27999997,        8.92,0.00719999988
        8.94,  2.24000001,        8.94,0.00879999995
        8.96,  2.24000001,        8.96,0.00719999988
        8.98,  2.24000001,        8.98,0.00760000013
           9,  2.24000001,           9,0.0092000002
        9.02,  2.20000005,        9.02,0.00620000018
        9.04,  2.20000005,        9.04,0.00620000018
        9.06,  2.24000001,        9.06,0.00800000038
        9.08,  2.24000001,        9.08,0.00680000009
         9.1,  2.24000001,         9.1,0.00800000038
        9.12,  2.24000001,        9.12,0.00860000029
        9.14,  2.20000005,        9.14,0.00620000018
        9.16,  2.20000005,        9.16,0.00879999995
        9.18,  2.11999989,        9.18,0.00659999996
         9.2,  2.16000009,         9.2,0.00820000004
        9.22,  2.11999989,        9.22,0.00899999961
        9.24,  2.11999989,        9.24,0.00779999979
        9.26,  2.11999989,        9.26,0.00680000009
        9.28,  2.11999989,        9.28,0.00820000004
         9.3,  2.11999989,         9.3,0.00680000009
        9.32,  2.07999992,        9.32,0.00879999995
        9.34,  2.07999992,        9.34,0.00760000013
        9.36,  2.03999996,        9.36,0.00680000009
        9.38,  2.07999992,        9.38,0.0109999999
         9.4,           2,         9.4,0.00719999988
        9.42,           2,        9.42,0.00659999996
        9.44,           2,        9.44,0.00860000029
        9.46,  1.96000004,        9.46,0.00899999961
        9.48,  1.91999996,        9.48,0.00820000004
         9.5,  1.91999996,         9.5,      0.0074
        9.52,  1.91999996,        9.52,0.0083999997
        9.54,  1.91999996,        9.54,0.0105999997
        9.56,  1.79999995,        9.56,0.00760000013
        9.58,  1.75999999,        9.58,0.00779999979
         9.6,  1.67999995,         9.6,0.00760000013
        9.62,  1.63999999,        9.62,0.00939999986
        9.64,  1.55999994,        9.64,0.00700000022
        9.66,  1.48000002,        9.66,0.00899999961
        9.68,  1.36000001,        9.68,0.0092000002
         9.7,  1.39999998,         9.7,0.00800000038
        9.72,  1.27999997,        9.72,0.0115999999
        9.74,  1.15999997,        9.74,0.00800000038
        9.76,        1.12,        9.76,0.0105999997
        9.78,  1.08000004,        9.78,0.00760000013
         9.8,  1.03999996,         9.8,0.00879999995
        9.82, 0.879999995,        9.82,0.0109999999
        9.84, 0.800000012,        9.84,0.0130000003
        9.86, 0.800000012,        9.86,0.0115999999
        9.88, 0.720000029,        9.88,0.00960000046
         9.9, 0.560000002,         9.9,      0.0104
        9.92, 0.479999989,        9.92,0.0120000001
        9.94, 0.360000014,        9.94,0.0114000002
        9.96, 0.319999993,        9.96,      0.0148
        9.98, 0.239999995,        9.98,0.0121999998