s,Volts,s,Volts
        -2.5,  1.41999996,        -2.5,0.0092000002
      -2.495,  1.41999996,      -2.495,0.0083999997
       -2.49,  1.41999996,       -2.49,0.0083999997
      -2.485,  1.41999996,      -2.485,0.0111999996
       -2.48,  1.41999996,       -2.48,0.00800000038
      -2.475,  1.41999996,      -2.475,0.00960000046
       -2.47,  1.41999996,       -2.47,0.00600000005
      -2.465,  1.39999998,      -2.465,0.0083999997
       -2.46,  1.39999998,       -2.46,0.00960000046
      -2.455,  1.39999998,      -2.455,0.0055999998
       -2.45,  1.41999996,       -2.45,0.00760000013
      -2.445,  1.41999996,      -2.445,0.0055999998
       -2.44,  1.39999998,       -2.44,0.0092000002
      -2.435,  1.41999996,      -2.435,0.00999999978
       -2.43,  1.41999996,       -2.43,0.0092000002
      -2.425,  1.41999996,      -2.425,0.00520000001
       -2.42,  1.41999996,       -2.42,0.0092000002
      -2.415,  1.41999996,      -2.415,0.00960000046
       -2.41,  1.44000006,       -2.41,0.00960000046
      -2.405,  1.39999998,      -2.405,      0.0104
        -2.4,  1.41999996,        -2.4,0.0111999996
      -2.395,  1.41999996,      -2.395,0.00800000038
       -2.39,  1.41999996,       -2.39,      0.0104
      -2.385,  1.44000006,      -2.385,0.00760000013
       -2.38,  1.41999996,       -2.38,0.00879999995
      -2.375,  1.39999998,      -2.375,0.0083999997
       -2.37,  1.41999996,       -2.37,0.00760000013
      -2.365,  1.41999996,      -2.365,0.0083999997
       -2.36,  1.41999996,       -2.36,0.0083999997
      -2.355,  1.41999996,      -2.355,0.0083999997
       -2.35,  1.41999996,       -2.35,0.00800000038
      -2.345,  1.41999996,      -2.345,0.00680000009
       -2.34,  1.41999996,       -2.34,0.00800000038
      -2.335,  1.41999996,      -2.335,0.0092000002
       -2.33,  1.41999996,       -2.33,0.00879999995
      -2.325,  1.44000006,      -2.325,0.00879999995
       -2.32,  1.41999996,       -2.32,0.00600000005
      -2.315,  1.41999996,      -2.315,0.0083999997
       -2.31,  1.41999996,       -2.31,0.0083999997
      -2.305,  1.39999998,      -2.305,0.00719999988
        -2.3,  1.41999996,        -2.3,0.00800000038
      -2.295,  1.39999998,      -2.295,0.00999999978
       -2.29,  1.41999996,       -2.29,0.00760000013
      -2.285,  1.41999996,      -2.285,0.00800000038
       -2.28,  1.41999996,       -2.28,0.00719999988
      -2.275,  1.41999996,      -2.275,0.00879999995
       -2.27,  1.41999996,       -2.27,0.00800000038
      -2.265,  1.41999996,      -2.265,0.0083999997
       -2.26,  1.41999996,       -2.26,0.00800000038
      -2.255,  1.41999996,      -2.255,0.00800000038
       -2.25,  1.41999996,       -2.25,0.00879999995
      -2.245,  1.41999996,      -2.245,0.00960000046
       -2.24,  1.44000006,       -2.24,0.00639999984
      -2.235,  1.41999996,      -2.235,0.00719999988
       -2.23,  1.41999996,       -2.23,0.0083999997
      -2.225,  1.41999996,      -2.225,0.00800000038
       -2.22,  1.41999996,       -2.22,0.00680000009
      -2.215,  1.41999996,      -2.215,0.00680000009
       -2.21,  1.41999996,       -2.21,0.00639999984
      -2.205,  1.41999996,      -2.205,0.00760000013
        -2.2,  1.41999996,        -2.2,0.00760000013
      -2.195,  1.41999996,      -2.195,0.0092000002
       -2.19,  1.41999996,       -2.19,0.0092000002
      -2.185,  1.41999996,      -2.185,0.00719999988
       -2.18,  1.41999996,       -2.18,0.00719999988
      -2.175,  1.41999996,      -2.175,0.00760000013
       -2.17,  1.41999996,       -2.17,0.0092000002
      -2.165,  1.41999996,      -2.165,0.0092000002
       -2.16,  1.44000006,       -2.16,0.0083999997
      -2.155,  1.39999998,      -2.155,0.0092000002
       -2.15,  1.41999996,       -2.15,0.00800000038
      -2.145,  1.41999996,      -2.145,0.0092000002
       -2.14,  1.41999996,       -2.14,0.00680000009
      -2.135,  1.44000006,      -2.135,0.00680000009
       -2.13,  1.41999996,       -2.13,0.00879999995
      -2.125,  1.41999996,      -2.125,0.00760000013
       -2.12,  1.41999996,       -2.12,0.0083999997
      -2.115,  1.41999996,      -2.115,0.00639999984
       -2.11,  1.44000006,       -2.11,0.00960000046
      -2.105,  1.44000006,      -2.105,0.00999999978
        -2.1,  1.41999996,        -2.1,0.00800000038
      -2.095,  1.44000006,      -2.095,0.00719999988
       -2.09,  1.44000006,       -2.09,0.00800000038
      -2.085,  1.44000006,      -2.085,0.00760000013
       -2.08,  1.39999998,       -2.08,0.0152000003
      -2.075,  1.41999996,      -2.075,0.00600000005
       -2.07,  1.44000006,       -2.07,0.0083999997
      -2.065,  1.41999996,      -2.065,0.0092000002
       -2.06,  1.41999996,       -2.06,0.00639999984
      -2.055,  1.41999996,      -2.055,0.0083999997
       -2.05,  1.41999996,       -2.05,0.00800000038
      -2.045,  1.41999996,      -2.045,0.00719999988
       -2.04,  1.41999996,       -2.04,0.00719999988
      -2.035,  1.41999996,      -2.035,0.0092000002
       -2.03,  1.44000006,       -2.03,0.00800000038
      -2.025,  1.41999996,      -2.025,0.0083999997
       -2.02,  1.44000006,       -2.02,0.0083999997
      -2.015,  1.41999996,      -2.015,0.00680000009
       -2.01,  1.41999996,       -2.01,0.00719999988
      -2.005,  1.46000004,      -2.005,0.00960000046
          -2,  1.41999996,          -2,0.00879999995
      -1.995,  1.41999996,      -1.995,0.00879999995
       -1.99,  1.44000006,       -1.99,0.00760000013
      -1.985,  1.44000006,      -1.985,0.0083999997
       -1.98,  1.41999996,       -1.98,0.00680000009
      -1.975,  1.44000006,      -1.975,0.00999999978
       -1.97,  1.44000006,       -1.97,0.00760000013
      -1.965,  1.39999998,      -1.965,0.00800000038
       -1.96,  1.44000006,       -1.96,0.00760000013
      -1.955,  1.41999996,      -1.955,0.00680000009
       -1.95,  1.41999996,       -1.95,0.00639999984
      -1.945,  1.41999996,      -1.945,0.00800000038
       -1.94,  1.44000006,       -1.94,0.0111999996
      -1.935,  1.41999996,      -1.935,0.00760000013
       -1.93,  1.41999996,       -1.93,0.00719999988
      -1.925,  1.44000006,      -1.925,0.00719999988
       -1.92,  1.41999996,       -1.92,0.00960000046
      -1.915,  1.39999998,      -1.915,0.00680000009
       -1.91,  1.41999996,       -1.91,0.00760000013
      -1.905,  1.41999996,      -1.905,      0.0104
        -1.9,  1.41999996,        -1.9,0.00600000005
      -1.895,  1.41999996,      -1.895,0.00680000009
       -1.89,  1.41999996,       -1.89,0.00719999988
      -1.885,  1.39999998,      -1.885,0.00480000023
       -1.88,  1.44000006,       -1.88,0.00879999995
      -1.875,  1.44000006,      -1.875,0.00719999988
       -1.87,  1.41999996,       -1.87,0.0092000002
      -1.865,  1.41999996,      -1.865,0.0083999997
       -1.86,  1.44000006,       -1.86,0.00760000013
      -1.855,  1.41999996,      -1.855,0.00879999995
       -1.85,  1.41999996,       -1.85,0.00760000013
      -1.845,  1.41999996,      -1.845,0.0083999997
       -1.84,  1.44000006,       -1.84,0.00680000009
      -1.835,  1.41999996,      -1.835,0.00800000038
       -1.83,  1.41999996,       -1.83,0.0083999997
      -1.825,  1.41999996,      -1.825,0.00639999984
       -1.82,  1.41999996,       -1.82,0.00800000038
      -1.815,  1.44000006,      -1.815,0.0092000002
       -1.81,  1.44000006,       -1.81,0.00800000038
      -1.805,  1.39999998,      -1.805,0.00960000046
        -1.8,  1.41999996,        -1.8,0.0228000004
      -1.795,  1.41999996,      -1.795,0.0083999997
       -1.79,  1.41999996,       -1.79,0.0092000002
      -1.785,  1.39999998,      -1.785,0.00760000013
       -1.78,  1.39999998,       -1.78,0.00999999978
      -1.775,  1.41999996,      -1.775,0.00800000038
       -1.77,  1.41999996,       -1.77,0.00760000013
      -1.765,        1.38,      -1.765,0.00480000023
       -1.76,  1.44000006,       -1.76,0.0083999997
      -1.755,  1.41999996,      -1.755,      0.0104
       -1.75,  1.41999996,       -1.75,0.0083999997
      -1.745,  1.41999996,      -1.745,0.00760000013
       -1.74,  1.41999996,       -1.74,0.0120000001
      -1.735,  1.39999998,      -1.735,0.00879999995
       -1.73,  1.41999996,       -1.73,0.00879999995
      -1.725,  1.41999996,      -1.725,0.0083999997
       -1.72,  1.41999996,       -1.72,0.00879999995
      -1.715,  1.39999998,      -1.715,0.00960000046
       -1.71,  1.41999996,       -1.71,0.00879999995
      -1.705,  1.41999996,      -1.705,0.00800000038
        -1.7,  1.41999996,        -1.7,0.00879999995
      -1.695,  1.39999998,      -1.695,0.00760000013
       -1.69,  1.39999998,       -1.69,0.0092000002
      -1.685,  1.41999996,      -1.685,0.0092000002
       -1.68,  1.39999998,       -1.68,0.0092000002
      -1.675,  1.39999998,      -1.675,      0.0104
       -1.67,  1.41999996,       -1.67,0.00680000009
      -1.665,  1.41999996,      -1.665,      0.0104
       -1.66,  1.39999998,       -1.66,0.0111999996
      -1.655,  1.44000006,      -1.655,0.00639999984
       -1.65,  1.41999996,       -1.65,0.0108000003
      -1.645,  1.41999996,      -1.645,0.00960000046
       -1.64,  1.39999998,       -1.64,0.00879999995
      -1.635,  1.39999998,      -1.635,      0.0104
       -1.63,  1.41999996,       -1.63,      0.0104
      -1.625,  1.39999998,      -1.625,      0.0104
       -1.62,  1.39999998,       -1.62,      0.0104
      -1.615,  1.41999996,      -1.615,0.0115999999
       -1.61,  1.39999998,       -1.61,0.0124000004
      -1.605,  1.39999998,      -1.605,      0.0104
        -1.6,  1.39999998,        -1.6,0.0108000003
      -1.595,  1.39999998,      -1.595,0.0092000002
       -1.59,  1.39999998,       -1.59,0.0108000003
      -1.585,        1.38,      -1.585,0.0092000002
       -1.58,  1.39999998,       -1.58,0.00960000046
      -1.575,  1.39999998,      -1.575,0.0108000003
       -1.57,  1.39999998,       -1.57,0.0111999996
      -1.565,  1.39999998,      -1.565,0.0111999996
       -1.56,  1.39999998,       -1.56,0.0111999996
      -1.555,        1.38,      -1.555,0.0111999996
       -1.55,  1.39999998,       -1.55,0.0115999999
      -1.545,        1.38,      -1.545,0.00879999995
       -1.54,  1.39999998,       -1.54,0.0108000003
      -1.535,  1.39999998,      -1.535,0.00999999978
       -1.53,  1.41999996,       -1.53,0.0192000009
      -1.525,        1.38,      -1.525,0.0136000002
       -1.52,  1.39999998,       -1.52,0.0115999999
      -1.515,        1.38,      -1.515,0.0115999999
       -1.51,  1.39999998,       -1.51,      0.0104
      -1.505,        1.38,      -1.505,0.0092000002
        -1.5,  1.39999998,        -1.5,0.00999999978
      -1.495,  1.39999998,      -1.495,0.0115999999
       -1.49,  1.39999998,       -1.49,0.0115999999
      -1.485,  1.39999998,      -1.485,0.0136000002
       -1.48,        1.38,       -1.48,0.00960000046
      -1.475,  1.39999998,      -1.475,0.0124000004
       -1.47,  1.39999998,       -1.47,0.0124000004
      -1.465,  1.39999998,      -1.465,0.0120000001
       -1.46,  1.39999998,       -1.46,0.0124000004
      -1.455,        1.38,      -1.455,0.0124000004
       -1.45,        1.38,       -1.45,0.0115999999
      -1.445,        1.38,      -1.445,0.0124000004
       -1.44,        1.38,       -1.44,0.0108000003
      -1.435,        1.38,      -1.435,      0.0104
       -1.43,  1.39999998,       -1.43,0.0124000004
      -1.425,  1.39999998,      -1.425,0.0131999999
       -1.42,  1.39999998,       -1.42,0.0127999997
      -1.415,        1.38,      -1.415,0.0111999996
       -1.41,        1.38,       -1.41,0.00960000046
      -1.405,        1.38,      -1.405,0.0127999997
        -1.4,        1.38,        -1.4,0.0131999999
      -1.395,  1.41999996,      -1.395,0.0223999992
       -1.39,        1.38,       -1.39,0.0127999997
      -1.385,        1.38,      -1.385,0.0140000004
       -1.38,        1.38,       -1.38,0.0140000004
      -1.375,        1.38,      -1.375,0.0131999999
       -1.37,        1.38,       -1.37,0.0131999999
      -1.365,  1.36000001,      -1.365,0.0127999997
       -1.36,        1.38,       -1.36,0.0131999999
      -1.355,  1.36000001,      -1.355,0.0136000002
       -1.35,  1.36000001,       -1.35,0.0140000004
      -1.345,  1.36000001,      -1.345,      0.0104
       -1.34,        1.38,       -1.34,0.0131999999
      -1.335,  1.36000001,      -1.335,0.0120000001
       -1.33,        1.38,       -1.33,0.0140000004
      -1.325,        1.38,      -1.325,0.0175999999
       -1.32,        1.38,       -1.32,0.0136000002
      -1.315,  1.36000001,      -1.315,0.0108000003
       -1.31,  1.36000001,       -1.31,0.0115999999
      -1.305,  1.36000001,      -1.305,0.0152000003
        -1.3,        1.38,        -1.3,0.0140000004
      -1.295,  1.36000001,      -1.295,0.0131999999
       -1.29,        1.38,       -1.29,0.0140000004
      -1.285,        1.38,      -1.285,0.0160000008
       -1.28,  1.36000001,       -1.28,0.0155999996
      -1.275,        1.38,      -1.275,0.0152000003
       -1.27,  1.36000001,       -1.27,0.0131999999
      -1.265,  1.34000003,      -1.265,0.0152000003
       -1.26,  1.36000001,       -1.26,0.0131999999
      -1.255,  1.34000003,      -1.255,0.0136000002
       -1.25,  1.36000001,       -1.25,0.0152000003
      -1.245,  1.36000001,      -1.245,0.0152000003
       -1.24,        1.38,       -1.24,0.0152000003
      -1.235,  1.36000001,      -1.235,0.0140000004
       -1.23,  1.36000001,       -1.23,      0.0148
      -1.225,  1.34000003,      -1.225,      0.0148
       -1.22,        1.38,       -1.22,0.0155999996
      -1.215,  1.36000001,      -1.215,0.0155999996
       -1.21,  1.36000001,       -1.21,      0.0148
      -1.205,  1.34000003,      -1.205,0.0143999998
        -1.2,  1.34000003,        -1.2,0.0155999996
      -1.195,  1.36000001,      -1.195,0.0140000004
       -1.19,  1.34000003,       -1.19,0.0152000003
      -1.185,  1.34000003,      -1.185,      0.0148
       -1.18,  1.36000001,       -1.18,0.0164000001
      -1.175,  1.34000003,      -1.175,0.0167999994
       -1.17,  1.36000001,       -1.17,0.0143999998
      -1.165,  1.34000003,      -1.165,0.0160000008
       -1.16,  1.34000003,       -1.16,0.0152000003
      -1.155,  1.34000003,      -1.155,0.0184000004
       -1.15,  1.34000003,       -1.15,0.0152000003
      -1.145,  1.34000003,      -1.145,0.0164000001
       -1.14,  1.34000003,       -1.14,0.0143999998
      -1.135,  1.36000001,      -1.135,0.0164000001
       -1.13,  1.36000001,       -1.13,0.0152000003
      -1.125,  1.34000003,      -1.125,0.0164000001
       -1.12,  1.34000003,       -1.12,0.0152000003
      -1.115,  1.32000005,      -1.115,0.0175999999
       -1.11,  1.34000003,       -1.11,0.0172000006
      -1.105,  1.32000005,      -1.105,0.0160000008
        -1.1,  1.34000003,        -1.1,0.0175999999
      -1.095,  1.32000005,      -1.095,0.0152000003
       -1.09,  1.32000005,       -1.09,0.0179999992
      -1.085,  1.32000005,      -1.085,0.0160000008
       -1.08,  1.34000003,       -1.08,0.0152000003
      -1.075,  1.32000005,      -1.075,0.0196000002
       -1.07,  1.34000003,       -1.07,0.0175999999
      -1.065,  1.32000005,      -1.065,0.0164000001
       -1.06,  1.34000003,       -1.06,0.0192000009
      -1.055,  1.32000005,      -1.055,0.0172000006
       -1.05,  1.32000005,       -1.05,0.0167999994
      -1.045,  1.29999995,      -1.045,0.0175999999
       -1.04,  1.32000005,       -1.04,0.0167999994
      -1.035,  1.32000005,      -1.035,0.0204000007
       -1.03,  1.29999995,       -1.03,0.0175999999
      -1.025,  1.29999995,      -1.025,      0.0148
       -1.02,  1.32000005,       -1.02,0.0164000001
      -1.015,  1.32000005,      -1.015,0.0204000007
       -1.01,  1.29999995,       -1.01,0.0184000004
      -1.005,  1.29999995,      -1.005,0.0175999999
          -1,  1.32000005,          -1,0.0204000007
      -0.995,  1.29999995,      -0.995,0.0199999996
       -0.99,  1.32000005,       -0.99,0.0196000002
      -0.985,  1.29999995,      -0.985,0.0140000004
       -0.98,  1.29999995,       -0.98,0.0204000007
      -0.975,  1.29999995,      -0.975,0.0196000002
       -0.97,  1.29999995,       -0.97,0.0196000002
      -0.965,  1.29999995,      -0.965,0.0204000007
       -0.96,  1.27999997,       -0.96,0.0204000007
      -0.955,  1.25999999,      -0.955,0.0160000008
       -0.95,  1.27999997,       -0.95,0.0199999996
      -0.945,  1.27999997,      -0.945,0.0204000007
       -0.94,  1.29999995,       -0.94,0.0204000007
      -0.935,  1.25999999,      -0.935,0.0204000007
       -0.93,  1.27999997,       -0.93,0.0199999996
      -0.925,  1.29999995,      -0.925,0.0216000006
       -0.92,  1.27999997,       -0.92,0.0208000001
      -0.915,  1.25999999,      -0.915,0.0196000002
       -0.91,  1.27999997,       -0.91,0.0211999994
      -0.905,  1.27999997,      -0.905,0.0192000009
        -0.9,  1.27999997,        -0.9,0.0216000006
      -0.895,  1.25999999,      -0.895,0.0199999996
       -0.89,  1.27999997,       -0.89,0.0204000007
      -0.885,  1.25999999,      -0.885,0.0204000007
       -0.88,  1.25999999,       -0.88,0.0204000007
      -0.875,  1.25999999,      -0.875,0.0204000007
       -0.87,  1.25999999,       -0.87,0.0208000001
      -0.865,  1.25999999,      -0.865,0.0199999996
       -0.86,  1.24000001,       -0.86,0.0204000007
      -0.855,  1.24000001,      -0.855,0.0219999999
       -0.85,  1.24000001,       -0.85,0.0223999992
      -0.845,  1.24000001,      -0.845,0.0208000001
       -0.84,  1.24000001,       -0.84,0.0208000001
      -0.835,  1.24000001,      -0.835,0.0236000009
       -0.83,  1.22000003,       -0.83,0.0228000004
      -0.825,  1.22000003,      -0.825,0.0236000009
       -0.82,  1.22000003,       -0.82,0.0223999992
      -0.815,  1.20000005,      -0.815,0.0231999997
       -0.81,  1.22000003,       -0.81,0.0240000002
      -0.805,  1.20000005,      -0.805,0.0228000004
        -0.8,  1.20000005,        -0.8,0.0236000009
      -0.795,  1.17999995,      -0.795,0.0231999997
       -0.79,  1.20000005,       -0.79,0.0260000005
      -0.785,  1.17999995,      -0.785,0.0243999995
       -0.78,  1.17999995,       -0.78,0.0248000007
      -0.775,  1.15999997,      -0.775,0.0231999997
       -0.77,  1.15999997,       -0.77,0.0223999992
      -0.765,  1.13999999,      -0.765,0.0287999995
       -0.76,  1.15999997,       -0.76,0.0231999997
      -0.755,  1.13999999,      -0.755,      0.0252
       -0.75,  1.13999999,       -0.75,0.0267999992
      -0.745,  1.13999999,      -0.745,0.0255999994
       -0.74,        1.12,       -0.74,0.0236000009
      -0.735,        1.12,      -0.735,      0.0252
       -0.73,  1.10000002,       -0.73,0.0263999999
      -0.725,  1.08000004,      -0.725,0.0263999999
       -0.72,  1.08000004,       -0.72,0.0255999994
      -0.715,  1.08000004,      -0.715,0.0267999992
       -0.71,  1.05999994,       -0.71,      0.0252
      -0.705,  1.03999996,      -0.705,0.0263999999
        -0.7,  1.03999996,        -0.7,0.0272000004
      -0.695,           1,      -0.695,0.0236000009
       -0.69,           1,       -0.69,      0.0252
      -0.685, 0.980000019,      -0.685,0.0275999997
       -0.68, 0.980000019,       -0.68,0.0260000005
      -0.675, 0.959999979,      -0.675,0.0243999995
       -0.67, 0.959999979,       -0.67,0.0260000005
      -0.665, 0.939999998,      -0.665,0.0272000004
       -0.66, 0.939999998,       -0.66,0.0223999992
      -0.655, 0.899999976,      -0.655,0.0263999999
       -0.65, 0.899999976,       -0.65,0.0272000004
      -0.645, 0.860000014,      -0.645,      0.0252
       -0.64, 0.879999995,       -0.64,0.0260000005
      -0.635, 0.839999974,      -0.635,0.0260000005
       -0.63, 0.839999974,       -0.63,0.0267999992
      -0.625, 0.819999993,      -0.625,0.0292000007
       -0.62, 0.800000012,       -0.62,      0.0252
      -0.615, 0.819999993,      -0.615,0.0284000002
       -0.61,  0.75999999,       -0.61,0.0272000004
      -0.605,  0.74000001,      -0.605,0.0272000004
        -0.6,  0.75999999,        -0.6,0.0263999999
      -0.595, 0.720000029,      -0.595,0.0248000007
       -0.59, 0.699999988,       -0.59,0.0260000005
      -0.585, 0.680000007,      -0.585,0.0240000002
       -0.58, 0.639999986,       -0.58,0.0267999992
      -0.575, 0.620000005,      -0.575,0.0272000004
       -0.57, 0.620000005,       -0.57,0.0272000004
      -0.565, 0.560000002,      -0.565,0.0223999992
       -0.56, 0.579999983,       -0.56,0.0272000004
      -0.555, 0.579999983,      -0.555,0.0263999999
       -0.55, 0.560000002,       -0.55,0.0267999992
      -0.545, 0.540000021,      -0.545,0.0272000004
       -0.54, 0.540000021,       -0.54,0.0260000005
      -0.535, 0.519999981,      -0.535,0.0260000005
       -0.53, 0.519999981,       -0.53,0.0260000005
      -0.525,         0.5,      -0.525,0.0275999997
       -0.52, 0.479999989,       -0.52,0.0275999997
      -0.515, 0.479999989,      -0.515,0.0267999992
       -0.51, 0.460000008,       -0.51,0.0260000005
      -0.505, 0.439999998,      -0.505,0.0248000007
        -0.5, 0.419999987,        -0.5,0.0275999997
      -0.495, 0.400000006,      -0.495,0.0272000004
       -0.49, 0.400000006,       -0.49,      0.0296
      -0.485, 0.400000006,      -0.485,0.0240000002
       -0.48, 0.379999995,       -0.48,0.0260000005
      -0.475, 0.400000006,      -0.475,0.0284000002
       -0.47, 0.360000014,       -0.47,0.0260000005
      -0.465, 0.360000014,      -0.465,0.0263999999
       -0.46, 0.360000014,       -0.46,0.0280000009
      -0.455, 0.340000004,      -0.455,      0.0296
       -0.45, 0.319999993,       -0.45,0.0292000007
      -0.445, 0.319999993,      -0.445,0.0275999997
       -0.44, 0.300000012,       -0.44,0.0280000009
      -0.435, 0.280000001,      -0.435,0.0260000005
       -0.43,  0.25999999,       -0.43,0.0280000009
      -0.425,  0.25999999,      -0.425,0.0260000005
       -0.42,  0.25999999,       -0.42,0.0280000009
      -0.415, 0.219999999,      -0.415,0.0243999995
       -0.41, 0.239999995,       -0.41,0.0267999992
      -0.405, 0.239999995,      -0.405,0.0260000005
        -0.4, 0.200000003,        -0.4,0.0263999999
      -0.395, 0.200000003,      -0.395,0.0272000004
       -0.39, 0.219999999,       -0.39,0.0280000009
      -0.385, 0.219999999,      -0.385,0.0287999995
       -0.38, 0.219999999,       -0.38,0.0255999994
      -0.375, 0.219999999,      -0.375,0.0255999994
       -0.37, 0.219999999,       -0.37,      0.0252
      -0.365, 0.200000003,      -0.365,0.0263999999
       -0.36, 0.200000003,       -0.36,0.0267999992
      -0.355, 0.219999999,      -0.355,0.0267999992
       -0.35, 0.200000003,       -0.35,0.0260000005
      -0.345, 0.200000003,      -0.345,0.0267999992
       -0.34, 0.200000003,       -0.34,0.0275999997
      -0.335, 0.200000003,      -0.335,0.0255999994
       -0.33, 0.200000003,       -0.33,0.0255999994
      -0.325, 0.200000003,      -0.325,0.0263999999
       -0.32, 0.219999999,       -0.32,0.0260000005
      -0.315, 0.219999999,      -0.315,0.0307999998
       -0.31, 0.219999999,       -0.31,0.0263999999
      -0.305, 0.219999999,      -0.305,0.0267999992
        -0.3, 0.219999999,        -0.3,0.0272000004
      -0.295, 0.219999999,      -0.295,0.0275999997
       -0.29, 0.219999999,       -0.29,0.0263999999
      -0.285, 0.219999999,      -0.285,0.0272000004
       -0.28, 0.239999995,       -0.28,0.0267999992
      -0.275,  0.25999999,      -0.275,      0.0296
       -0.27, 0.300000012,       -0.27,0.0280000009
      -0.265, 0.300000012,      -0.265,0.0260000005
       -0.26, 0.360000014,       -0.26,0.0267999992
      -0.255, 0.400000006,      -0.255,0.0272000004
       -0.25, 0.400000006,       -0.25,0.0275999997
      -0.245, 0.419999987,      -0.245,      0.0252
       -0.24, 0.460000008,       -0.24,0.0267999992
      -0.235, 0.479999989,      -0.235,0.0272000004
       -0.23, 0.479999989,       -0.23,0.0260000005
      -0.225, 0.519999981,      -0.225,0.0272000004
       -0.22,         0.5,       -0.22,0.0219999999
      -0.215, 0.540000021,      -0.215,0.0267999992
       -0.21, 0.560000002,       -0.21,0.0272000004
      -0.205, 0.579999983,      -0.205,      0.0252
        -0.2, 0.620000005,        -0.2,0.0248000007
      -0.195, 0.639999986,      -0.195,      0.0252
       -0.19, 0.720000029,       -0.19,0.0260000005
      -0.185,  0.74000001,      -0.185,0.0272000004
       -0.18,  0.75999999,       -0.18,0.0255999994
      -0.175,  0.75999999,      -0.175,0.0284000002
       -0.17, 0.819999993,       -0.17,      0.0252
      -0.165, 0.839999974,      -0.165,0.0272000004
       -0.16, 0.819999993,       -0.16,0.0267999992
      -0.155, 0.879999995,      -0.155,0.0228000004
       -0.15, 0.879999995,       -0.15,0.0260000005
      -0.145, 0.899999976,      -0.145,0.0263999999
       -0.14, 0.899999976,       -0.14,0.0243999995
      -0.135, 0.939999998,      -0.135,0.0284000002
       -0.13, 0.959999979,       -0.13,0.0263999999
      -0.125, 0.980000019,      -0.125,0.0275999997
       -0.12,           1,       -0.12,0.0255999994
      -0.115,  1.01999998,      -0.115,0.0255999994
       -0.11,  1.03999996,       -0.11,      0.0252
      -0.105,  1.03999996,      -0.105,0.0260000005
        -0.1,  1.05999994,        -0.1,0.0267999992
      -0.095,  1.10000002,      -0.095,      0.0252
       -0.09,        1.12,       -0.09,0.0240000002
      -0.085,        1.12,      -0.085,      0.0252
       -0.08,  1.13999999,       -0.08,      0.0252
      -0.075,  1.15999997,      -0.075,0.0240000002
       -0.07,  1.13999999,       -0.07,0.0243999995
      -0.065,  1.17999995,      -0.065,0.0243999995
       -0.06,  1.17999995,       -0.06,0.0228000004
      -0.055,  1.17999995,      -0.055,0.0231999997
       -0.05,  1.15999997,       -0.05,0.0196000002
      -0.045,  1.20000005,      -0.045,0.0231999997
       -0.04,  1.20000005,       -0.04,0.0236000009
      -0.035,  1.22000003,      -0.035,0.0208000001
       -0.03,  1.22000003,       -0.03,0.0208000001
      -0.025,  1.24000001,      -0.025,0.0228000004
       -0.02,  1.25999999,       -0.02,0.0223999992
      -0.015,  1.24000001,      -0.015,0.0204000007
       -0.01,  1.24000001,       -0.01,0.0216000006
      -0.005,  1.25999999,      -0.005,0.0231999997
           0,  1.25999999,           0,0.0223999992
       0.005,  1.27999997,       0.005,0.0231999997
        0.01,  1.25999999,        0.01,0.0208000001
       0.015,  1.27999997,       0.015,0.0208000001
        0.02,  1.25999999,        0.02,0.0208000001
       0.025,  1.27999997,       0.025,0.0211999994
        0.03,  1.29999995,        0.03,0.0192000009
       0.035,  1.27999997,       0.035,0.0199999996
        0.04,  1.29999995,        0.04,0.0199999996
       0.045,  1.29999995,       0.045,0.0204000007
        0.05,  1.29999995,        0.05,0.0199999996
       0.055,  1.32000005,       0.055,0.0211999994
        0.06,  1.29999995,        0.06,0.0204000007
       0.065,  1.29999995,       0.065,0.0192000009
        0.07,  1.29999995,        0.07,0.0187999997
       0.075,  1.29999995,       0.075,0.0196000002
        0.08,  1.32000005,        0.08,0.0199999996
       0.085,  1.32000005,       0.085,0.0172000006
        0.09,  1.32000005,        0.09,0.0179999992
       0.095,  1.29999995,       0.095,0.0164000001
         0.1,  1.32000005,         0.1,0.0167999994
       0.105,  1.32000005,       0.105,0.0175999999
        0.11,  1.32000005,        0.11,0.0175999999
       0.115,  1.34000003,       0.115,0.0164000001
        0.12,  1.32000005,        0.12,0.0167999994
       0.125,  1.32000005,       0.125,0.0199999996
        0.13,  1.34000003,        0.13,0.0175999999
       0.135,  1.34000003,       0.135,0.0196000002
        0.14,  1.32000005,        0.14,0.0164000001
       0.145,  1.34000003,       0.145,0.0164000001
        0.15,  1.32000005,        0.15,      0.0148
       0.155,  1.32000005,       0.155,0.0131999999
        0.16,  1.36000001,        0.16,0.0164000001
       0.165,  1.34000003,       0.165,0.0172000006
        0.17,  1.34000003,        0.17,0.0152000003
       0.175,  1.32000005,       0.175,      0.0148
        0.18,  1.36000001,        0.18,0.0160000008
       0.185,  1.36000001,       0.185,0.0155999996
        0.19,  1.34000003,        0.19,0.0160000008
       0.195,  1.36000001,       0.195,      0.0148
         0.2,  1.36000001,         0.2,0.0160000008
       0.205,  1.34000003,       0.205,0.0155999996
        0.21,  1.36000001,        0.21,0.0155999996
       0.215,  1.34000003,       0.215,0.0131999999
        0.22,  1.36000001,        0.22,      0.0148
       0.225,  1.36000001,       0.225,      0.0148
        0.23,  1.36000001,        0.23,0.0175999999
       0.235,  1.36000001,       0.235,0.0124000004
        0.24,  1.36000001,        0.24,0.0136000002
       0.245,  1.36000001,       0.245,0.0127999997
        0.25,        1.38,        0.25,0.0140000004
       0.255,  1.36000001,       0.255,0.0131999999
        0.26,  1.36000001,        0.26,0.0143999998
       0.265,  1.36000001,       0.265,0.0136000002
        0.27,        1.38,        0.27,0.0140000004
       0.275,        1.38,       0.275,0.0143999998
        0.28,  1.36000001,        0.28,0.0127999997
       0.285,  1.36000001,       0.285,0.0140000004
        0.29,        1.38,        0.29,0.0136000002
       0.295,        1.38,       0.295,0.0143999998
         0.3,        1.38,         0.3,0.0120000001
       0.305,        1.38,       0.305,0.00960000046
        0.31,        1.38,        0.31,0.0124000004
       0.315,  1.39999998,       0.315,0.0131999999
        0.32,        1.38,        0.32,0.0120000001
       0.325,        1.38,       0.325,0.0120000001
        0.33,        1.38,        0.33,0.0115999999
       0.335,        1.38,       0.335,0.0127999997
        0.34,  1.39999998,        0.34,0.0127999997
       0.345,        1.38,       0.345,0.0136000002
        0.35,        1.38,        0.35,0.0120000001
       0.355,  1.39999998,       0.355,0.0127999997
        0.36,        1.38,        0.36,0.0115999999
       0.365,        1.38,       0.365,0.0111999996
        0.37,        1.38,        0.37,0.0120000001
       0.375,        1.38,       0.375,0.00999999978
        0.38,  1.39999998,        0.38,0.0115999999
       0.385,  1.39999998,       0.385,0.0143999998
        0.39,  1.39999998,        0.39,0.0120000001
       0.395,        1.38,       0.395,0.0115999999
         0.4,        1.38,         0.4,0.0120000001
       0.405,        1.38,       0.405,0.0120000001
        0.41,        1.38,        0.41,0.0120000001
       0.415,  1.39999998,       0.415,0.0111999996
        0.42,        1.38,        0.42,0.0124000004
       0.425,  1.39999998,       0.425,0.0111999996
        0.43,        1.38,        0.43,0.00960000046
       0.435,  1.39999998,       0.435,0.0111999996
        0.44,  1.39999998,        0.44,0.0108000003
       0.445,  1.39999998,       0.445,0.00879999995
        0.45,  1.39999998,        0.45,0.0111999996
       0.455,  1.39999998,       0.455,0.0108000003
        0.46,        1.38,        0.46,0.0108000003
       0.465,        1.38,       0.465,0.0167999994
        0.47,  1.39999998,        0.47,0.0111999996
       0.475,  1.39999998,       0.475,      0.0104
        0.48,  1.39999998,        0.48,0.00999999978
       0.485,  1.39999998,       0.485,0.00960000046
        0.49,  1.39999998,        0.49,0.0115999999
       0.495,  1.39999998,       0.495,0.00680000009
         0.5,  1.39999998,         0.5,0.0120000001
       0.505,  1.39999998,       0.505,0.0111999996
        0.51,  1.39999998,        0.51,      0.0104
       0.515,  1.39999998,       0.515,      0.0104
        0.52,  1.39999998,        0.52,      0.0104
       0.525,  1.39999998,       0.525,      0.0148
        0.53,  1.39999998,        0.53,0.00999999978
       0.535,  1.39999998,       0.535,0.0108000003
        0.54,  1.39999998,        0.54,0.00960000046
       0.545,  1.39999998,       0.545,0.0111999996
        0.55,  1.41999996,        0.55,0.0111999996
       0.555,  1.41999996,       0.555,0.0131999999
        0.56,  1.39999998,        0.56,0.00999999978
       0.565,  1.39999998,       0.565,      0.0104
        0.57,  1.44000006,        0.57,0.00439999998
       0.575,  1.39999998,       0.575,0.00999999978
        0.58,  1.39999998,        0.58,0.00999999978
       0.585,  1.39999998,       0.585,0.00999999978
        0.59,  1.41999996,        0.59,0.00960000046
       0.595,  1.39999998,       0.595,0.0092000002
         0.6,  1.39999998,         0.6,0.00719999988
       0.605,  1.41999996,       0.605,0.0083999997
        0.61,  1.39999998,        0.61,0.00879999995
       0.615,  1.41999996,       0.615,0.0108000003
        0.62,  1.39999998,        0.62,0.0115999999
       0.625,  1.39999998,       0.625,0.0115999999
        0.63,  1.39999998,        0.63,0.00960000046
       0.635,  1.41999996,       0.635,0.00999999978
        0.64,  1.41999996,        0.64,0.00999999978
       0.645,  1.39999998,       0.645,0.00520000001
        0.65,  1.39999998,        0.65,0.00879999995
       0.655,  1.39999998,       0.655,0.0108000003
        0.66,  1.39999998,        0.66,0.00999999978
       0.665,  1.41999996,       0.665,0.0108000003
        0.67,  1.39999998,        0.67,0.00960000046
       0.675,  1.39999998,       0.675,0.00879999995
        0.68,  1.39999998,        0.68,      0.0104
       0.685,  1.39999998,       0.685,0.0092000002
        0.69,  1.39999998,        0.69,      0.0104
       0.695,  1.41999996,       0.695,0.0108000003
         0.7,  1.41999996,         0.7,0.00999999978
       0.705,  1.41999996,       0.705,0.00960000046
        0.71,  1.39999998,        0.71,0.0092000002
       0.715,  1.41999996,       0.715,0.00879999995
        0.72,  1.39999998,        0.72,0.00680000009
       0.725,  1.39999998,       0.725,0.00999999978
        0.73,  1.39999998,        0.73,0.0092000002
       0.735,  1.39999998,       0.735,0.00800000038
        0.74,  1.39999998,        0.74,0.0108000003
       0.745,  1.39999998,       0.745,0.00999999978
        0.75,  1.39999998,        0.75,0.00879999995
       0.755,  1.41999996,       0.755,0.00800000038
        0.76,  1.41999996,        0.76,      0.0104
       0.765,  1.41999996,       0.765,0.0083999997
        0.77,  1.41999996,        0.77,      0.0104
       0.775,  1.39999998,       0.775,0.0083999997
        0.78,  1.41999996,        0.78,      0.0104
       0.785,  1.39999998,       0.785,0.00879999995
        0.79,  1.39999998,        0.79,0.00999999978
       0.795,  1.41999996,       0.795,0.0127999997
         0.8,  1.41999996,         0.8,0.00879999995
       0.805,  1.41999996,       0.805,0.00960000046
        0.81,  1.41999996,        0.81,0.00960000046
       0.815,  1.41999996,       0.815,      0.0104
        0.82,  1.41999996,        0.82,0.0083999997
       0.825,  1.44000006,       0.825,0.0108000003
        0.83,  1.39999998,        0.83,0.0092000002
       0.835,  1.44000006,       0.835,0.00999999978
        0.84,  1.39999998,        0.84,0.00879999995
       0.845,  1.39999998,       0.845,0.0108000003
        0.85,  1.41999996,        0.85,0.00960000046
       0.855,  1.39999998,       0.855,0.0083999997
        0.86,  1.41999996,        0.86,0.0083999997
       0.865,  1.41999996,       0.865,0.00800000038
        0.87,  1.41999996,        0.87,0.00999999978
       0.875,  1.41999996,       0.875,0.00800000038
        0.88,  1.39999998,        0.88,0.00879999995
       0.885,  1.39999998,       0.885,0.00879999995
        0.89,  1.41999996,        0.89,0.0083999997
       0.895,  1.39999998,       0.895,0.0092000002
         0.9,  1.41999996,         0.9,0.00879999995
       0.905,  1.44000006,       0.905,0.0108000003
        0.91,  1.39999998,        0.91,0.00879999995
       0.915,  1.41999996,       0.915,0.00879999995
        0.92,  1.41999996,        0.92,0.0092000002
       0.925,  1.39999998,       0.925,0.00760000013
        0.93,  1.41999996,        0.93,0.0083999997
       0.935,  1.41999996,       0.935,0.00800000038
        0.94,  1.39999998,        0.94,0.00800000038
       0.945,  1.44000006,       0.945,0.0092000002
        0.95,  1.41999996,        0.95,0.00879999995
       0.955,  1.41999996,       0.955,0.0083999997
        0.96,  1.41999996,        0.96,0.0083999997
       0.965,  1.41999996,       0.965,0.00879999995
        0.97,  1.41999996,        0.97,0.00879999995
       0.975,  1.41999996,       0.975,0.00999999978
        0.98,  1.41999996,        0.98,0.00960000046
       0.985,  1.41999996,       0.985,0.00680000009
        0.99,  1.44000006,        0.99,      0.0104
       0.995,  1.41999996,       0.995,0.00760000013
           1,  1.41999996,           1,0.00879999995
       1.005,  1.41999996,       1.005,0.0092000002
        1.01,  1.41999996,        1.01,0.00760000013
       1.015,  1.41999996,       1.015,0.00800000038
        1.02,  1.41999996,        1.02,0.00800000038
       1.025,  1.41999996,       1.025,0.00800000038
        1.03,  1.41999996,        1.03,0.00639999984
       1.035,  1.41999996,       1.035,0.00879999995
        1.04,  1.41999996,        1.04,      0.0104
       1.045,  1.39999998,       1.045,0.00600000005
        1.05,  1.39999998,        1.05,0.00760000013
       1.055,  1.41999996,       1.055,0.00960000046
        1.06,  1.41999996,        1.06,0.0092000002
       1.065,  1.41999996,       1.065,0.00680000009
        1.07,  1.39999998,        1.07,0.0083999997
       1.075,  1.41999996,       1.075,0.00879999995
        1.08,  1.41999996,        1.08,0.0092000002
       1.085,  1.41999996,       1.085,0.00680000009
        1.09,  1.41999996,        1.09,0.0083999997
       1.095,  1.39999998,       1.095,0.00999999978
         1.1,  1.41999996,         1.1,0.00879999995
       1.105,  1.41999996,       1.105,      0.0104
        1.11,  1.41999996,        1.11,0.00680000009
       1.115,  1.41999996,       1.115,0.0083999997
        1.12,  1.41999996,        1.12,0.0092000002
       1.125,  1.41999996,       1.125,0.00800000038
        1.13,  1.39999998,        1.13,0.0083999997
       1.135,  1.44000006,       1.135,0.0092000002
        1.14,  1.41999996,        1.14,0.0083999997
       1.145,  1.41999996,       1.145,0.00800000038
        1.15,  1.41999996,        1.15,0.0083999997
       1.155,  1.41999996,       1.155,0.0092000002
        1.16,  1.41999996,        1.16,0.00800000038
       1.165,  1.44000006,       1.165,0.0092000002
        1.17,  1.44000006,        1.17,0.00960000046
       1.175,  1.39999998,       1.175,0.00400000019
        1.18,  1.41999996,        1.18,0.0083999997
       1.185,  1.41999996,       1.185,0.00999999978
        1.19,  1.41999996,        1.19,0.0083999997
       1.195,  1.41999996,       1.195,0.00879999995
         1.2,  1.44000006,         1.2,0.0083999997
       1.205,  1.44000006,       1.205,0.0083999997
        1.21,  1.41999996,        1.21,0.00680000009
       1.215,  1.41999996,       1.215,0.0092000002
        1.22,  1.41999996,        1.22,0.00800000038
       1.225,  1.44000006,       1.225,0.00999999978
        1.23,  1.41999996,        1.23,0.0083999997
       1.235,  1.41999996,       1.235,0.00879999995
        1.24,  1.41999996,        1.24,0.0083999997
       1.245,  1.41999996,       1.245,0.0083999997
        1.25,  1.41999996,        1.25,0.0092000002
       1.255,  1.44000006,       1.255,0.00719999988
        1.26,  1.41999996,        1.26,0.00760000013
       1.265,  1.44000006,       1.265,0.0108000003
        1.27,  1.41999996,        1.27,0.0092000002
       1.275,  1.41999996,       1.275,0.00760000013
        1.28,  1.41999996,        1.28,0.00800000038
       1.285,  1.41999996,       1.285,0.00600000005
        1.29,  1.41999996,        1.29,0.00719999988
       1.295,  1.41999996,       1.295,0.00879999995
         1.3,  1.39999998,         1.3,0.00879999995
       1.305,  1.44000006,       1.305,0.00960000046
        1.31,  1.41999996,        1.31,0.00879999995
       1.315,  1.41999996,       1.315,0.00680000009
        1.32,  1.41999996,        1.32,0.00719999988
       1.325,  1.44000006,       1.325,0.00760000013
        1.33,  1.41999996,        1.33,0.00879999995
       1.335,  1.41999996,       1.335,0.00760000013
        1.34,  1.41999996,        1.34,0.00760000013
       1.345,  1.41999996,       1.345,0.00879999995
        1.35,  1.41999996,        1.35,0.00879999995
       1.355,  1.44000006,       1.355,0.0092000002
        1.36,  1.41999996,        1.36,0.0108000003
       1.365,  1.44000006,       1.365,0.00879999995
        1.37,  1.41999996,        1.37,0.00600000005
       1.375,  1.41999996,       1.375,0.00760000013
        1.38,  1.41999996,        1.38,0.0083999997
       1.385,  1.39999998,       1.385,0.00680000009
        1.39,  1.44000006,        1.39,0.00999999978
       1.395,  1.44000006,       1.395,0.00800000038
         1.4,  1.41999996,         1.4,0.00760000013
       1.405,  1.44000006,       1.405,0.00639999984
        1.41,  1.41999996,        1.41,0.00800000038
       1.415,  1.44000006,       1.415,0.00800000038
        1.42,  1.41999996,        1.42,0.00719999988
       1.425,  1.41999996,       1.425,0.00800000038
        1.43,  1.41999996,        1.43,0.00719999988
       1.435,  1.44000006,       1.435,0.0083999997
        1.44,  1.41999996,        1.44,0.00960000046
       1.445,  1.41999996,       1.445,0.00760000013
        1.45,  1.44000006,        1.45,0.00719999988
       1.455,  1.41999996,       1.455,0.0108000003
        1.46,  1.41999996,        1.46,0.0092000002
       1.465,  1.41999996,       1.465,0.00680000009
        1.47,  1.41999996,        1.47,0.00760000013
       1.475,  1.41999996,       1.475,0.00680000009
        1.48,  1.44000006,        1.48,0.00760000013
       1.485,  1.44000006,       1.485,0.0092000002
        1.49,  1.41999996,        1.49,0.00719999988
       1.495,  1.44000006,       1.495,0.0092000002
         1.5,  1.41999996,         1.5,0.0092000002
       1.505,  1.41999996,       1.505,0.00800000038
        1.51,  1.41999996,        1.51,0.00719999988
       1.515,  1.39999998,       1.515,0.00359999994
        1.52,  1.44000006,        1.52,0.0124000004
       1.525,  1.44000006,       1.525,0.00879999995
        1.53,  1.41999996,        1.53,0.00879999995
       1.535,  1.44000006,       1.535,0.0092000002
        1.54,  1.41999996,        1.54,0.00999999978
       1.545,  1.44000006,       1.545,0.00960000046
        1.55,  1.44000006,        1.55,0.0083999997
       1.555,  1.41999996,       1.555,0.00600000005
        1.56,  1.44000006,        1.56,0.00879999995
       1.565,  1.44000006,       1.565,0.00719999988
        1.57,  1.39999998,        1.57,0.00600000005
       1.575,  1.41999996,       1.575,0.00600000005
        1.58,  1.41999996,        1.58,0.0092000002
       1.585,  1.44000006,       1.585,0.0192000009
        1.59,  1.41999996,        1.59,0.00760000013
       1.595,  1.41999996,       1.595,0.00960000046
         1.6,  1.44000006,         1.6,0.0083999997
       1.605,  1.44000006,       1.605,0.00879999995
        1.61,  1.39999998,        1.61,0.00800000038
       1.615,  1.41999996,       1.615,0.0083999997
        1.62,  1.41999996,        1.62,0.0083999997
       1.625,  1.41999996,       1.625,0.00680000009
        1.63,  1.41999996,        1.63,0.00680000009
       1.635,  1.41999996,       1.635,0.00879999995
        1.64,  1.41999996,        1.64,0.00800000038
       1.645,  1.39999998,       1.645,0.00719999988
        1.65,  1.41999996,        1.65,0.00879999995
       1.655,  1.44000006,       1.655,0.00960000046
        1.66,  1.39999998,        1.66,0.0083999997
       1.665,  1.44000006,       1.665,0.00719999988
        1.67,  1.44000006,        1.67,0.0108000003
       1.675,  1.44000006,       1.675,0.00680000009
        1.68,  1.41999996,        1.68,0.0083999997
       1.685,  1.39999998,       1.685,0.00760000013
        1.69,  1.41999996,        1.69,0.0083999997
       1.695,  1.41999996,       1.695,0.00960000046
         1.7,  1.39999998,         1.7,0.00760000013
       1.705,  1.41999996,       1.705,0.0108000003
        1.71,  1.41999996,        1.71,0.0083999997
       1.715,  1.41999996,       1.715,0.00999999978
        1.72,  1.41999996,        1.72,0.0092000002
       1.725,  1.41999996,       1.725,0.0083999997
        1.73,  1.39999998,        1.73,0.00800000038
       1.735,  1.41999996,       1.735,0.00800000038
        1.74,  1.41999996,        1.74,0.00999999978
       1.745,  1.41999996,       1.745,0.0092000002
        1.75,  1.39999998,        1.75,0.00999999978
       1.755,  1.41999996,       1.755,0.00639999984
        1.76,  1.41999996,        1.76,0.00999999978
       1.765,  1.39999998,       1.765,0.00600000005
        1.77,  1.39999998,        1.77,0.0111999996
       1.775,  1.41999996,       1.775,0.0083999997
        1.78,  1.39999998,        1.78,0.00719999988
       1.785,  1.39999998,       1.785,      0.0104
        1.79,  1.39999998,        1.79,0.00999999978
       1.795,  1.39999998,       1.795,0.00800000038
         1.8,  1.41999996,         1.8,0.00999999978
       1.805,  1.41999996,       1.805,0.0108000003
        1.81,  1.41999996,        1.81,0.0092000002
       1.815,  1.41999996,       1.815,0.0092000002
        1.82,  1.39999998,        1.82,0.00960000046
       1.825,  1.41999996,       1.825,0.00760000013
        1.83,  1.39999998,        1.83,0.0108000003
       1.835,  1.41999996,       1.835,0.00879999995
        1.84,  1.39999998,        1.84,0.00760000013
       1.845,  1.41999996,       1.845,0.0108000003
        1.85,  1.41999996,        1.85,0.00960000046
       1.855,  1.39999998,       1.855,0.0092000002
        1.86,  1.39999998,        1.86,0.00999999978
       1.865,  1.41999996,       1.865,0.0111999996
        1.87,  1.41999996,        1.87,      0.0104
       1.875,  1.39999998,       1.875,0.00999999978
        1.88,  1.39999998,        1.88,      0.0104
       1.885,  1.39999998,       1.885,0.00960000046
        1.89,  1.39999998,        1.89,0.0092000002
       1.895,  1.39999998,       1.895,0.0108000003
         1.9,        1.38,         1.9,      0.0104
       1.905,  1.39999998,       1.905,      0.0104
        1.91,  1.39999998,        1.91,0.0108000003
       1.915,  1.39999998,       1.915,0.0111999996
        1.92,  1.39999998,        1.92,0.00999999978
       1.925,  1.39999998,       1.925,0.0115999999
        1.93,  1.39999998,        1.93,0.0115999999
       1.935,  1.39999998,       1.935,0.0115999999
        1.94,  1.39999998,        1.94,0.0127999997
       1.945,  1.39999998,       1.945,0.0108000003
        1.95,  1.39999998,        1.95,0.0111999996
       1.955,  1.39999998,       1.955,0.0092000002
        1.96,        1.38,        1.96,0.0115999999
       1.965,  1.39999998,       1.965,0.0120000001
        1.97,  1.39999998,        1.97,0.0115999999
       1.975,  1.39999998,       1.975,0.0108000003
        1.98,        1.38,        1.98,0.0120000001
       1.985,        1.38,       1.985,0.0111999996
        1.99,  1.39999998,        1.99,0.0124000004
       1.995,        1.38,       1.995,0.0120000001
           2,        1.38,           2,0.0111999996
       2.005,  1.39999998,       2.005,0.00999999978
        2.01,        1.38,        2.01,      0.0104
       2.015,        1.38,       2.015,0.0124000004
        2.02,  1.36000001,        2.02,0.0108000003
       2.025,  1.36000001,       2.025,0.0120000001
        2.03,        1.38,        2.03,0.0111999996
       2.035,        1.38,       2.035,0.0136000002
        2.04,        1.38,        2.04,0.0131999999
       2.045,        1.38,       2.045,0.0127999997
        2.05,        1.38,        2.05,0.0127999997
       2.055,  1.39999998,       2.055,0.0111999996
        2.06,        1.38,        2.06,0.0136000002
       2.065,        1.38,       2.065,0.0127999997
        2.07,        1.38,        2.07,0.0143999998
       2.075,  1.36000001,       2.075,0.0111999996
        2.08,        1.38,        2.08,0.0155999996
       2.085,  1.36000001,       2.085,0.0131999999
        2.09,  1.36000001,        2.09,0.0152000003
       2.095,  1.36000001,       2.095,0.0111999996
         2.1,  1.36000001,         2.1,      0.0148
       2.105,  1.36000001,       2.105,0.0175999999
        2.11,  1.36000001,        2.11,0.0136000002
       2.115,  1.36000001,       2.115,      0.0148
        2.12,  1.34000003,        2.12,0.0120000001
       2.125,        1.38,       2.125,0.0160000008
        2.13,  1.36000001,        2.13,0.0143999998
       2.135,  1.36000001,       2.135,0.0124000004
        2.14,  1.36000001,        2.14,0.0127999997
       2.145,  1.36000001,       2.145,      0.0148
        2.15,  1.34000003,        2.15,0.0136000002
       2.155,  1.36000001,       2.155,0.0175999999
        2.16,        1.38,        2.16,0.0155999996
       2.165,  1.34000003,       2.165,0.0167999994
        2.17,  1.34000003,        2.17,0.0136000002
       2.175,  1.36000001,       2.175,      0.0148
        2.18,  1.36000001,        2.18,      0.0148
       2.185,  1.36000001,       2.185,0.0143999998
        2.19,  1.34000003,        2.19,0.0152000003
       2.195,  1.34000003,       2.195,0.0136000002
         2.2,  1.36000001,         2.2,0.0160000008
       2.205,  1.34000003,       2.205,0.0140000004
        2.21,  1.36000001,        2.21,      0.0148
       2.215,  1.34000003,       2.215,0.0155999996
        2.22,  1.34000003,        2.22,0.0152000003
       2.225,  1.36000001,       2.225,0.0155999996
        2.23,  1.34000003,        2.23,0.0152000003
       2.235,  1.34000003,       2.235,0.0164000001
        2.24,  1.34000003,        2.24,0.0164000001
       2.245,  1.36000001,       2.245,0.0196000002
        2.25,  1.34000003,        2.25,0.0184000004
       2.255,  1.36000001,       2.255,0.0160000008
        2.26,  1.34000003,        2.26,0.0184000004
       2.265,  1.36000001,       2.265,0.0164000001
        2.27,  1.32000005,        2.27,0.0187999997
       2.275,  1.34000003,       2.275,0.0167999994
        2.28,  1.34000003,        2.28,0.0131999999
       2.285,  1.34000003,       2.285,0.0172000006
        2.29,  1.34000003,        2.29,0.0164000001
       2.295,  1.34000003,       2.295,0.0167999994
         2.3,  1.34000003,         2.3,0.0167999994
       2.305,  1.34000003,       2.305,0.0155999996
        2.31,  1.34000003,        2.31,0.0160000008
       2.315,  1.34000003,       2.315,0.0164000001
        2.32,  1.34000003,        2.32,0.0155999996
       2.325,  1.34000003,       2.325,0.0167999994
        2.33,  1.36000001,        2.33,0.0160000008
       2.335,  1.36000001,       2.335,0.0160000008
        2.34,  1.32000005,        2.34,0.0167999994
       2.345,  1.34000003,       2.345,0.0160000008
        2.35,  1.34000003,        2.35,0.0152000003
       2.355,  1.34000003,       2.355,0.0172000006
        2.36,  1.34000003,        2.36,0.0167999994
       2.365,  1.34000003,       2.365,0.0152000003
        2.37,  1.34000003,        2.37,0.0143999998
       2.375,  1.34000003,       2.375,0.0143999998
        2.38,  1.34000003,        2.38,0.0167999994
       2.385,  1.34000003,       2.385,      0.0148
        2.39,  1.34000003,        2.39,0.0155999996
       2.395,  1.36000001,       2.395,0.0160000008
         2.4,  1.34000003,         2.4,0.0160000008
       2.405,  1.34000003,       2.405,0.0131999999
        2.41,  1.34000003,        2.41,      0.0148
       2.415,  1.34000003,       2.415,0.0152000003
        2.42,        1.38,        2.42,0.0175999999
       2.425,  1.34000003,       2.425,0.0164000001
        2.43,  1.34000003,        2.43,0.0152000003
       2.435,  1.36000001,       2.435,0.0172000006
        2.44,  1.34000003,        2.44,0.0164000001
       2.445,  1.34000003,       2.445,0.0152000003
        2.45,  1.34000003,        2.45,0.0172000006
       2.455,  1.36000001,       2.455,0.0167999994
        2.46,  1.34000003,        2.46,0.0160000008
       2.465,  1.34000003,       2.465,0.0160000008
        2.47,  1.34000003,        2.47,0.0143999998
       2.475,  1.34000003,       2.475,0.0155999996
        2.48,  1.34000003,        2.48,0.0164000001
       2.485,  1.34000003,       2.485,0.0175999999
        2.49,  1.34000003,        2.49,0.0164000001
       2.495,  1.34000003,       2.495,0.0164000001