s,Volts,s,Volts
        -2.5,  3.51999998,        -2.5,-0.00120000006
      -2.495,   3.5999999,      -2.495,0.0027999999
       -2.49,   3.5999999,       -2.49,0.00079999998
      -2.485,  3.55999994,      -2.485,0.00240000011
       -2.48,  3.55999994,       -2.48,0.00120000006
      -2.475,  3.55999994,      -2.475,0.00400000019
       -2.47,  3.55999994,       -2.47,0.00039999999
      -2.465,   3.5999999,      -2.465,0.00120000006
       -2.46,  3.55999994,       -2.46,           0
      -2.455,  3.55999994,      -2.455,0.00200000009
       -2.45,  3.55999994,       -2.45,           0
      -2.445,  3.55999994,      -2.445,0.00079999998
       -2.44,  3.55999994,       -2.44,0.00159999996
      -2.435,   3.5999999,      -2.435,0.00200000009
       -2.43,  3.51999998,       -2.43,           0
      -2.425,  3.55999994,      -2.425,0.00319999992
       -2.42,  3.55999994,       -2.42,           0
      -2.415,  3.55999994,      -2.415,0.00240000011
       -2.41,  3.55999994,       -2.41,0.00159999996
      -2.405,  3.55999994,      -2.405,0.00159999996
        -2.4,  3.55999994,        -2.4,-0.00039999999
      -2.395,   3.5999999,      -2.395,0.00159999996
       -2.39,  3.51999998,       -2.39,0.00200000009
      -2.385,   3.5999999,      -2.385,0.00079999998
       -2.38,  3.55999994,       -2.38,0.00120000006
      -2.375,  3.55999994,      -2.375,0.00120000006
       -2.37,  3.51999998,       -2.37,0.00159999996
      -2.365,   3.5999999,      -2.365,-0.00039999999
       -2.36,  3.55999994,       -2.36,0.00039999999
      -2.355,  3.55999994,      -2.355,0.00200000009
       -2.35,  3.55999994,       -2.35,0.00159999996
      -2.345,   3.5999999,      -2.345,           0
       -2.34,  3.51999998,       -2.34,0.00079999998
      -2.335,  3.55999994,      -2.335,0.00039999999
       -2.33,   3.5999999,       -2.33,0.00159999996
      -2.325,   3.5999999,      -2.325,0.00200000009
       -2.32,  3.55999994,       -2.32,0.00120000006
      -2.315,   3.5999999,      -2.315,0.00359999994
       -2.31,  3.51999998,       -2.31,0.00200000009
      -2.305,  3.55999994,      -2.305,-0.00039999999
        -2.3,  3.51999998,        -2.3,0.00039999999
      -2.295,  3.55999994,      -2.295,0.00039999999
       -2.29,  3.55999994,       -2.29,0.00200000009
      -2.285,   3.5999999,      -2.285,0.00240000011
       -2.28,  3.55999994,       -2.28,0.0027999999
      -2.275,  3.55999994,      -2.275,0.00079999998
       -2.27,   3.5999999,       -2.27,0.00200000009
      -2.265,   3.5999999,      -2.265,           0
       -2.26,  3.51999998,       -2.26,0.00120000006
      -2.255,  3.55999994,      -2.255,0.00159999996
       -2.25,  3.55999994,       -2.25,0.00120000006
      -2.245,   3.5999999,      -2.245,0.00079999998
       -2.24,  3.55999994,       -2.24,0.00079999998
      -2.235,   3.5999999,      -2.235,0.0027999999
       -2.23,  3.55999994,       -2.23,0.00120000006
      -2.225,  3.55999994,      -2.225,0.00240000011
       -2.22,  3.55999994,       -2.22,0.00120000006
      -2.215,  3.55999994,      -2.215,0.0027999999
       -2.21,  3.55999994,       -2.21,0.00039999999
      -2.205,  3.55999994,      -2.205,0.00039999999
        -2.2,  3.55999994,        -2.2,0.00400000019
      -2.195,   3.5999999,      -2.195,0.00200000009
       -2.19,  3.55999994,       -2.19,-0.00039999999
      -2.185,  3.55999994,      -2.185,0.00240000011
       -2.18,  3.55999994,       -2.18,0.00159999996
      -2.175,   3.5999999,      -2.175,0.0027999999
       -2.17,  3.55999994,       -2.17,-0.00079999998
      -2.165,   3.5999999,      -2.165,0.00159999996
       -2.16,  3.55999994,       -2.16,0.0027999999
      -2.155,  3.55999994,      -2.155,0.0027999999
       -2.15,  3.55999994,       -2.15,-0.00200000009
      -2.145,  3.55999994,      -2.145,0.00400000019
       -2.14,  3.55999994,       -2.14,0.00200000009
      -2.135,   3.5999999,      -2.135,0.00079999998
       -2.13,  3.55999994,       -2.13,0.00039999999
      -2.125,   3.5999999,      -2.125,-0.00039999999
       -2.12,  3.51999998,       -2.12,0.00200000009
      -2.115,   3.5999999,      -2.115,-0.00039999999
       -2.11,  3.55999994,       -2.11,0.00159999996
      -2.105,  3.55999994,      -2.105,0.00159999996
        -2.1,  3.55999994,        -2.1,0.00120000006
      -2.095,  3.55999994,      -2.095,0.00200000009
       -2.09,  3.55999994,       -2.09,0.00159999996
      -2.085,   3.5999999,      -2.085,0.00120000006
       -2.08,  3.51999998,       -2.08,0.00200000009
      -2.075,  3.55999994,      -2.075,0.00120000006
       -2.07,  3.55999994,       -2.07,-0.00120000006
      -2.065,  3.55999994,      -2.065,0.00240000011
       -2.06,  3.55999994,       -2.06,-0.00039999999
      -2.055,   3.5999999,      -2.055,0.00079999998
       -2.05,  3.51999998,       -2.05,0.00079999998
      -2.045,   3.5999999,      -2.045,           0
       -2.04,   3.5999999,       -2.04,0.00200000009
      -2.035,  3.55999994,      -2.035,0.00120000006
       -2.03,  3.51999998,       -2.03,0.00159999996
      -2.025,  3.55999994,      -2.025,-0.00120000006
       -2.02,  3.55999994,       -2.02,0.00120000006
      -2.015,  3.55999994,      -2.015,0.00039999999
       -2.01,  3.51999998,       -2.01,0.00159999996
      -2.005,  3.51999998,      -2.005,0.00120000006
          -2,  3.55999994,          -2,0.00159999996
      -1.995,  3.55999994,      -1.995,0.00240000011
       -1.99,  3.55999994,       -1.99,           0
      -1.985,   3.5999999,      -1.985,-0.00079999998
       -1.98,  3.51999998,       -1.98,0.00319999992
      -1.975,  3.55999994,      -1.975,0.00200000009
       -1.97,  3.55999994,       -1.97,-0.00120000006
      -1.965,   3.5999999,      -1.965,           0
       -1.96,  3.51999998,       -1.96,0.0027999999
      -1.955,  3.55999994,      -1.955,0.00039999999
       -1.95,  3.55999994,       -1.95,0.0027999999
      -1.945,   3.5999999,      -1.945,0.00079999998
       -1.94,  3.55999994,       -1.94,0.00079999998
      -1.935,   3.5999999,      -1.935,0.00240000011
       -1.93,  3.51999998,       -1.93,0.00159999996
      -1.925,  3.55999994,      -1.925,0.00159999996
       -1.92,  3.55999994,       -1.92,0.00480000023
      -1.915,   3.5999999,      -1.915,-0.00120000006
       -1.91,  3.55999994,       -1.91,           0
      -1.905,   3.5999999,      -1.905,           0
        -1.9,  3.51999998,        -1.9,0.00079999998
      -1.895,  3.55999994,      -1.895,0.00400000019
       -1.89,  3.55999994,       -1.89,0.00159999996
      -1.885,  3.55999994,      -1.885,0.00120000006
       -1.88,  3.51999998,       -1.88,0.00240000011
      -1.875,  3.55999994,      -1.875,0.0027999999
       -1.87,  3.55999994,       -1.87,0.00159999996
      -1.865,   3.5999999,      -1.865,0.00120000006
       -1.86,  3.55999994,       -1.86,0.00120000006
      -1.855,  3.55999994,      -1.855,0.00240000011
       -1.85,  3.55999994,       -1.85,           0
      -1.845,  3.55999994,      -1.845,           0
       -1.84,  3.55999994,       -1.84,0.00760000013
      -1.835,  3.55999994,      -1.835,0.00319999992
       -1.83,  3.55999994,       -1.83,0.00120000006
      -1.825,  3.55999994,      -1.825,0.00159999996
       -1.82,  3.51999998,       -1.82,0.00079999998
      -1.815,   3.5999999,      -1.815,0.00039999999
       -1.81,  3.55999994,       -1.81,0.00039999999
      -1.805,  3.55999994,      -1.805,0.00159999996
        -1.8,  3.51999998,        -1.8,0.00319999992
      -1.795,  3.55999994,      -1.795,-0.00039999999
       -1.79,  3.51999998,       -1.79,0.00159999996
      -1.785,   3.5999999,      -1.785,0.0027999999
       -1.78,  3.55999994,       -1.78,-0.00120000006
      -1.775,   3.5999999,      -1.775,0.00240000011
       -1.77,  3.55999994,       -1.77,0.00120000006
      -1.765,   3.5999999,      -1.765,0.00359999994
       -1.76,  3.55999994,       -1.76,0.00120000006
      -1.755,  3.55999994,      -1.755,           0
       -1.75,   3.5999999,       -1.75,0.00079999998
      -1.745,   3.5999999,      -1.745,0.00120000006
       -1.74,  3.55999994,       -1.74,0.00240000011
      -1.735,  3.55999994,      -1.735,0.00120000006
       -1.73,  3.55999994,       -1.73,0.00120000006
      -1.725,  3.51999998,      -1.725,0.0027999999
       -1.72,  3.55999994,       -1.72,-0.00120000006
      -1.715,  3.55999994,      -1.715,0.00120000006
       -1.71,  3.55999994,       -1.71,0.00159999996
      -1.705,  3.55999994,      -1.705,0.00159999996
        -1.7,  3.55999994,        -1.7,-0.00079999998
      -1.695,  3.55999994,      -1.695,-0.00079999998
       -1.69,  3.55999994,       -1.69,0.00039999999
      -1.685,   3.5999999,      -1.685,0.00120000006
       -1.68,  3.55999994,       -1.68,-0.00079999998
      -1.675,   3.5999999,      -1.675,0.00039999999
       -1.67,  3.55999994,       -1.67,0.00120000006
      -1.665,   3.5999999,      -1.665,0.00159999996
       -1.66,   3.5999999,       -1.66,0.00039999999
      -1.655,  3.55999994,      -1.655,-0.00200000009
       -1.65,  3.55999994,       -1.65,0.00319999992
      -1.645,  3.55999994,      -1.645,0.00120000006
       -1.64,  3.55999994,       -1.64,           0
      -1.635,  3.55999994,      -1.635,           0
       -1.63,  3.55999994,       -1.63,0.00159999996
      -1.625,  3.55999994,      -1.625,0.00240000011
       -1.62,  3.55999994,       -1.62,-0.00079999998
      -1.615,   3.5999999,      -1.615,           0
       -1.61,  3.51999998,       -1.61,0.00200000009
      -1.605,   3.5999999,      -1.605,0.00359999994
        -1.6,  3.51999998,        -1.6,0.00120000006
      -1.595,  3.55999994,      -1.595,-0.00079999998
       -1.59,  3.55999994,       -1.59,           0
      -1.585,  3.55999994,      -1.585,0.00079999998
       -1.58,  3.55999994,       -1.58,           0
      -1.575,   3.5999999,      -1.575,0.00120000006
       -1.57,  3.55999994,       -1.57,0.00039999999
      -1.565,  3.55999994,      -1.565,0.00240000011
       -1.56,  3.55999994,       -1.56,0.00240000011
      -1.555,   3.5999999,      -1.555,0.00200000009
       -1.55,   3.5999999,       -1.55,0.00319999992
      -1.545,  3.55999994,      -1.545,           0
       -1.54,  3.55999994,       -1.54,0.00079999998
      -1.535,   3.5999999,      -1.535,0.00200000009
       -1.53,  3.55999994,       -1.53,0.00079999998
      -1.525,  3.55999994,      -1.525,0.0027999999
       -1.52,  3.51999998,       -1.52,0.00120000006
      -1.515,  3.55999994,      -1.515,0.00359999994
       -1.51,  3.55999994,       -1.51,0.00200000009
      -1.505,  3.55999994,      -1.505,0.00159999996
        -1.5,  3.55999994,        -1.5,0.00039999999
      -1.495,  3.55999994,      -1.495,0.00039999999
       -1.49,  3.55999994,       -1.49,0.00039999999
      -1.485,  3.55999994,      -1.485,0.00120000006
       -1.48,  3.51999998,       -1.48,0.0027999999
      -1.475,   3.5999999,      -1.475,0.00039999999
       -1.47,  3.55999994,       -1.47,0.00159999996
      -1.465,   3.5999999,      -1.465,0.00200000009
       -1.46,  3.55999994,       -1.46,0.00159999996
      -1.455,  3.55999994,      -1.455,0.0027999999
       -1.45,  3.51999998,       -1.45,0.00120000006
      -1.445,  3.55999994,      -1.445,-0.00039999999
       -1.44,  3.55999994,       -1.44,0.00400000019
      -1.435,  3.55999994,      -1.435,-0.00039999999
       -1.43,  3.55999994,       -1.43,0.00079999998
      -1.425,  3.55999994,      -1.425,0.0027999999
       -1.42,  3.55999994,       -1.42,0.0027999999
      -1.415,  3.55999994,      -1.415,0.00200000009
       -1.41,  3.55999994,       -1.41,0.0027999999
      -1.405,   3.5999999,      -1.405,0.00120000006
        -1.4,  3.55999994,        -1.4,0.0027999999
      -1.395,   3.5999999,      -1.395,0.00200000009
       -1.39,   3.5999999,       -1.39,0.00159999996
      -1.385,  3.55999994,      -1.385,0.00240000011
       -1.38,  3.55999994,       -1.38,0.00039999999
      -1.375,   3.5999999,      -1.375,0.00039999999
       -1.37,   3.5999999,       -1.37,-0.00159999996
      -1.365,   3.5999999,      -1.365,0.00439999998
       -1.36,  3.55999994,       -1.36,0.00120000006
      -1.355,  3.55999994,      -1.355,0.00240000011
       -1.35,  3.55999994,       -1.35,-0.00079999998
      -1.345,  3.55999994,      -1.345,0.00159999996
       -1.34,  3.51999998,       -1.34,0.00319999992
      -1.335,   3.5999999,      -1.335,0.00240000011
       -1.33,  3.55999994,       -1.33,0.00159999996
      -1.325,   3.5999999,      -1.325,0.00240000011
       -1.32,  3.51999998,       -1.32,           0
      -1.315,  3.55999994,      -1.315,0.00439999998
       -1.31,  3.51999998,       -1.31,0.00159999996
      -1.305,   3.5999999,      -1.305,0.00200000009
        -1.3,  3.55999994,        -1.3,0.00400000019
      -1.295,  3.55999994,      -1.295,0.00079999998
       -1.29,  3.55999994,       -1.29,0.00240000011
      -1.285,   3.5999999,      -1.285,0.00319999992
       -1.28,  3.55999994,       -1.28,0.00400000019
      -1.275,  3.55999994,      -1.275,0.00120000006
       -1.27,  3.55999994,       -1.27,0.00439999998
      -1.265,  3.55999994,      -1.265,           0
       -1.26,  3.51999998,       -1.26,0.00159999996
      -1.255,   3.5999999,      -1.255,0.00240000011
       -1.25,  3.55999994,       -1.25,0.00359999994
      -1.245,   3.5999999,      -1.245,0.0027999999
       -1.24,  3.55999994,       -1.24,0.00319999992
      -1.235,  3.55999994,      -1.235,0.00039999999
       -1.23,  3.55999994,       -1.23,0.00240000011
      -1.225,  3.55999994,      -1.225,0.00240000011
       -1.22,  3.55999994,       -1.22,0.00200000009
      -1.215,  3.55999994,      -1.215,0.00200000009
       -1.21,  3.51999998,       -1.21,0.00120000006
      -1.205,  3.55999994,      -1.205,0.00359999994
        -1.2,   3.5999999,        -1.2,0.00200000009
      -1.195,  3.55999994,      -1.195,-0.00039999999
       -1.19,  3.51999998,       -1.19,0.00120000006
      -1.185,  3.55999994,      -1.185,0.00240000011
       -1.18,  3.51999998,       -1.18,0.00359999994
      -1.175,  3.55999994,      -1.175,0.0027999999
       -1.17,  3.55999994,       -1.17,0.0027999999
      -1.165,  3.55999994,      -1.165,0.00159999996
       -1.16,  3.55999994,       -1.16,0.00240000011
      -1.155,  3.55999994,      -1.155,0.00319999992
       -1.15,  3.51999998,       -1.15,0.00359999994
      -1.145,  3.55999994,      -1.145,0.0027999999
       -1.14,  3.55999994,       -1.14,0.00120000006
      -1.135,  3.55999994,      -1.135,0.00120000006
       -1.13,  3.51999998,       -1.13,0.00240000011
      -1.125,  3.55999994,      -1.125,0.00039999999
       -1.12,  3.55999994,       -1.12,           0
      -1.115,  3.55999994,      -1.115,0.00240000011
       -1.11,  3.55999994,       -1.11,0.0027999999
      -1.105,  3.51999998,      -1.105,0.00240000011
        -1.1,  3.55999994,        -1.1,0.00120000006
      -1.095,  3.55999994,      -1.095,0.0027999999
       -1.09,  3.55999994,       -1.09,0.00200000009
      -1.085,  3.55999994,      -1.085,0.00439999998
       -1.08,  3.55999994,       -1.08,0.0027999999
      -1.075,  3.55999994,      -1.075,0.0027999999
       -1.07,  3.55999994,       -1.07,0.00319999992
      -1.065,  3.55999994,      -1.065,0.00480000023
       -1.06,  3.55999994,       -1.06,0.00240000011
      -1.055,   3.5999999,      -1.055,0.00319999992
       -1.05,  3.55999994,       -1.05,0.00359999994
      -1.045,  3.55999994,      -1.045,0.00079999998
       -1.04,  3.51999998,       -1.04,0.00079999998
      -1.035,  3.55999994,      -1.035,0.0027999999
       -1.03,  3.55999994,       -1.03,           0
      -1.025,  3.55999994,      -1.025,0.00319999992
       -1.02,  3.51999998,       -1.02,0.00520000001
      -1.015,  3.55999994,      -1.015,0.00359999994
       -1.01,  3.55999994,       -1.01,0.0027999999
      -1.005,  3.55999994,      -1.005,0.00240000011
          -1,  3.55999994,          -1,0.00120000006
      -0.995,  3.55999994,      -0.995,0.00079999998
       -0.99,  3.55999994,       -0.99,0.00319999992
      -0.985,  3.55999994,      -0.985,0.00400000019
       -0.98,  3.55999994,       -0.98,0.00439999998
      -0.975,  3.55999994,      -0.975,0.00359999994
       -0.97,  3.51999998,       -0.97,0.00359999994
      -0.965,  3.55999994,      -0.965,0.0027999999
       -0.96,  3.55999994,       -0.96,0.00359999994
      -0.955,  3.55999994,      -0.955,0.00400000019
       -0.95,  3.51999998,       -0.95,0.00240000011
      -0.945,   3.5999999,      -0.945,0.00359999994
       -0.94,  3.51999998,       -0.94,0.00120000006
      -0.935,  3.55999994,      -0.935,0.0027999999
       -0.93,  3.55999994,       -0.93,0.00120000006
      -0.925,  3.55999994,      -0.925,0.00240000011
       -0.92,  3.51999998,       -0.92,0.00359999994
      -0.915,  3.55999994,      -0.915,0.00159999996
       -0.91,  3.51999998,       -0.91,0.00359999994
      -0.905,  3.55999994,      -0.905,0.00439999998
        -0.9,  3.55999994,        -0.9,0.00439999998
      -0.895,  3.55999994,      -0.895,0.00240000011
       -0.89,  3.51999998,       -0.89,0.00480000023
      -0.885,  3.55999994,      -0.885,0.00480000023
       -0.88,  3.51999998,       -0.88,0.00200000009
      -0.875,  3.55999994,      -0.875,0.00319999992
       -0.87,  3.55999994,       -0.87,0.0027999999
      -0.865,  3.55999994,      -0.865,0.00319999992
       -0.86,  3.51999998,       -0.86,0.00240000011
      -0.855,   3.5999999,      -0.855,0.00039999999
       -0.85,  3.51999998,       -0.85,0.00439999998
      -0.845,  3.55999994,      -0.845,0.00480000023
       -0.84,  3.55999994,       -0.84,0.0027999999
      -0.835,  3.55999994,      -0.835,0.00359999994
       -0.83,  3.55999994,       -0.83,0.00480000023
      -0.825,  3.55999994,      -0.825,0.00120000006
       -0.82,  3.55999994,       -0.82,0.00480000023
      -0.815,  3.55999994,      -0.815,0.00359999994
       -0.81,  3.55999994,       -0.81,0.00200000009
      -0.805,  3.55999994,      -0.805,0.00520000001
        -0.8,  3.51999998,        -0.8,0.00439999998
      -0.795,  3.55999994,      -0.795,0.00760000013
       -0.79,  3.51999998,       -0.79,0.00480000023
      -0.785,  3.55999994,      -0.785,0.00760000013
       -0.78,  3.51999998,       -0.78,0.0027999999
      -0.775,  3.51999998,      -0.775,0.00400000019
       -0.77,  3.51999998,       -0.77,0.00400000019
      -0.765,  3.51999998,      -0.765,0.00520000001
       -0.76,  3.55999994,       -0.76,0.00319999992
      -0.755,   3.5999999,      -0.755,0.00520000001
       -0.75,  3.51999998,       -0.75,0.00359999994
      -0.745,  3.51999998,      -0.745,0.0027999999
       -0.74,  3.51999998,       -0.74,0.00480000023
      -0.735,  3.51999998,      -0.735,0.00240000011
       -0.73,  3.51999998,       -0.73,0.00639999984
      -0.725,  3.51999998,      -0.725,0.00120000006
       -0.72,  3.51999998,       -0.72,0.00520000001
      -0.715,  3.51999998,      -0.715,0.00719999988
       -0.71,  3.55999994,       -0.71,0.00639999984
      -0.705,  3.55999994,      -0.705,0.0055999998
        -0.7,  3.51999998,        -0.7,0.00480000023
      -0.695,  3.55999994,      -0.695,0.0055999998
       -0.69,  3.55999994,       -0.69,0.00879999995
      -0.685,  3.55999994,      -0.685,0.00879999995
       -0.68,  3.55999994,       -0.68,0.00520000001
      -0.675,  3.55999994,      -0.675,0.00600000005
       -0.67,  3.48000002,       -0.67,0.00719999988
      -0.665,  3.51999998,      -0.665,0.00480000023
       -0.66,  3.51999998,       -0.66,0.0055999998
      -0.655,  3.51999998,      -0.655,0.00719999988
       -0.65,  3.48000002,       -0.65,0.00639999984
      -0.645,  3.51999998,      -0.645,0.00600000005
       -0.64,  3.51999998,       -0.64,0.00719999988
      -0.635,  3.55999994,      -0.635,0.00600000005
       -0.63,  3.51999998,       -0.63,0.00439999998
      -0.625,  3.55999994,      -0.625,0.0092000002
       -0.62,  3.51999998,       -0.62,0.0055999998
      -0.615,  3.51999998,      -0.615,0.00439999998
       -0.61,  3.51999998,       -0.61,0.00520000001
      -0.605,  3.51999998,      -0.605,0.00680000009
        -0.6,  3.51999998,        -0.6,0.00439999998
      -0.595,  3.48000002,      -0.595,0.0092000002
       -0.59,  3.51999998,       -0.59,0.0055999998
      -0.585,  3.51999998,      -0.585,0.00760000013
       -0.58,  3.51999998,       -0.58,0.0055999998
      -0.575,  3.55999994,      -0.575,0.00800000038
       -0.57,  3.48000002,       -0.57,0.00879999995
      -0.565,  3.55999994,      -0.565,0.00680000009
       -0.56,  3.51999998,       -0.56,0.00760000013
      -0.555,  3.51999998,      -0.555,      0.0104
       -0.55,  3.51999998,       -0.55,0.00960000046
      -0.545,  3.51999998,      -0.545,0.0092000002
       -0.54,  3.51999998,       -0.54,0.00999999978
      -0.535,  3.55999994,      -0.535,0.0092000002
       -0.53,  3.48000002,       -0.53,0.00800000038
      -0.525,  3.51999998,      -0.525,0.00960000046
       -0.52,  3.55999994,       -0.52,0.00800000038
      -0.515,  3.51999998,      -0.515,0.00719999988
       -0.51,  3.51999998,       -0.51,0.00960000046
      -0.505,  3.55999994,      -0.505,0.00800000038
        -0.5,  3.51999998,        -0.5,0.00879999995
      -0.495,  3.55999994,      -0.495,0.00879999995
       -0.49,  3.48000002,       -0.49,0.00999999978
      -0.485,  3.51999998,      -0.485,0.00600000005
       -0.48,  3.48000002,       -0.48,0.0092000002
      -0.475,  3.55999994,      -0.475,0.0108000003
       -0.47,  3.48000002,       -0.47,0.0092000002
      -0.465,  3.51999998,      -0.465,0.0111999996
       -0.46,  3.48000002,       -0.46,0.00960000046
      -0.455,  3.51999998,      -0.455,0.0108000003
       -0.45,  3.48000002,       -0.45,0.0124000004
      -0.445,  3.48000002,      -0.445,0.0111999996
       -0.44,  3.48000002,       -0.44,      0.0104
      -0.435,  3.48000002,      -0.435,0.0124000004
       -0.43,  3.48000002,       -0.43,0.00960000046
      -0.425,  3.55999994,      -0.425,0.0083999997
       -0.42,  3.48000002,       -0.42,0.0127999997
      -0.415,  3.48000002,      -0.415,0.0111999996
       -0.41,  3.51999998,       -0.41,0.0115999999
      -0.405,  3.48000002,      -0.405,0.0108000003
        -0.4,  3.51999998,        -0.4,      0.0104
      -0.395,  3.48000002,      -0.395,0.0111999996
       -0.39,  3.48000002,       -0.39,0.0136000002
      -0.385,  3.51999998,      -0.385,0.0120000001
       -0.38,  3.44000006,       -0.38,0.0131999999
      -0.375,  3.48000002,      -0.375,0.0143999998
       -0.37,  3.48000002,       -0.37,0.0115999999
      -0.365,  3.51999998,      -0.365,0.0131999999
       -0.36,  3.44000006,       -0.36,0.0131999999
      -0.355,  3.48000002,      -0.355,0.0155999996
       -0.35,  3.44000006,       -0.35,0.0167999994
      -0.345,  3.48000002,      -0.345,0.0136000002
       -0.34,  3.44000006,       -0.34,0.0127999997
      -0.335,  3.48000002,      -0.335,      0.0104
       -0.33,   3.4000001,       -0.33,0.0143999998
      -0.325,  3.48000002,      -0.325,0.0192000009
       -0.32,  3.44000006,       -0.32,0.0167999994
      -0.315,  3.48000002,      -0.315,0.0140000004
       -0.31,   3.4000001,       -0.31,0.0179999992
      -0.305,  3.44000006,      -0.305,0.0172000006
        -0.3,   3.4000001,        -0.3,0.0152000003
      -0.295,  3.44000006,      -0.295,0.0184000004
       -0.29,   3.4000001,       -0.29,0.0175999999
      -0.285,  3.48000002,      -0.285,0.0167999994
       -0.28,   3.4000001,       -0.28,0.0187999997
      -0.275,  3.44000006,      -0.275,0.0184000004
       -0.27,   3.3599999,       -0.27,0.0216000006
      -0.265,   3.4000001,      -0.265,0.0192000009
       -0.26,   3.3599999,       -0.26,0.0204000007
      -0.255,  3.44000006,      -0.255,0.0208000001
       -0.25,   3.4000001,       -0.25,0.0216000006
      -0.245,   3.4000001,      -0.245,0.0196000002
       -0.24,   3.4000001,       -0.24,0.0184000004
      -0.235,   3.4000001,      -0.235,0.0187999997
       -0.23,   3.4000001,       -0.23,0.0196000002
      -0.225,   3.4000001,      -0.225,0.0192000009
       -0.22,   3.4000001,       -0.22,0.0192000009
      -0.215,   3.3599999,      -0.215,0.0216000006
       -0.21,   3.3599999,       -0.21,0.0240000002
      -0.205,   3.3599999,      -0.205,0.0211999994
        -0.2,  3.31999993,        -0.2,0.0240000002
      -0.195,  3.44000006,      -0.195,0.0236000009
       -0.19,   3.3599999,       -0.19,0.0204000007
      -0.185,   3.4000001,      -0.185,0.0240000002
       -0.18,   3.3599999,       -0.18,0.0248000007
      -0.175,   3.3599999,      -0.175,0.0219999999
       -0.17,  3.31999993,       -0.17,0.0223999992
      -0.165,   3.3599999,      -0.165,0.0248000007
       -0.16,  3.31999993,       -0.16,0.0240000002
      -0.155,   3.4000001,      -0.155,0.0240000002
       -0.15,  3.27999997,       -0.15,0.0255999994
      -0.145,  3.31999993,      -0.145,0.0284000002
       -0.14,  3.24000001,       -0.14,0.0275999997
      -0.135,  3.27999997,      -0.135,0.0280000009
       -0.13,  3.20000005,       -0.13,0.0292000007
      -0.125,  3.20000005,      -0.125,0.0324000008
       -0.12,  3.16000009,       -0.12,0.0324000008
      -0.115,  3.20000005,      -0.115,      0.0296
       -0.11,  3.07999992,       -0.11,0.0320000015
      -0.105,  3.07999992,      -0.105,0.0335999988
        -0.1,           3,        -0.1,0.0348000005
      -0.095,  3.16000009,      -0.095,0.0328000002
       -0.09,           3,       -0.09,0.0395999998
      -0.085,  3.07999992,      -0.085,0.0348000005
       -0.08,  3.03999996,       -0.08,0.0324000008
      -0.075,  3.07999992,      -0.075,0.0368000008
       -0.07,  2.96000004,       -0.07,0.0340000018
      -0.065,  3.03999996,      -0.065,0.0372000001
       -0.06,  2.88000011,       -0.06,0.0344000012
      -0.055,  2.92000008,      -0.055,0.0379999988
       -0.05,  2.79999995,       -0.05,0.0368000008
      -0.045,  2.83999991,      -0.045,0.0375999995
       -0.04,  2.75999999,       -0.04,0.0359999985
      -0.035,  2.83999991,      -0.035,0.0384000018
       -0.03,  2.72000003,       -0.03,0.0384000018
      -0.025,  2.83999991,      -0.025,0.0384000018
       -0.02,  2.72000003,       -0.02,0.0359999985
      -0.015,   2.6400001,      -0.015,0.0432000011
       -0.01,  2.55999994,       -0.01,0.0392000005
      -0.005,   2.6400001,      -0.005,0.0399999991
           0,  2.51999998,           0,0.0399999991
       0.005,   2.5999999,       0.005,0.0419999994
        0.01,  2.51999998,        0.01,0.0388000011
       0.015,  2.44000006,       0.015,0.0432000011
        0.02,  2.44000006,        0.02,0.0403999984
       0.025,  2.31999993,       0.025,0.0463999994
        0.03,  2.16000009,        0.03,0.0467999987
       0.035,  2.27999997,       0.035,0.0432000011
        0.04,  2.16000009,        0.04,0.0412000008
       0.045,  2.31999993,       0.045,0.0472000018
        0.05,        1.88,        0.05,0.0416000001
       0.055,           2,       0.055,0.0460000001
        0.06,  1.39999998,        0.06,0.0460000001
       0.065,  1.24000001,       0.065,0.0491999984
        0.07,  1.15999997,        0.07,0.0456000008
       0.075,  1.08000004,       0.075,0.0507999994
        0.08,  1.03999996,        0.08,0.0483999997
       0.085,        1.12,       0.085,0.0507999994
        0.09, 0.439999998,        0.09,0.0467999987
       0.095, 0.280000001,       0.095, 0.053199999
         0.1, 0.239999995,         0.1,0.0476000011
       0.105, 0.280000001,       0.105,0.0520000011
        0.11, 0.239999995,        0.11,0.0480000004
       0.115, 0.479999989,       0.115,0.0516000018
        0.12, 0.439999998,        0.12,0.0483999997
       0.125, 0.439999998,       0.125,0.0504000001
        0.13, 0.439999998,        0.13,0.0491999984
       0.135, 0.519999981,       0.135,0.0511999987
        0.14, 0.439999998,        0.14,0.0472000018
       0.145,0.0399999991,       0.145,0.0504000001
        0.15,0.0799999982,        0.15,0.0476000011
       0.155,0.0799999982,       0.155,0.0524000004
        0.16,0.0799999982,        0.16,0.0480000004
       0.165,0.0399999991,       0.165,0.0516000018
        0.17,0.0399999991,        0.17,0.0487999991
       0.175,0.0399999991,       0.175,0.0527999997
        0.18,0.0399999991,        0.18,0.0487999991
       0.185,0.0399999991,       0.185,0.0524000004
        0.19,0.0399999991,        0.19,0.0460000001
       0.195,0.0399999991,       0.195,0.0527999997
         0.2,0.0399999991,         0.2,0.0487999991
       0.205,0.0399999991,       0.205, 0.053199999
        0.21,0.0399999991,        0.21,0.0496000014
       0.215,0.0399999991,       0.215,0.0527999997
        0.22,0.0399999991,        0.22,0.0496000014
       0.225,           0,       0.225,0.0527999997
        0.23,0.0399999991,        0.23,0.0483999997
       0.235,0.0399999991,       0.235,0.0568000004
        0.24,0.0399999991,        0.24,0.0487999991
       0.245,0.0399999991,       0.245,0.0507999994
        0.25,0.0799999982,        0.25,0.0496000014
       0.255,0.0399999991,       0.255,0.0524000004
        0.26,0.0399999991,        0.26,0.0500000007
       0.265,0.0399999991,       0.265,0.0524000004
        0.27,0.0399999991,        0.27,0.0500000007
       0.275,0.0399999991,       0.275,      0.0548
        0.28,0.0399999991,        0.28,0.0491999984
       0.285,           0,       0.285,0.0520000011
        0.29,0.0399999991,        0.29,0.0507999994
       0.295,0.0399999991,       0.295,0.0511999987
         0.3,0.0399999991,         0.3,0.0491999984
       0.305,0.0399999991,       0.305,0.0496000014
        0.31,0.0399999991,        0.31,0.0500000007
       0.315,           0,       0.315,0.0544000007
        0.32,           0,        0.32,0.0487999991
       0.325,0.0399999991,       0.325,0.0540000014
        0.33,0.0399999991,        0.33,0.0491999984
       0.335,0.0399999991,       0.335,0.0500000007
        0.34,0.0399999991,        0.34,0.0476000011
       0.345,0.0399999991,       0.345,0.0527999997
        0.35,0.0399999991,        0.35,0.0496000014
       0.355,0.0399999991,       0.355,0.0535999984
        0.36,0.0399999991,        0.36,0.0491999984
       0.365,           0,       0.365,0.0520000011
        0.37,0.0399999991,        0.37,0.0507999994
       0.375,0.0399999991,       0.375,0.0516000018
        0.38,0.0399999991,        0.38,0.0487999991
       0.385,0.0399999991,       0.385,0.0524000004
        0.39,0.0399999991,        0.39,0.0447999984
       0.395,0.0399999991,       0.395,0.0516000018
         0.4,           0,         0.4,0.0480000004
       0.405,0.0399999991,       0.405,0.0511999987
        0.41,0.0399999991,        0.41,0.0504000001
       0.415,           0,       0.415,0.0511999987
        0.42,0.0399999991,        0.42,0.0467999987
       0.425,0.0799999982,       0.425,0.0507999994
        0.43,0.0399999991,        0.43,0.0472000018
       0.435,0.0399999991,       0.435,0.0500000007
        0.44,0.0399999991,        0.44,0.0483999997
       0.445,0.0799999982,       0.445,0.0540000014
        0.45,0.0399999991,        0.45,0.0511999987
       0.455,0.0399999991,       0.455,0.0527999997
        0.46,0.0399999991,        0.46,0.0507999994
       0.465,0.0399999991,       0.465,0.0511999987
        0.47,0.0399999991,        0.47,0.0500000007
       0.475,0.0799999982,       0.475,0.0491999984
        0.48,0.0399999991,        0.48,0.0504000001
       0.485,0.0399999991,       0.485,0.0524000004
        0.49,0.0399999991,        0.49,0.0487999991
       0.495,0.0399999991,       0.495,0.0535999984
         0.5,0.0399999991,         0.5,0.0500000007
       0.505,0.0399999991,       0.505,0.0504000001
        0.51,0.0399999991,        0.51,0.0487999991
       0.515,0.0399999991,       0.515,0.0535999984
        0.52,           0,        0.52,0.0496000014
       0.525,0.0399999991,       0.525,0.0507999994
        0.53,0.0399999991,        0.53,0.0487999991
       0.535,0.0399999991,       0.535,0.0511999987
        0.54,0.0399999991,        0.54,0.0507999994
       0.545,0.0399999991,       0.545,0.0516000018
        0.55,0.0399999991,        0.55,0.0496000014
       0.555,0.0399999991,       0.555,0.0516000018
        0.56,0.0399999991,        0.56,0.0491999984
       0.565,0.0399999991,       0.565,0.0511999987
        0.57,0.0799999982,        0.57,0.0472000018
       0.575,0.0399999991,       0.575,0.0504000001
        0.58,0.0399999991,        0.58,0.0500000007
       0.585,0.0399999991,       0.585,0.0507999994
        0.59,0.0399999991,        0.59,0.0463999994
       0.595,0.0399999991,       0.595,0.0524000004
         0.6,0.0399999991,         0.6,0.0500000007
       0.605,           0,       0.605,0.0527999997
        0.61,0.0399999991,        0.61,0.0500000007
       0.615,0.0399999991,       0.615,0.0520000011
        0.62,0.0399999991,        0.62,0.0483999997
       0.625,0.0399999991,       0.625,0.0516000018
        0.63,0.0399999991,        0.63,0.0472000018
       0.635,0.0799999982,       0.635,0.0496000014
        0.64,           0,        0.64,0.0491999984
       0.645,0.0399999991,       0.645,0.0496000014
        0.65,0.0399999991,        0.65,0.0487999991
       0.655,0.0799999982,       0.655,0.0507999994
        0.66,0.0399999991,        0.66,0.0460000001
       0.665,0.0399999991,       0.665,0.0500000007
        0.67,0.0399999991,        0.67,0.0500000007
       0.675,0.0399999991,       0.675,0.0504000001
        0.68,0.0399999991,        0.68,0.0496000014
       0.685,0.0799999982,       0.685,0.0504000001
        0.69,0.0399999991,        0.69,0.0480000004
       0.695,0.0399999991,       0.695,0.0500000007
         0.7,0.0399999991,         0.7,0.0467999987
       0.705,0.0399999991,       0.705,0.0500000007
        0.71,0.0799999982,        0.71,0.0480000004
       0.715,0.0399999991,       0.715,0.0520000011
        0.72,0.0399999991,        0.72,0.0476000011
       0.725,0.0399999991,       0.725,0.0520000011
        0.73,0.0399999991,        0.73,0.0483999997
       0.735,0.0399999991,       0.735, 0.053199999
        0.74,0.0399999991,        0.74,0.0467999987
       0.745,0.0399999991,       0.745,0.0520000011
        0.75,0.0399999991,        0.75,0.0496000014
       0.755,0.0399999991,       0.755,0.0516000018
        0.76,0.0399999991,        0.76,0.0500000007
       0.765,           0,       0.765,0.0491999984
        0.77,0.0399999991,        0.77,0.0487999991
       0.775,0.0799999982,       0.775,0.0491999984
        0.78,           0,        0.78,0.0496000014
       0.785,           0,       0.785,0.0527999997
        0.79,0.0399999991,        0.79,0.0467999987
       0.795,0.0399999991,       0.795,0.0500000007
         0.8,0.0399999991,         0.8,0.0467999987
       0.805,0.0399999991,       0.805,0.0504000001
        0.81,0.0399999991,        0.81,0.0447999984
       0.815,0.0399999991,       0.815,0.0520000011
        0.82,0.0399999991,        0.82,0.0476000011
       0.825,0.0399999991,       0.825,0.0516000018
        0.83,0.0399999991,        0.83,0.0467999987
       0.835,           0,       0.835,0.0507999994
        0.84,0.0399999991,        0.84,0.0487999991
       0.845,0.0399999991,       0.845,0.0524000004
        0.85,           0,        0.85,0.0483999997
       0.855,0.0399999991,       0.855,0.0520000011
        0.86,0.0399999991,        0.86,0.0487999991
       0.865,0.0399999991,       0.865,0.0491999984
        0.87,0.0399999991,        0.87,0.0483999997
       0.875,0.0399999991,       0.875,0.0496000014
        0.88,0.0399999991,        0.88,0.0472000018
       0.885,0.0399999991,       0.885,0.0524000004
        0.89,0.0399999991,        0.89,0.0467999987
       0.895,0.0399999991,       0.895,0.0500000007
         0.9,0.0399999991,         0.9,0.0467999987
       0.905,0.0399999991,       0.905, 0.053199999
        0.91,0.0399999991,        0.91,0.0472000018
       0.915,0.0399999991,       0.915,0.0507999994
        0.92,0.0399999991,        0.92,0.0467999987
       0.925,0.0799999982,       0.925,0.0511999987
        0.93,           0,        0.93,0.0491999984
       0.935,0.0399999991,       0.935,0.0507999994
        0.94,0.0399999991,        0.94,0.0496000014
       0.945,0.0799999982,       0.945,0.0507999994
        0.95,0.0399999991,        0.95,0.0472000018
       0.955,           0,       0.955,0.0511999987
        0.96,0.0399999991,        0.96,0.0472000018
       0.965,0.0399999991,       0.965,0.0511999987
        0.97,0.0799999982,        0.97,0.0483999997
       0.975,0.0399999991,       0.975,0.0500000007
        0.98,0.0399999991,        0.98,0.0480000004
       0.985,0.0399999991,       0.985,0.0516000018
        0.99,0.0399999991,        0.99,0.0472000018
       0.995,0.0799999982,       0.995,0.0491999984
           1,0.0399999991,           1,0.0467999987
       1.005,           0,       1.005,0.0491999984
        1.01,0.0399999991,        1.01,0.0472000018
       1.015,0.0399999991,       1.015,0.0520000011
        1.02,           0,        1.02,0.0460000001
       1.025,0.0399999991,       1.025,0.0500000007
        1.03,           0,        1.03,0.0480000004
       1.035,0.0399999991,       1.035,0.0491999984
        1.04,0.0399999991,        1.04,0.0500000007
       1.045,0.0399999991,       1.045,0.0487999991
        1.05,0.0399999991,        1.05,0.0491999984
       1.055,0.0399999991,       1.055,0.0511999987
        1.06,0.0399999991,        1.06,0.0447999984
       1.065,0.0399999991,       1.065,0.0496000014
        1.07,0.0399999991,        1.07,0.0491999984
       1.075,           0,       1.075,0.0524000004
        1.08,0.0399999991,        1.08,0.0491999984
       1.085,0.0399999991,       1.085,0.0524000004
        1.09,           0,        1.09,0.0476000011
       1.095,0.0399999991,       1.095, 0.053199999
         1.1,0.0399999991,         1.1,0.0483999997
       1.105,0.0399999991,       1.105,0.0507999994
        1.11,0.0399999991,        1.11,0.0483999997
       1.115,0.0399999991,       1.115,0.0487999991
        1.12,0.0399999991,        1.12,0.0463999994
       1.125,0.0399999991,       1.125,0.0511999987
        1.13,0.0399999991,        1.13,0.0467999987
       1.135,           0,       1.135,0.0504000001
        1.14,0.0799999982,        1.14,0.0487999991
       1.145,0.0399999991,       1.145,0.0511999987
        1.15,           0,        1.15,0.0500000007
       1.155,0.0399999991,       1.155,0.0487999991
        1.16,0.0399999991,        1.16,0.0500000007
       1.165,0.0399999991,       1.165,0.0500000007
        1.17,0.0399999991,        1.17,0.0472000018
       1.175,0.0399999991,       1.175,0.0500000007
        1.18,0.0399999991,        1.18,0.0460000001
       1.185,0.0399999991,       1.185,0.0520000011
        1.19,0.0399999991,        1.19,0.0476000011
       1.195,0.0399999991,       1.195,0.0511999987
         1.2,0.0399999991,         1.2,0.0480000004
       1.205,           0,       1.205,0.0496000014
        1.21,0.0399999991,        1.21,0.0463999994
       1.215,0.0399999991,       1.215,0.0491999984
        1.22,           0,        1.22,0.0483999997
       1.225,0.0399999991,       1.225,0.0504000001
        1.23,0.0399999991,        1.23,0.0480000004
       1.235,0.0399999991,       1.235,0.0487999991
        1.24,0.0399999991,        1.24,0.0476000011
       1.245,0.0399999991,       1.245,0.0504000001
        1.25,0.0399999991,        1.25,0.0491999984
       1.255,0.0399999991,       1.255,0.0511999987
        1.26,0.0399999991,        1.26,0.0483999997
       1.265,0.0399999991,       1.265,0.0500000007
        1.27,0.0399999991,        1.27,0.0496000014
       1.275,0.0399999991,       1.275, 0.053199999
        1.28,0.0399999991,        1.28,0.0483999997
       1.285,0.0399999991,       1.285,0.0504000001
        1.29,0.0399999991,        1.29,0.0483999997
       1.295,0.0399999991,       1.295,0.0487999991
         1.3,0.0399999991,         1.3,0.0483999997
       1.305,0.0399999991,       1.305,0.0504000001
        1.31,0.0399999991,        1.31,0.0487999991
       1.315,0.0399999991,       1.315,0.0496000014
        1.32,0.0399999991,        1.32,0.0483999997
       1.325,0.0399999991,       1.325,0.0496000014
        1.33,           0,        1.33,0.0491999984
       1.335,0.0399999991,       1.335,0.0491999984
        1.34,           0,        1.34,0.0483999997
       1.345,0.0799999982,       1.345,0.0504000001
        1.35,0.0399999991,        1.35,0.0500000007
       1.355,0.0399999991,       1.355,0.0491999984
        1.36,0.0399999991,        1.36,0.0480000004
       1.365,0.0799999982,       1.365,0.0504000001
        1.37,0.0799999982,        1.37,0.0480000004
       1.375,0.0399999991,       1.375,0.0516000018
        1.38,0.0799999982,        1.38,0.0452000014
       1.385,0.0399999991,       1.385,0.0520000011
        1.39,0.0399999991,        1.39,0.0480000004
       1.395,0.0399999991,       1.395,0.0500000007
         1.4,0.0399999991,         1.4,0.0480000004
       1.405,0.0399999991,       1.405,0.0507999994
        1.41,0.0399999991,        1.41,0.0491999984
       1.415,0.0399999991,       1.415,0.0500000007
        1.42,           0,        1.42,0.0476000011
       1.425,0.0399999991,       1.425,0.0540000014
        1.43,           0,        1.43,0.0491999984
       1.435,           0,       1.435,0.0516000018
        1.44,0.0399999991,        1.44,0.0460000001
       1.445,0.0399999991,       1.445,0.0496000014
        1.45,0.0399999991,        1.45,0.0480000004
       1.455,0.0399999991,       1.455,0.0507999994
        1.46,0.0399999991,        1.46,0.0456000008
       1.465,0.0399999991,       1.465,0.0507999994
        1.47,0.0399999991,        1.47,0.0472000018
       1.475,0.0399999991,       1.475,0.0516000018
        1.48,0.0399999991,        1.48,0.0500000007
       1.485,0.0399999991,       1.485,0.0496000014
        1.49,           0,        1.49,0.0456000008
       1.495,0.0399999991,       1.495,0.0516000018
         1.5,0.0399999991,         1.5,0.0476000011
       1.505,0.0399999991,       1.505,0.0504000001
        1.51,0.0399999991,        1.51,0.0500000007
       1.515,0.0799999982,       1.515,0.0496000014
        1.52,           0,        1.52,0.0480000004
       1.525,0.0399999991,       1.525,0.0511999987
        1.53,0.0399999991,        1.53,0.0496000014
       1.535,0.0399999991,       1.535,0.0504000001
        1.54,0.0399999991,        1.54,0.0487999991
       1.545,0.0399999991,       1.545,0.0527999997
        1.55,0.0399999991,        1.55,0.0491999984
       1.555,0.0399999991,       1.555,0.0527999997
        1.56,0.0399999991,        1.56,0.0500000007
       1.565,           0,       1.565,0.0491999984
        1.57,           0,        1.57,0.0460000001
       1.575,0.0399999991,       1.575,0.0496000014
        1.58,0.0399999991,        1.58,0.0460000001
       1.585,0.0799999982,       1.585,0.0516000018
        1.59,0.0399999991,        1.59,0.0496000014
       1.595,0.0399999991,       1.595,0.0507999994
         1.6,0.0399999991,         1.6,0.0476000011
       1.605,0.0399999991,       1.605,0.0504000001
        1.61,0.0399999991,        1.61,0.0487999991
       1.615,0.0799999982,       1.615,0.0504000001
        1.62,0.0399999991,        1.62,0.0491999984
       1.625,0.0399999991,       1.625,0.0540000014
        1.63,0.0399999991,        1.63,0.0480000004
       1.635,0.0399999991,       1.635,0.0483999997
        1.64,0.0399999991,        1.64,0.0480000004
       1.645,0.0399999991,       1.645,0.0491999984
        1.65,0.0399999991,        1.65,0.0467999987
       1.655,           0,       1.655,0.0500000007
        1.66,0.0399999991,        1.66,0.0483999997
       1.665,0.0399999991,       1.665,0.0507999994
        1.67,0.0799999982,        1.67,0.0496000014
       1.675,0.0399999991,       1.675,0.0504000001
        1.68,0.0799999982,        1.68,0.0480000004
       1.685,0.0399999991,       1.685,0.0527999997
        1.69,0.0399999991,        1.69,0.0472000018
       1.695,0.0399999991,       1.695,0.0516000018
         1.7,0.0399999991,         1.7,0.0467999987
       1.705,0.0399999991,       1.705,0.0516000018
        1.71,0.0399999991,        1.71,0.0480000004
       1.715,0.0399999991,       1.715,0.0527999997
        1.72,0.0399999991,        1.72,0.0460000001
       1.725, 0.119999997,       1.725,0.0516000018
        1.73,0.0399999991,        1.73,0.0460000001
       1.735,0.0399999991,       1.735,0.0520000011
        1.74,0.0399999991,        1.74,0.0504000001
       1.745,0.0399999991,       1.745,0.0507999994
        1.75,           0,        1.75,0.0487999991
       1.755,0.0399999991,       1.755,0.0504000001
        1.76,0.0399999991,        1.76,0.0472000018
       1.765,0.0399999991,       1.765,0.0511999987
        1.77,0.0399999991,        1.77,0.0476000011
       1.775,0.0399999991,       1.775,0.0507999994
        1.78,0.0399999991,        1.78,0.0511999987
       1.785,0.0399999991,       1.785,0.0504000001
        1.79,0.0799999982,        1.79,0.0472000018
       1.795,           0,       1.795,0.0520000011
         1.8,0.0399999991,         1.8,0.0504000001
       1.805,0.0399999991,       1.805,0.0520000011
        1.81,0.0399999991,        1.81,0.0472000018
       1.815,0.0399999991,       1.815,0.0500000007
        1.82,0.0399999991,        1.82,0.0472000018
       1.825,0.0399999991,       1.825,0.0500000007
        1.83,0.0399999991,        1.83,0.0504000001
       1.835,           0,       1.835,0.0516000018
        1.84,0.0399999991,        1.84,0.0491999984
       1.845,0.0399999991,       1.845,0.0511999987
        1.85,0.0399999991,        1.85,0.0483999997
       1.855,0.0399999991,       1.855,0.0496000014
        1.86,0.0399999991,        1.86,0.0480000004
       1.865,0.0399999991,       1.865,0.0476000011
        1.87,0.0399999991,        1.87,0.0480000004
       1.875,0.0799999982,       1.875,0.0520000011
        1.88,0.0399999991,        1.88,0.0476000011
       1.885,0.0399999991,       1.885,0.0496000014
        1.89,0.0399999991,        1.89,0.0476000011
       1.895,0.0399999991,       1.895,0.0507999994
         1.9,0.0399999991,         1.9,0.0491999984
       1.905,0.0399999991,       1.905,0.0467999987
        1.91,           0,        1.91,0.0476000011
       1.915,0.0399999991,       1.915,0.0476000011
        1.92,0.0399999991,        1.92,0.0504000001
       1.925,0.0399999991,       1.925,0.0491999984
        1.93,0.0399999991,        1.93,0.0500000007
       1.935,0.0399999991,       1.935,0.0507999994
        1.94,0.0399999991,        1.94,0.0476000011
       1.945,0.0399999991,       1.945,0.0500000007
        1.95,0.0399999991,        1.95,0.0491999984
       1.955,0.0399999991,       1.955,0.0491999984
        1.96,0.0399999991,        1.96,0.0463999994
       1.965,0.0399999991,       1.965,0.0504000001
        1.97,0.0399999991,        1.97,0.0496000014
       1.975,0.0399999991,       1.975,0.0527999997
        1.98,0.0399999991,        1.98,0.0487999991
       1.985,0.0399999991,       1.985,0.0491999984
        1.99,0.0399999991,        1.99,0.0480000004
       1.995,0.0399999991,       1.995,0.0500000007
           2,0.0799999982,           2,0.0483999997
       2.005,0.0399999991,       2.005,0.0500000007
        2.01,0.0799999982,        2.01,0.0472000018
       2.015,0.0399999991,       2.015,0.0491999984
        2.02,0.0399999991,        2.02,0.0487999991
       2.025,0.0399999991,       2.025,0.0504000001
        2.03,0.0399999991,        2.03,0.0483999997
       2.035,0.0399999991,       2.035,0.0520000011
        2.04,0.0399999991,        2.04,0.0480000004
       2.045,0.0399999991,       2.045,0.0507999994
        2.05,0.0399999991,        2.05,0.0472000018
       2.055,0.0799999982,       2.055,0.0496000014
        2.06,0.0399999991,        2.06,0.0483999997
       2.065,0.0399999991,       2.065,0.0500000007
        2.07,0.0399999991,        2.07,0.0467999987
       2.075,0.0399999991,       2.075,0.0504000001
        2.08,0.0399999991,        2.08,0.0456000008
       2.085,0.0399999991,       2.085,0.0500000007
        2.09,0.0399999991,        2.09,0.0480000004
       2.095,           0,       2.095,0.0511999987
         2.1,0.0799999982,         2.1,0.0480000004
       2.105,0.0399999991,       2.105,0.0504000001
        2.11,0.0399999991,        2.11,0.0476000011
       2.115,0.0399999991,       2.115,0.0504000001
        2.12,           0,        2.12,0.0460000001
       2.125,           0,       2.125,0.0504000001
        2.13,0.0399999991,        2.13,0.0447999984
       2.135,0.0399999991,       2.135,0.0520000011
        2.14,0.0399999991,        2.14,0.0491999984
       2.145,0.0399999991,       2.145,0.0491999984
        2.15,0.0399999991,        2.15,0.0472000018
       2.155,0.0399999991,       2.155,0.0511999987
        2.16,0.0399999991,        2.16,0.0476000011
       2.165,           0,       2.165,0.0511999987
        2.17,0.0399999991,        2.17,0.0483999997
       2.175,0.0399999991,       2.175,0.0520000011
        2.18,0.0399999991,        2.18,0.0487999991
       2.185,0.0799999982,       2.185,0.0500000007
        2.19,0.0399999991,        2.19,0.0480000004
       2.195,0.0399999991,       2.195,0.0516000018
         2.2,0.0399999991,         2.2,0.0480000004
       2.205,0.0399999991,       2.205,0.0511999987
        2.21,0.0399999991,        2.21,0.0500000007
       2.215,0.0799999982,       2.215,0.0500000007
        2.22,0.0799999982,        2.22,0.0491999984
       2.225,0.0399999991,       2.225,0.0500000007
        2.23,0.0399999991,        2.23,0.0472000018
       2.235,0.0399999991,       2.235,0.0483999997
        2.24,0.0399999991,        2.24,0.0491999984
       2.245,0.0399999991,       2.245,0.0472000018
        2.25,0.0399999991,        2.25,0.0491999984
       2.255,0.0399999991,       2.255,0.0504000001
        2.26,0.0399999991,        2.26,0.0496000014
       2.265,0.0399999991,       2.265,0.0483999997
        2.27,           0,        2.27,0.0463999994
       2.275,0.0399999991,       2.275,0.0480000004
        2.28,0.0799999982,        2.28,0.0483999997
       2.285,0.0399999991,       2.285,0.0500000007
        2.29,0.0399999991,        2.29,0.0500000007
       2.295,0.0399999991,       2.295,0.0511999987
         2.3,0.0799999982,         2.3,0.0460000001
       2.305,0.0399999991,       2.305,0.0467999987
        2.31,0.0399999991,        2.31,0.0496000014
       2.315,0.0399999991,       2.315,0.0504000001
        2.32,           0,        2.32,0.0460000001
       2.325,0.0399999991,       2.325,0.0507999994
        2.33,0.0399999991,        2.33,0.0480000004
       2.335,0.0399999991,       2.335,0.0504000001
        2.34,0.0399999991,        2.34,0.0507999994
       2.345,0.0799999982,       2.345,0.0496000014
        2.35,0.0399999991,        2.35,0.0480000004
       2.355,           0,       2.355,0.0504000001
        2.36,           0,        2.36,0.0496000014
       2.365,0.0399999991,       2.365,0.0504000001
        2.37,0.0399999991,        2.37,0.0487999991
       2.375,0.0399999991,       2.375,0.0535999984
        2.38,0.0399999991,        2.38,0.0496000014
       2.385,0.0799999982,       2.385,0.0520000011
        2.39,           0,        2.39,0.0483999997
       2.395,0.0399999991,       2.395,0.0507999994
         2.4,0.0399999991,         2.4,0.0476000011
       2.405,0.0399999991,       2.405,0.0496000014
        2.41,           0,        2.41,0.0476000011
       2.415,0.0799999982,       2.415,0.0511999987
        2.42,0.0399999991,        2.42,0.0472000018
       2.425,0.0399999991,       2.425,0.0516000018
        2.43,0.0399999991,        2.43,0.0483999997
       2.435,           0,       2.435,0.0480000004
        2.44,0.0399999991,        2.44,0.0476000011
       2.445,0.0399999991,       2.445,0.0527999997
        2.45,0.0399999991,        2.45,0.0483999997
       2.455,0.0399999991,       2.455,0.0504000001
        2.46,0.0399999991,        2.46,0.0467999987
       2.465,0.0399999991,       2.465,0.0516000018
        2.47,           0,        2.47,0.0496000014
       2.475,0.0399999991,       2.475,0.0504000001
        2.48,0.0399999991,        2.48,0.0480000004
       2.485,0.0399999991,       2.485,0.0496000014
        2.49,           0,        2.49,0.0472000018
       2.495,           0,       2.495,0.0516000018