s,Volts,s,Volts
        -2.5,  1.96000004,        -2.5,-0.00079999998
      -2.495,  1.96000004,      -2.495,-0.00120000006
       -2.49,           2,       -2.49,-0.00159999996
      -2.485,  1.96000004,      -2.485,0.00079999998
       -2.48,           2,       -2.48,-0.00159999996
      -2.475,  1.96000004,      -2.475,-0.00439999998
       -2.47,           2,       -2.47,-0.00159999996
      -2.465,  1.91999996,      -2.465,-0.00159999996
       -2.46,  1.91999996,       -2.46,-0.00240000011
      -2.455,  1.96000004,      -2.455,-0.00400000019
       -2.45,           2,       -2.45,0.00159999996
      -2.445,  1.96000004,      -2.445,-0.00319999992
       -2.44,  1.91999996,       -2.44,-0.00159999996
      -2.435,  1.96000004,      -2.435,-0.00039999999
       -2.43,  1.96000004,       -2.43,-0.00359999994
      -2.425,  1.96000004,      -2.425,-0.00159999996
       -2.42,           2,       -2.42,-0.00159999996
      -2.415,  1.96000004,      -2.415,-0.00120000006
       -2.41,  1.96000004,       -2.41,-0.00079999998
      -2.405,  1.91999996,      -2.405,-0.00039999999
        -2.4,  1.96000004,        -2.4,0.00039999999
      -2.395,  1.96000004,      -2.395,0.00120000006
       -2.39,  1.96000004,       -2.39,-0.00039999999
      -2.385,           2,      -2.385,0.00240000011
       -2.38,  1.91999996,       -2.38,0.00039999999
      -2.375,  1.96000004,      -2.375,-0.0027999999
       -2.37,  1.96000004,       -2.37,-0.00240000011
      -2.365,  1.96000004,      -2.365,-0.00079999998
       -2.36,  1.91999996,       -2.36,-0.00039999999
      -2.355,  1.96000004,      -2.355,-0.00439999998
       -2.35,  1.96000004,       -2.35,-0.00120000006
      -2.345,  1.91999996,      -2.345,-0.00120000006
       -2.34,           2,       -2.34,-0.00159999996
      -2.335,           2,      -2.335,-0.00079999998
       -2.33,  1.96000004,       -2.33,-0.00359999994
      -2.325,           2,      -2.325,-0.00200000009
       -2.32,  1.96000004,       -2.32,-0.00159999996
      -2.315,  1.96000004,      -2.315,-0.00159999996
       -2.31,  1.96000004,       -2.31,-0.00240000011
      -2.305,  1.96000004,      -2.305,-0.00079999998
        -2.3,  1.96000004,        -2.3,-0.00079999998
      -2.295,  1.96000004,      -2.295,0.00039999999
       -2.29,  1.91999996,       -2.29,-0.00159999996
      -2.285,  1.96000004,      -2.285,-0.00240000011
       -2.28,           2,       -2.28,0.00120000006
      -2.275,           2,      -2.275,-0.00120000006
       -2.27,  1.91999996,       -2.27,-0.00079999998
      -2.265,  1.96000004,      -2.265,-0.00120000006
       -2.26,           2,       -2.26,-0.00319999992
      -2.255,           2,      -2.255,-0.00120000006
       -2.25,  1.91999996,       -2.25,-0.00159999996
      -2.245,  1.96000004,      -2.245,-0.00319999992
       -2.24,  1.96000004,       -2.24,-0.0027999999
      -2.235,           2,      -2.235,-0.00200000009
       -2.23,  1.96000004,       -2.23,           0
      -2.225,  1.96000004,      -2.225,-0.0027999999
       -2.22,  1.96000004,       -2.22,-0.00039999999
      -2.215,  1.96000004,      -2.215,-0.00079999998
       -2.21,  1.96000004,       -2.21,-0.00120000006
      -2.205,  1.91999996,      -2.205,-0.00120000006
        -2.2,  1.96000004,        -2.2,0.00039999999
      -2.195,  1.91999996,      -2.195,-0.0027999999
       -2.19,  1.96000004,       -2.19,-0.00159999996
      -2.185,  1.96000004,      -2.185,-0.00159999996
       -2.18,           2,       -2.18,-0.00120000006
      -2.175,  1.96000004,      -2.175,-0.00200000009
       -2.17,  1.96000004,       -2.17,-0.00120000006
      -2.165,  1.96000004,      -2.165,-0.0027999999
       -2.16,  1.96000004,       -2.16,-0.00200000009
      -2.155,  1.91999996,      -2.155,-0.00240000011
       -2.15,           2,       -2.15,0.00120000006
      -2.145,  1.96000004,      -2.145,-0.00319999992
       -2.14,  1.96000004,       -2.14,-0.00120000006
      -2.135,  1.96000004,      -2.135,-0.00159999996
       -2.13,  1.96000004,       -2.13,0.00240000011
      -2.125,  1.96000004,      -2.125,-0.00240000011
       -2.12,  1.96000004,       -2.12,-0.00240000011
      -2.115,  1.96000004,      -2.115,-0.00120000006
       -2.11,  1.96000004,       -2.11,-0.00120000006
      -2.105,  1.96000004,      -2.105,-0.00120000006
        -2.1,  1.96000004,        -2.1,-0.00159999996
      -2.095,  1.96000004,      -2.095,-0.00200000009
       -2.09,  1.96000004,       -2.09,-0.00039999999
      -2.085,  1.96000004,      -2.085,-0.00159999996
       -2.08,  1.96000004,       -2.08,0.00120000006
      -2.075,  1.96000004,      -2.075,-0.00079999998
       -2.07,  1.96000004,       -2.07,-0.00079999998
      -2.065,  1.91999996,      -2.065,0.00159999996
       -2.06,  1.96000004,       -2.06,0.00039999999
      -2.055,  1.96000004,      -2.055,-0.00039999999
       -2.05,           2,       -2.05,-0.00120000006
      -2.045,  1.91999996,      -2.045,-0.00159999996
       -2.04,  1.96000004,       -2.04,-0.00079999998
      -2.035,  1.91999996,      -2.035,-0.00159999996
       -2.03,  1.96000004,       -2.03,-0.00039999999
      -2.025,  1.96000004,      -2.025,           0
       -2.02,  1.96000004,       -2.02,-0.00079999998
      -2.015,  1.96000004,      -2.015,           0
       -2.01,  1.96000004,       -2.01,0.00039999999
      -2.005,  1.96000004,      -2.005,-0.00039999999
          -2,  1.96000004,          -2,0.00240000011
      -1.995,  1.96000004,      -1.995,0.00120000006
       -1.99,  1.96000004,       -1.99,-0.00319999992
      -1.985,  1.96000004,      -1.985,-0.00159999996
       -1.98,  1.91999996,       -1.98,-0.00159999996
      -1.975,  1.96000004,      -1.975,           0
       -1.97,  1.96000004,       -1.97,-0.00039999999
      -1.965,           2,      -1.965,-0.00200000009
       -1.96,  1.96000004,       -1.96,-0.00039999999
      -1.955,  1.91999996,      -1.955,-0.00400000019
       -1.95,  1.96000004,       -1.95,-0.00120000006
      -1.945,  1.91999996,      -1.945,-0.00240000011
       -1.94,  1.91999996,       -1.94,-0.00240000011
      -1.935,  1.91999996,      -1.935,           0
       -1.93,  1.91999996,       -1.93,-0.00240000011
      -1.925,           2,      -1.925,-0.00120000006
       -1.92,  1.96000004,       -1.92,-0.00120000006
      -1.915,  1.91999996,      -1.915,           0
       -1.91,  1.91999996,       -1.91,0.00159999996
      -1.905,  1.96000004,      -1.905,0.00039999999
        -1.9,  1.91999996,        -1.9,           0
      -1.895,  1.91999996,      -1.895,-0.00200000009
       -1.89,  1.96000004,       -1.89,-0.00079999998
      -1.885,  1.96000004,      -1.885,-0.00079999998
       -1.88,  1.96000004,       -1.88,0.00079999998
      -1.875,  1.96000004,      -1.875,0.00159999996
       -1.87,  1.96000004,       -1.87,-0.00200000009
      -1.865,  1.96000004,      -1.865,0.0027999999
       -1.86,  1.91999996,       -1.86,           0
      -1.855,  1.91999996,      -1.855,-0.00319999992
       -1.85,  1.96000004,       -1.85,-0.00159999996
      -1.845,  1.96000004,      -1.845,           0
       -1.84,  1.96000004,       -1.84,0.00039999999
      -1.835,  1.91999996,      -1.835,-0.00120000006
       -1.83,  1.91999996,       -1.83,-0.00039999999
      -1.825,  1.91999996,      -1.825,-0.00159999996
       -1.82,  1.96000004,       -1.82,-0.00319999992
      -1.815,  1.96000004,      -1.815,-0.00120000006
       -1.81,           2,       -1.81,-0.00159999996
      -1.805,  1.91999996,      -1.805,-0.00159999996
        -1.8,           2,        -1.8,0.00159999996
      -1.795,  1.91999996,      -1.795,-0.00120000006
       -1.79,  1.96000004,       -1.79,0.00240000011
      -1.785,  1.96000004,      -1.785,-0.00039999999
       -1.78,  1.96000004,       -1.78,-0.00319999992
      -1.775,  1.96000004,      -1.775,-0.00039999999
       -1.77,  1.91999996,       -1.77,-0.00079999998
      -1.765,  1.91999996,      -1.765,-0.00120000006
       -1.76,  1.96000004,       -1.76,-0.00079999998
      -1.755,  1.91999996,      -1.755,-0.00200000009
       -1.75,  1.96000004,       -1.75,-0.00240000011
      -1.745,  1.91999996,      -1.745,-0.00039999999
       -1.74,  1.96000004,       -1.74,           0
      -1.735,  1.91999996,      -1.735,-0.00120000006
       -1.73,  1.96000004,       -1.73,0.00039999999
      -1.725,  1.96000004,      -1.725,-0.00079999998
       -1.72,  1.91999996,       -1.72,-0.00079999998
      -1.715,  1.96000004,      -1.715,-0.00120000006
       -1.71,  1.91999996,       -1.71,0.00079999998
      -1.705,  1.96000004,      -1.705,-0.00120000006
        -1.7,  1.91999996,        -1.7,-0.00039999999
      -1.695,  1.96000004,      -1.695,-0.00120000006
       -1.69,  1.91999996,       -1.69,-0.00120000006
      -1.685,  1.96000004,      -1.685,-0.00039999999
       -1.68,  1.91999996,       -1.68,0.00200000009
      -1.675,  1.96000004,      -1.675,-0.0027999999
       -1.67,  1.91999996,       -1.67,           0
      -1.665,  1.91999996,      -1.665,0.00039999999
       -1.66,  1.91999996,       -1.66,-0.00039999999
      -1.655,  1.96000004,      -1.655,-0.00079999998
       -1.65,  1.91999996,       -1.65,           0
      -1.645,  1.91999996,      -1.645,-0.00079999998
       -1.64,  1.91999996,       -1.64,-0.00240000011
      -1.635,  1.91999996,      -1.635,-0.00200000009
       -1.63,  1.91999996,       -1.63,-0.00039999999
      -1.625,  1.96000004,      -1.625,-0.00159999996
       -1.62,  1.96000004,       -1.62,-0.00120000006
      -1.615,  1.91999996,      -1.615,-0.00159999996
       -1.61,  1.96000004,       -1.61,-0.00120000006
      -1.605,  1.96000004,      -1.605,-0.00120000006
        -1.6,  1.91999996,        -1.6,           0
      -1.595,  1.96000004,      -1.595,-0.00079999998
       -1.59,  1.91999996,       -1.59,           0
      -1.585,  1.91999996,      -1.585,0.00120000006
       -1.58,  1.91999996,       -1.58,-0.00200000009
      -1.575,  1.91999996,      -1.575,0.00079999998
       -1.57,  1.91999996,       -1.57,-0.00240000011
      -1.565,  1.91999996,      -1.565,-0.00319999992
       -1.56,  1.91999996,       -1.56,0.00159999996
      -1.555,  1.91999996,      -1.555,-0.00079999998
       -1.55,  1.91999996,       -1.55,-0.00319999992
      -1.545,  1.91999996,      -1.545,-0.00159999996
       -1.54,  1.91999996,       -1.54,           0
      -1.535,  1.96000004,      -1.535,-0.00079999998
       -1.53,  1.91999996,       -1.53,-0.00200000009
      -1.525,  1.91999996,      -1.525,-0.0027999999
       -1.52,  1.91999996,       -1.52,-0.00120000006
      -1.515,  1.91999996,      -1.515,-0.00079999998
       -1.51,  1.91999996,       -1.51,           0
      -1.505,  1.91999996,      -1.505,0.00120000006
        -1.5,  1.91999996,        -1.5,-0.00079999998
      -1.495,  1.96000004,      -1.495,-0.00039999999
       -1.49,  1.96000004,       -1.49,           0
      -1.485,  1.91999996,      -1.485,-0.00039999999
       -1.48,  1.96000004,       -1.48,-0.00159999996
      -1.475,  1.91999996,      -1.475,0.00079999998
       -1.47,  1.91999996,       -1.47,-0.00079999998
      -1.465,  1.91999996,      -1.465,-0.00120000006
       -1.46,  1.96000004,       -1.46,-0.00039999999
      -1.455,  1.91999996,      -1.455,-0.00120000006
       -1.45,  1.91999996,       -1.45,           0
      -1.445,        1.88,      -1.445,-0.00039999999
       -1.44,  1.91999996,       -1.44,-0.00079999998
      -1.435,  1.91999996,      -1.435,           0
       -1.43,  1.91999996,       -1.43,-0.00120000006
      -1.425,  1.96000004,      -1.425,-0.00079999998
       -1.42,  1.91999996,       -1.42,-0.00039999999
      -1.415,  1.96000004,      -1.415,-0.0027999999
       -1.41,  1.91999996,       -1.41,-0.00039999999
      -1.405,  1.91999996,      -1.405,-0.00039999999
        -1.4,  1.91999996,        -1.4,0.00039999999
      -1.395,  1.91999996,      -1.395,-0.00120000006
       -1.39,  1.91999996,       -1.39,-0.00079999998
      -1.385,  1.91999996,      -1.385,-0.00359999994
       -1.38,  1.96000004,       -1.38,-0.00120000006
      -1.375,  1.91999996,      -1.375,-0.00079999998
       -1.37,  1.96000004,       -1.37,-0.00120000006
      -1.365,  1.96000004,      -1.365,0.00039999999
       -1.36,  1.91999996,       -1.36,0.00120000006
      -1.355,  1.91999996,      -1.355,           0
       -1.35,  1.96000004,       -1.35,-0.00159999996
      -1.345,  1.91999996,      -1.345,-0.00120000006
       -1.34,  1.91999996,       -1.34,-0.00159999996
      -1.335,  1.96000004,      -1.335,-0.00079999998
       -1.33,  1.91999996,       -1.33,0.00039999999
      -1.325,  1.91999996,      -1.325,           0
       -1.32,  1.96000004,       -1.32,-0.00039999999
      -1.315,  1.91999996,      -1.315,-0.00039999999
       -1.31,  1.91999996,       -1.31,-0.00159999996
      -1.305,  1.91999996,      -1.305,0.00240000011
        -1.3,  1.91999996,        -1.3,-0.00039999999
      -1.295,  1.91999996,      -1.295,-0.00079999998
       -1.29,  1.96000004,       -1.29,0.00159999996
      -1.285,  1.91999996,      -1.285,0.00359999994
       -1.28,  1.91999996,       -1.28,0.00039999999
      -1.275,  1.91999996,      -1.275,0.00079999998
       -1.27,  1.91999996,       -1.27,0.00120000006
      -1.265,  1.96000004,      -1.265,           0
       -1.26,  1.91999996,       -1.26,0.00120000006
      -1.255,        1.88,      -1.255,-0.00120000006
       -1.25,  1.91999996,       -1.25,-0.00120000006
      -1.245,  1.91999996,      -1.245,0.00200000009
       -1.24,  1.91999996,       -1.24,0.00039999999
      -1.235,  1.91999996,      -1.235,-0.00079999998
       -1.23,  1.91999996,       -1.23,0.00039999999
      -1.225,        1.88,      -1.225,           0
       -1.22,  1.91999996,       -1.22,-0.00039999999
      -1.215,  1.91999996,      -1.215,0.00039999999
       -1.21,  1.91999996,       -1.21,0.00039999999
      -1.205,        1.88,      -1.205,0.00120000006
        -1.2,  1.91999996,        -1.2,0.0027999999
      -1.195,  1.91999996,      -1.195,-0.00079999998
       -1.19,        1.88,       -1.19,0.00200000009
      -1.185,  1.91999996,      -1.185,           0
       -1.18,  1.91999996,       -1.18,0.00079999998
      -1.175,        1.88,      -1.175,0.00039999999
       -1.17,  1.91999996,       -1.17,0.00079999998
      -1.165,        1.88,      -1.165,-0.00120000006
       -1.16,  1.91999996,       -1.16,0.00319999992
      -1.155,  1.91999996,      -1.155,0.00120000006
       -1.15,  1.91999996,       -1.15,0.00079999998
      -1.145,  1.91999996,      -1.145,0.00120000006
       -1.14,  1.91999996,       -1.14,0.00319999992
      -1.135,  1.91999996,      -1.135,0.00159999996
       -1.13,  1.91999996,       -1.13,-0.00039999999
      -1.125,  1.91999996,      -1.125,0.00200000009
       -1.12,        1.88,       -1.12,-0.00159999996
      -1.115,        1.88,      -1.115,0.00359999994
       -1.11,  1.91999996,       -1.11,0.00039999999
      -1.105,        1.88,      -1.105,0.00159999996
        -1.1,  1.91999996,        -1.1,0.00079999998
      -1.095,        1.88,      -1.095,0.00039999999
       -1.09,        1.88,       -1.09,0.0027999999
      -1.085,        1.88,      -1.085,0.00240000011
       -1.08,        1.88,       -1.08,0.00480000023
      -1.075,  1.91999996,      -1.075,0.00039999999
       -1.07,        1.88,       -1.07,0.00079999998
      -1.065,        1.88,      -1.065,0.0027999999
       -1.06,  1.91999996,       -1.06,0.00400000019
      -1.055,        1.88,      -1.055,0.00079999998
       -1.05,        1.88,       -1.05,0.00079999998
      -1.045,        1.88,      -1.045,0.00120000006
       -1.04,        1.88,       -1.04,0.0027999999
      -1.035,        1.88,      -1.035,0.00359999994
       -1.03,  1.91999996,       -1.03,0.00120000006
      -1.025,        1.88,      -1.025,0.00159999996
       -1.02,        1.88,       -1.02,0.0027999999
      -1.015,        1.88,      -1.015,0.00240000011
       -1.01,  1.91999996,       -1.01,-0.00039999999
      -1.005,        1.88,      -1.005,0.00639999984
          -1,        1.88,          -1,0.00120000006
      -0.995,  1.91999996,      -0.995,0.00120000006
       -0.99,        1.88,       -0.99,0.00240000011
      -0.985,        1.88,      -0.985,0.00200000009
       -0.98,        1.88,       -0.98,0.00039999999
      -0.975,        1.88,      -0.975,0.00200000009
       -0.97,        1.88,       -0.97,0.0027999999
      -0.965,        1.88,      -0.965,0.00120000006
       -0.96,        1.88,       -0.96,0.00200000009
      -0.955,        1.88,      -0.955,0.00159999996
       -0.95,        1.88,       -0.95,0.00159999996
      -0.945,        1.88,      -0.945,0.00120000006
       -0.94,        1.88,       -0.94,0.00359999994
      -0.935,        1.88,      -0.935,0.00200000009
       -0.93,  1.91999996,       -0.93,0.00240000011
      -0.925,        1.88,      -0.925,0.00079999998
       -0.92,        1.88,       -0.92,0.00159999996
      -0.915,        1.88,      -0.915,0.00319999992
       -0.91,  1.91999996,       -0.91,0.00240000011
      -0.905,        1.88,      -0.905,0.00159999996
        -0.9,        1.88,        -0.9,0.00240000011
      -0.895,  1.91999996,      -0.895,0.0027999999
       -0.89,  1.91999996,       -0.89,0.0027999999
      -0.885,        1.88,      -0.885,0.00240000011
       -0.88,        1.88,       -0.88,0.00079999998
      -0.875,        1.88,      -0.875,0.0027999999
       -0.87,  1.84000003,       -0.87,0.00079999998
      -0.865,        1.88,      -0.865,0.0055999998
       -0.86,        1.88,       -0.86,0.00480000023
      -0.855,        1.88,      -0.855,0.00200000009
       -0.85,        1.88,       -0.85,0.00240000011
      -0.845,        1.88,      -0.845,0.00159999996
       -0.84,        1.88,       -0.84,0.00200000009
      -0.835,        1.88,      -0.835,0.00120000006
       -0.83,        1.88,       -0.83,0.00400000019
      -0.825,        1.88,      -0.825,0.00319999992
       -0.82,        1.88,       -0.82,0.00319999992
      -0.815,        1.88,      -0.815,0.00439999998
       -0.81,        1.88,       -0.81,0.00319999992
      -0.805,        1.88,      -0.805,0.00319999992
        -0.8,  1.84000003,        -0.8,0.00719999988
      -0.795,  1.84000003,      -0.795,0.00400000019
       -0.79,        1.88,       -0.79,0.00480000023
      -0.785,        1.88,      -0.785,0.00319999992
       -0.78,        1.88,       -0.78,0.00439999998
      -0.775,        1.88,      -0.775,0.0027999999
       -0.77,  1.84000003,       -0.77,0.0027999999
      -0.765,        1.88,      -0.765,0.00600000005
       -0.76,        1.88,       -0.76,0.00439999998
      -0.755,        1.88,      -0.755,0.00439999998
       -0.75,        1.88,       -0.75,0.00480000023
      -0.745,        1.88,      -0.745,0.00480000023
       -0.74,        1.88,       -0.74,0.00319999992
      -0.735,  1.84000003,      -0.735,0.00600000005
       -0.73,        1.88,       -0.73,0.0027999999
      -0.725,  1.84000003,      -0.725,0.00439999998
       -0.72,  1.84000003,       -0.72,0.00159999996
      -0.715,        1.88,      -0.715,0.0027999999
       -0.71,        1.88,       -0.71,0.00480000023
      -0.705,        1.88,      -0.705,0.00520000001
        -0.7,  1.84000003,        -0.7,0.00480000023
      -0.695,  1.84000003,      -0.695,0.00480000023
       -0.69,        1.88,       -0.69,0.00240000011
      -0.685,        1.88,      -0.685,0.00400000019
       -0.68,  1.84000003,       -0.68,0.00400000019
      -0.675,        1.88,      -0.675,0.00520000001
       -0.67,  1.84000003,       -0.67,0.00520000001
      -0.665,  1.84000003,      -0.665,0.00439999998
       -0.66,        1.88,       -0.66,0.00520000001
      -0.655,  1.84000003,      -0.655,0.00719999988
       -0.65,        1.88,       -0.65,0.00480000023
      -0.645,  1.79999995,      -0.645,0.00639999984
       -0.64,        1.88,       -0.64,0.00359999994
      -0.635,        1.88,      -0.635,0.00520000001
       -0.63,        1.88,       -0.63,0.00520000001
      -0.625,  1.84000003,      -0.625,0.00600000005
       -0.62,        1.88,       -0.62,0.00400000019
      -0.615,  1.84000003,      -0.615,0.00639999984
       -0.61,  1.84000003,       -0.61,0.0055999998
      -0.605,  1.84000003,      -0.605,0.00439999998
        -0.6,  1.84000003,        -0.6,0.0055999998
      -0.595,  1.84000003,      -0.595,0.0092000002
       -0.59,  1.84000003,       -0.59,0.00719999988
      -0.585,  1.84000003,      -0.585,0.00639999984
       -0.58,  1.84000003,       -0.58,0.00480000023
      -0.575,        1.88,      -0.575,0.00680000009
       -0.57,  1.79999995,       -0.57,0.00600000005
      -0.565,  1.79999995,      -0.565,0.00680000009
       -0.56,  1.79999995,       -0.56,0.00800000038
      -0.555,  1.84000003,      -0.555,0.00600000005
       -0.55,  1.79999995,       -0.55,0.00680000009
      -0.545,  1.84000003,      -0.545,0.00719999988
       -0.54,  1.84000003,       -0.54,0.00719999988
      -0.535,  1.84000003,      -0.535,0.00480000023
       -0.53,  1.84000003,       -0.53,0.0092000002
      -0.525,  1.84000003,      -0.525,0.00760000013
       -0.52,  1.84000003,       -0.52,0.00719999988
      -0.515,  1.79999995,      -0.515,0.00719999988
       -0.51,  1.84000003,       -0.51,0.0055999998
      -0.505,  1.84000003,      -0.505,0.00999999978
        -0.5,  1.84000003,        -0.5,0.00879999995
      -0.495,  1.79999995,      -0.495,0.0083999997
       -0.49,  1.84000003,       -0.49,0.00680000009
      -0.485,  1.84000003,      -0.485,0.00800000038
       -0.48,  1.84000003,       -0.48,0.00760000013
      -0.475,  1.79999995,      -0.475,0.0092000002
       -0.47,  1.84000003,       -0.47,0.0092000002
      -0.465,  1.84000003,      -0.465,0.00760000013
       -0.46,  1.75999999,       -0.46,0.0092000002
      -0.455,  1.84000003,      -0.455,0.00879999995
       -0.45,  1.79999995,       -0.45,0.00800000038
      -0.445,  1.79999995,      -0.445,0.00800000038
       -0.44,  1.84000003,       -0.44,0.0083999997
      -0.435,  1.79999995,      -0.435,0.00719999988
       -0.43,  1.79999995,       -0.43,0.0083999997
      -0.425,  1.79999995,      -0.425,0.00639999984
       -0.42,  1.84000003,       -0.42,0.00600000005
      -0.415,  1.79999995,      -0.415,0.00719999988
       -0.41,  1.79999995,       -0.41,0.00760000013
      -0.405,  1.79999995,      -0.405,0.00800000038
        -0.4,  1.79999995,        -0.4,0.00760000013
      -0.395,  1.79999995,      -0.395,0.00999999978
       -0.39,  1.79999995,       -0.39,0.0083999997
      -0.385,  1.79999995,      -0.385,      0.0104
       -0.38,  1.79999995,       -0.38,0.0092000002
      -0.375,  1.84000003,      -0.375,0.00960000046
       -0.37,  1.79999995,       -0.37,0.0092000002
      -0.365,  1.79999995,      -0.365,0.00999999978
       -0.36,  1.79999995,       -0.36,0.00999999978
      -0.355,  1.79999995,      -0.355,      0.0104
       -0.35,  1.84000003,       -0.35,0.00800000038
      -0.345,  1.79999995,      -0.345,0.00999999978
       -0.34,  1.79999995,       -0.34,0.00719999988
      -0.335,  1.84000003,      -0.335,0.00960000046
       -0.33,  1.84000003,       -0.33,0.0115999999
      -0.325,  1.79999995,      -0.325,0.0120000001
       -0.32,  1.79999995,       -0.32,      0.0104
      -0.315,  1.79999995,      -0.315,0.0124000004
       -0.31,  1.75999999,       -0.31,0.0127999997
      -0.305,  1.79999995,      -0.305,0.0120000001
        -0.3,  1.75999999,        -0.3,0.0136000002
      -0.295,  1.75999999,      -0.295,0.0131999999
       -0.29,  1.75999999,       -0.29,0.0124000004
      -0.285,  1.75999999,      -0.285,0.0136000002
       -0.28,  1.75999999,       -0.28,      0.0148
      -0.275,  1.75999999,      -0.275,0.0160000008
       -0.27,  1.79999995,       -0.27,0.0175999999
      -0.265,  1.75999999,      -0.265,0.0167999994
       -0.26,  1.72000003,       -0.26,0.0167999994
      -0.255,  1.72000003,      -0.255,0.0152000003
       -0.25,  1.72000003,       -0.25,0.0155999996
      -0.245,  1.72000003,      -0.245,0.0204000007
       -0.24,  1.72000003,       -0.24,0.0211999994
      -0.235,  1.72000003,      -0.235,0.0192000009
       -0.23,  1.72000003,       -0.23,0.0216000006
      -0.225,  1.67999995,      -0.225,0.0204000007
       -0.22,  1.72000003,       -0.22,0.0211999994
      -0.215,  1.67999995,      -0.215,0.0199999996
       -0.21,  1.72000003,       -0.21,0.0211999994
      -0.205,  1.67999995,      -0.205,0.0231999997
        -0.2,  1.63999999,        -0.2,0.0223999992
      -0.195,  1.67999995,      -0.195,0.0248000007
       -0.19,  1.67999995,       -0.19,0.0243999995
      -0.185,  1.63999999,      -0.185,0.0243999995
       -0.18,  1.67999995,       -0.18,      0.0252
      -0.175,  1.67999995,      -0.175,0.0228000004
       -0.17,  1.63999999,       -0.17,      0.0252
      -0.165,  1.60000002,      -0.165,0.0284000002
       -0.16,  1.63999999,       -0.16,      0.0296
      -0.155,  1.60000002,      -0.155,      0.0296
       -0.15,  1.63999999,       -0.15,      0.0296
      -0.145,  1.60000002,      -0.145,0.0292000007
       -0.14,  1.60000002,       -0.14,0.0299999993
      -0.135,  1.55999994,      -0.135,0.0311999992
       -0.13,  1.60000002,       -0.13,0.0328000002
      -0.125,  1.51999998,      -0.125,0.0351999998
       -0.12,  1.55999994,       -0.12,0.0351999998
      -0.115,  1.51999998,      -0.115,0.0372000001
       -0.11,  1.36000001,       -0.11,0.0419999994
      -0.105,  1.36000001,      -0.105,0.0432000011
        -0.1,  1.32000005,        -0.1,0.0463999994
      -0.095,  1.15999997,      -0.095,0.0447999984
       -0.09,  1.24000001,       -0.09,0.0460000001
      -0.085,  1.15999997,      -0.085,0.0436000004
       -0.08,  1.03999996,       -0.08,0.0476000011
      -0.075,           1,      -0.075,0.0439999998
       -0.07,  1.08000004,       -0.07,0.0496000014
      -0.065,           1,      -0.065,0.0467999987
       -0.06,  1.08000004,       -0.06,0.0487999991
      -0.055, 0.879999995,      -0.055,0.0467999987
       -0.05, 0.959999979,       -0.05,0.0480000004
      -0.045, 0.800000012,      -0.045,0.0476000011
       -0.04, 0.479999989,       -0.04,0.0520000011
      -0.035, 0.439999998,      -0.035,0.0480000004
       -0.03, 0.280000001,       -0.03,0.0507999994
      -0.025, 0.239999995,      -0.025,0.0487999991
       -0.02, 0.239999995,       -0.02,0.0520000011
      -0.015, 0.280000001,      -0.015,0.0496000014
       -0.01, 0.280000001,       -0.01,0.0507999994
      -0.005, 0.239999995,      -0.005,0.0487999991
           0, 0.280000001,           0,0.0524000004
       0.005, 0.239999995,       0.005,0.0496000014
        0.01, 0.519999981,        0.01,0.0527999997
       0.015, 0.479999989,       0.015,0.0500000007
        0.02, 0.479999989,        0.02,0.0527999997
       0.025, 0.479999989,       0.025,0.0500000007
        0.03, 0.479999989,        0.03,0.0524000004
       0.035, 0.479999989,       0.035,0.0491999984
        0.04, 0.439999998,        0.04,0.0511999987
       0.045,0.0399999991,       0.045,0.0516000018
        0.05,0.0399999991,        0.05, 0.053199999
       0.055,0.0399999991,       0.055,0.0504000001
        0.06,0.0799999982,        0.06,0.0535999984
       0.065,0.0399999991,       0.065,0.0491999984
        0.07,0.0399999991,        0.07,0.0504000001
       0.075,0.0399999991,       0.075,0.0496000014
        0.08,0.0399999991,        0.08,0.0491999984
       0.085,0.0399999991,       0.085,0.0487999991
        0.09,0.0399999991,        0.09,0.0520000011
       0.095,0.0399999991,       0.095,0.0496000014
         0.1,0.0399999991,         0.1,0.0507999994
       0.105,0.0399999991,       0.105,0.0491999984
        0.11,0.0399999991,        0.11,0.0500000007
       0.115,0.0399999991,       0.115,0.0500000007
        0.12,0.0399999991,        0.12,0.0504000001
       0.125,0.0399999991,       0.125,0.0500000007
        0.13,           0,        0.13,0.0500000007
       0.135,           0,       0.135,0.0504000001
        0.14,0.0399999991,        0.14, 0.053199999
       0.145,           0,       0.145,0.0483999997
        0.15,0.0799999982,        0.15,0.0504000001
       0.155,0.0399999991,       0.155,0.0524000004
        0.16,0.0399999991,        0.16,0.0516000018
       0.165,0.0399999991,       0.165,0.0487999991
        0.17,0.0399999991,        0.17,0.0511999987
       0.175,0.0399999991,       0.175,0.0507999994
        0.18,0.0399999991,        0.18,0.0524000004
       0.185,0.0399999991,       0.185,0.0520000011
        0.19,0.0399999991,        0.19,0.0511999987
       0.195,0.0399999991,       0.195,0.0483999997
         0.2,0.0399999991,         0.2, 0.053199999
       0.205,0.0399999991,       0.205,0.0483999997
        0.21,0.0399999991,        0.21,0.0504000001
       0.215,0.0399999991,       0.215,0.0507999994
        0.22,0.0399999991,        0.22,      0.0548
       0.225,0.0399999991,       0.225,0.0527999997
        0.23,0.0399999991,        0.23,0.0527999997
       0.235,0.0399999991,       0.235,0.0487999991
        0.24,0.0399999991,        0.24, 0.053199999
       0.245,0.0399999991,       0.245,0.0487999991
        0.25,0.0799999982,        0.25,0.0544000007
       0.255,0.0399999991,       0.255,0.0480000004
        0.26,0.0399999991,        0.26,0.0520000011
       0.265,0.0399999991,       0.265,0.0504000001
        0.27,0.0399999991,        0.27,0.0527999997
       0.275,0.0399999991,       0.275,0.0500000007
        0.28,0.0399999991,        0.28,0.0535999984
       0.285,0.0399999991,       0.285,0.0500000007
        0.29,           0,        0.29,0.0504000001
       0.295,0.0399999991,       0.295,0.0491999984
         0.3,0.0399999991,         0.3,0.0504000001
       0.305,           0,       0.305,0.0516000018
        0.31,           0,        0.31,0.0540000014
       0.315,0.0399999991,       0.315,0.0491999984
        0.32,0.0799999982,        0.32,0.0524000004
       0.325,           0,       0.325,0.0507999994
        0.33,0.0399999991,        0.33, 0.053199999
       0.335,0.0399999991,       0.335,0.0491999984
        0.34,0.0399999991,        0.34, 0.053199999
       0.345,0.0399999991,       0.345,0.0476000011
        0.35,0.0399999991,        0.35,0.0520000011
       0.355,0.0399999991,       0.355,0.0504000001
        0.36,0.0399999991,        0.36,0.0524000004
       0.365,0.0399999991,       0.365,0.0487999991
        0.37,0.0399999991,        0.37,0.0524000004
       0.375,0.0399999991,       0.375,0.0511999987
        0.38,0.0399999991,        0.38,0.0524000004
       0.385,0.0399999991,       0.385,0.0480000004
        0.39,0.0399999991,        0.39,0.0524000004
       0.395,0.0399999991,       0.395,0.0476000011
         0.4,0.0399999991,         0.4,0.0524000004
       0.405,0.0399999991,       0.405,0.0467999987
        0.41,0.0399999991,        0.41, 0.053199999
       0.415,0.0399999991,       0.415,0.0500000007
        0.42,0.0799999982,        0.42,0.0507999994
       0.425,0.0399999991,       0.425,0.0487999991
        0.43,           0,        0.43,0.0527999997
       0.435,0.0399999991,       0.435,0.0504000001
        0.44,           0,        0.44,0.0511999987
       0.445,0.0399999991,       0.445,0.0487999991
        0.45,0.0399999991,        0.45,0.0527999997
       0.455,0.0399999991,       0.455,0.0460000001
        0.46,0.0399999991,        0.46,0.0516000018
       0.465,0.0799999982,       0.465,0.0496000014
        0.47,0.0399999991,        0.47,0.0504000001
       0.475,0.0399999991,       0.475,0.0491999984
        0.48,0.0399999991,        0.48,0.0507999994
       0.485,0.0399999991,       0.485,0.0487999991
        0.49,0.0799999982,        0.49,0.0544000007
       0.495,0.0399999991,       0.495,0.0480000004
         0.5,0.0399999991,         0.5,0.0504000001
       0.505,           0,       0.505,0.0504000001
        0.51,0.0399999991,        0.51,0.0520000011
       0.515,0.0399999991,       0.515,0.0491999984
        0.52,           0,        0.52,0.0524000004
       0.525,0.0399999991,       0.525,0.0483999997
        0.53,0.0399999991,        0.53,0.0520000011
       0.535,0.0399999991,       0.535,0.0504000001
        0.54,0.0399999991,        0.54,0.0527999997
       0.545,           0,       0.545,0.0520000011
        0.55,0.0399999991,        0.55,0.0520000011
       0.555,0.0399999991,       0.555,0.0491999984
        0.56,0.0399999991,        0.56,0.0527999997
       0.565,0.0399999991,       0.565,0.0472000018
        0.57,0.0399999991,        0.57,0.0496000014
       0.575,0.0799999982,       0.575,0.0483999997
        0.58,0.0399999991,        0.58, 0.053199999
       0.585,0.0799999982,       0.585,0.0507999994
        0.59,0.0799999982,        0.59,0.0524000004
       0.595,0.0399999991,       0.595,0.0507999994
         0.6,0.0399999991,         0.6,0.0524000004
       0.605,0.0399999991,       0.605,0.0491999984
        0.61,0.0399999991,        0.61,0.0491999984
       0.615,0.0399999991,       0.615,0.0491999984
        0.62,0.0399999991,        0.62,0.0507999994
       0.625,           0,       0.625,0.0487999991
        0.63,0.0399999991,        0.63,0.0524000004
       0.635,0.0399999991,       0.635,0.0504000001
        0.64,0.0399999991,        0.64,0.0516000018
       0.645,0.0399999991,       0.645,0.0487999991
        0.65,0.0399999991,        0.65,0.0560000017
       0.655,0.0399999991,       0.655,0.0520000011
        0.66,0.0799999982,        0.66,0.0507999994
       0.665,0.0399999991,       0.665,0.0483999997
        0.67,0.0399999991,        0.67,0.0544000007
       0.675,0.0399999991,       0.675,0.0491999984
        0.68,           0,        0.68,0.0511999987
       0.685,0.0399999991,       0.685,0.0480000004
        0.69,           0,        0.69,0.0511999987
       0.695,0.0399999991,       0.695,0.0500000007
         0.7,0.0399999991,         0.7,0.0516000018
       0.705,0.0399999991,       0.705,0.0520000011
        0.71,           0,        0.71,0.0520000011
       0.715,0.0399999991,       0.715,0.0487999991
        0.72,0.0399999991,        0.72,0.0504000001
       0.725,0.0399999991,       0.725,0.0487999991
        0.73,0.0399999991,        0.73,0.0544000007
       0.735,0.0399999991,       0.735,0.0507999994
        0.74,0.0399999991,        0.74,0.0527999997
       0.745,0.0399999991,       0.745,0.0496000014
        0.75,0.0399999991,        0.75,0.0504000001
       0.755,0.0799999982,       0.755,0.0496000014
        0.76,0.0399999991,        0.76,0.0511999987
       0.765,0.0399999991,       0.765,0.0472000018
        0.77,0.0399999991,        0.77,0.0540000014
       0.775,0.0399999991,       0.775,0.0491999984
        0.78,0.0399999991,        0.78,0.0507999994
       0.785,0.0399999991,       0.785,0.0491999984
        0.79,           0,        0.79,0.0520000011
       0.795,           0,       0.795,0.0480000004
         0.8,           0,         0.8,0.0500000007
       0.805,0.0399999991,       0.805,0.0500000007
        0.81,0.0399999991,        0.81,0.0500000007
       0.815,0.0399999991,       0.815,0.0480000004
        0.82,0.0399999991,        0.82,0.0540000014
       0.825,           0,       0.825,0.0511999987
        0.83,0.0399999991,        0.83,0.0535999984
       0.835,0.0399999991,       0.835,0.0496000014
        0.84,           0,        0.84,0.0516000018
       0.845,0.0399999991,       0.845,0.0504000001
        0.85,0.0399999991,        0.85,0.0520000011
       0.855,0.0399999991,       0.855,0.0500000007
        0.86,0.0399999991,        0.86,0.0524000004
       0.865,           0,       0.865,0.0496000014
        0.87,0.0799999982,        0.87,0.0571999997
       0.875,0.0399999991,       0.875,0.0476000011
        0.88,           0,        0.88,0.0524000004
       0.885,0.0399999991,       0.885,0.0476000011
        0.89,0.0799999982,        0.89,0.0535999984
       0.895,0.0399999991,       0.895,0.0507999994
         0.9,0.0399999991,         0.9,0.0524000004
       0.905,0.0399999991,       0.905,0.0487999991
        0.91,0.0399999991,        0.91,0.0504000001
       0.915,0.0399999991,       0.915,0.0491999984
        0.92,           0,        0.92,0.0511999987
       0.925,0.0399999991,       0.925,0.0487999991
        0.93,0.0399999991,        0.93,0.0544000007
       0.935,0.0399999991,       0.935,0.0511999987
        0.94,0.0399999991,        0.94,0.0500000007
       0.945,0.0399999991,       0.945,0.0504000001
        0.95,0.0399999991,        0.95, 0.053199999
       0.955,0.0399999991,       0.955,0.0480000004
        0.96,0.0399999991,        0.96,0.0535999984
       0.965,0.0399999991,       0.965,0.0483999997
        0.97,0.0399999991,        0.97,0.0527999997
       0.975,0.0399999991,       0.975,0.0476000011
        0.98,0.0399999991,        0.98, 0.053199999
       0.985,0.0399999991,       0.985,0.0496000014
        0.99,0.0399999991,        0.99,0.0524000004
       0.995,0.0399999991,       0.995,0.0480000004
           1,           0,           1,0.0535999984
       1.005,0.0399999991,       1.005,0.0487999991
        1.01,0.0799999982,        1.01,0.0524000004
       1.015,0.0399999991,       1.015,0.0480000004
        1.02,0.0399999991,        1.02,0.0516000018
       1.025,0.0399999991,       1.025,0.0476000011
        1.03,0.0399999991,        1.03, 0.053199999
       1.035,0.0399999991,       1.035,0.0491999984
        1.04,0.0399999991,        1.04,0.0511999987
       1.045,0.0399999991,       1.045,0.0472000018
        1.05,0.0399999991,        1.05,0.0520000011
       1.055,           0,       1.055,0.0507999994
        1.06,0.0399999991,        1.06,0.0520000011
       1.065,           0,       1.065,0.0511999987
        1.07,0.0399999991,        1.07,0.0544000007
       1.075,0.0399999991,       1.075,0.0500000007
        1.08,0.0399999991,        1.08,0.0524000004
       1.085,0.0399999991,       1.085,0.0500000007
        1.09,0.0799999982,        1.09,0.0516000018
       1.095,0.0399999991,       1.095,0.0491999984
         1.1,           0,         1.1,0.0516000018
       1.105,0.0399999991,       1.105,0.0504000001
        1.11,0.0399999991,        1.11,0.0504000001
       1.115,           0,       1.115,0.0483999997
        1.12,           0,        1.12,0.0504000001
       1.125,0.0399999991,       1.125,0.0500000007
        1.13,0.0399999991,        1.13,0.0516000018
       1.135,0.0399999991,       1.135,0.0476000011
        1.14,0.0399999991,        1.14,0.0527999997
       1.145,0.0399999991,       1.145,0.0516000018
        1.15,0.0399999991,        1.15,0.0535999984
       1.155,           0,       1.155,0.0476000011
        1.16,           0,        1.16,0.0516000018
       1.165,0.0399999991,       1.165,0.0511999987
        1.17,0.0399999991,        1.17,0.0504000001
       1.175,0.0399999991,       1.175,0.0472000018
        1.18,0.0399999991,        1.18,0.0535999984
       1.185,0.0399999991,       1.185,0.0472000018
        1.19,0.0799999982,        1.19,0.0520000011
       1.195,0.0399999991,       1.195,0.0504000001
         1.2,0.0399999991,         1.2,0.0527999997
       1.205,0.0399999991,       1.205,0.0504000001
        1.21,0.0399999991,        1.21, 0.053199999
       1.215,0.0399999991,       1.215,0.0472000018
        1.22,0.0399999991,        1.22,0.0511999987
       1.225,0.0399999991,       1.225,0.0500000007
        1.23,0.0399999991,        1.23,0.0544000007
       1.235,0.0399999991,       1.235,0.0480000004
        1.24,0.0399999991,        1.24,0.0511999987
       1.245,0.0399999991,       1.245,0.0500000007
        1.25,0.0399999991,        1.25,0.0527999997
       1.255,0.0399999991,       1.255,0.0500000007
        1.26,0.0399999991,        1.26, 0.053199999
       1.265,0.0399999991,       1.265,0.0487999991
        1.27,0.0399999991,        1.27,0.0491999984
       1.275,0.0399999991,       1.275,0.0487999991
        1.28,0.0399999991,        1.28,0.0516000018
       1.285,           0,       1.285,0.0520000011
        1.29,0.0399999991,        1.29,0.0507999994
       1.295,0.0399999991,       1.295,0.0487999991
         1.3,0.0399999991,         1.3,0.0504000001
       1.305,0.0399999991,       1.305,0.0476000011
        1.31,0.0399999991,        1.31,0.0516000018
       1.315,0.0399999991,       1.315,0.0480000004
        1.32,0.0399999991,        1.32,0.0527999997
       1.325,0.0399999991,       1.325,0.0504000001
        1.33,0.0399999991,        1.33,0.0500000007
       1.335,0.0399999991,       1.335,0.0472000018
        1.34,0.0399999991,        1.34,0.0524000004
       1.345,0.0799999982,       1.345,0.0500000007
        1.35,0.0399999991,        1.35,0.0535999984
       1.355,0.0399999991,       1.355,0.0480000004
        1.36,0.0399999991,        1.36,0.0516000018
       1.365,0.0399999991,       1.365,0.0491999984
        1.37,0.0399999991,        1.37,0.0527999997
       1.375,0.0399999991,       1.375,0.0491999984
        1.38,0.0399999991,        1.38,0.0544000007
       1.385,0.0799999982,       1.385,0.0487999991
        1.39,0.0399999991,        1.39,0.0524000004
       1.395,0.0399999991,       1.395,0.0491999984
         1.4,0.0399999991,         1.4, 0.053199999
       1.405,0.0399999991,       1.405,0.0500000007
        1.41,0.0399999991,        1.41,0.0511999987
       1.415,0.0399999991,       1.415,0.0496000014
        1.42,0.0399999991,        1.42,0.0520000011
       1.425,0.0399999991,       1.425,0.0487999991
        1.43,0.0399999991,        1.43,0.0496000014
       1.435,           0,       1.435,0.0504000001
        1.44,0.0399999991,        1.44,0.0527999997
       1.445,0.0399999991,       1.445,0.0487999991
        1.45,0.0399999991,        1.45,0.0535999984
       1.455,0.0799999982,       1.455,0.0487999991
        1.46,0.0399999991,        1.46,0.0511999987
       1.465,0.0399999991,       1.465,0.0483999997
        1.47,           0,        1.47,0.0516000018
       1.475,0.0399999991,       1.475,0.0487999991
        1.48,           0,        1.48,0.0524000004
       1.485,0.0399999991,       1.485,0.0500000007
        1.49,0.0399999991,        1.49,0.0516000018
       1.495,0.0399999991,       1.495,0.0476000011
         1.5,0.0399999991,         1.5,0.0544000007
       1.505,0.0399999991,       1.505,0.0483999997
        1.51,0.0799999982,        1.51,0.0527999997
       1.515,0.0399999991,       1.515,0.0463999994
        1.52,0.0399999991,        1.52,0.0527999997
       1.525,0.0399999991,       1.525,0.0487999991
        1.53,0.0399999991,        1.53, 0.053199999
       1.535,0.0399999991,       1.535,0.0483999997
        1.54,0.0399999991,        1.54,0.0516000018
       1.545,0.0399999991,       1.545,0.0483999997
        1.55,0.0799999982,        1.55,0.0524000004
       1.555, 0.119999997,       1.555,0.0491999984
        1.56,0.0399999991,        1.56,0.0520000011
       1.565,0.0399999991,       1.565,0.0496000014
        1.57,0.0399999991,        1.57,0.0516000018
       1.575,0.0399999991,       1.575,0.0480000004
        1.58,0.0399999991,        1.58,0.0520000011
       1.585,0.0399999991,       1.585,0.0491999984
        1.59,0.0399999991,        1.59,0.0524000004
       1.595,0.0399999991,       1.595,0.0491999984
         1.6,0.0399999991,         1.6,0.0527999997
       1.605,           0,       1.605,0.0500000007
        1.61,0.0399999991,        1.61, 0.053199999
       1.615,           0,       1.615,0.0500000007
        1.62,0.0399999991,        1.62,0.0516000018
       1.625,0.0399999991,       1.625,0.0483999997
        1.63,0.0399999991,        1.63,0.0520000011
       1.635,0.0799999982,       1.635,0.0480000004
        1.64,           0,        1.64,0.0520000011
       1.645,0.0399999991,       1.645,0.0483999997
        1.65,0.0799999982,        1.65,0.0540000014
       1.655,0.0399999991,       1.655,0.0483999997
        1.66,0.0399999991,        1.66,0.0524000004
       1.665,0.0399999991,       1.665,0.0491999984
        1.67,0.0399999991,        1.67,0.0511999987
       1.675,0.0399999991,       1.675,0.0491999984
        1.68,0.0399999991,        1.68,0.0527999997
       1.685,0.0399999991,       1.685,0.0480000004
        1.69,0.0399999991,        1.69,0.0524000004
       1.695,0.0399999991,       1.695,0.0507999994
         1.7,0.0399999991,         1.7,0.0520000011
       1.705,0.0399999991,       1.705,0.0487999991
        1.71,0.0399999991,        1.71,0.0507999994
       1.715,0.0399999991,       1.715,0.0480000004
        1.72,0.0399999991,        1.72,0.0511999987
       1.725,0.0399999991,       1.725,0.0472000018
        1.73,           0,        1.73,0.0535999984
       1.735,0.0399999991,       1.735,0.0500000007
        1.74,0.0399999991,        1.74,      0.0548
       1.745,           0,       1.745,0.0456000008
        1.75,0.0799999982,        1.75,0.0507999994
       1.755,0.0399999991,       1.755,0.0472000018
        1.76,0.0399999991,        1.76,0.0544000007
       1.765,0.0399999991,       1.765,0.0487999991
        1.77,0.0399999991,        1.77,0.0511999987
       1.775,0.0399999991,       1.775,0.0483999997
        1.78,           0,        1.78,0.0535999984
       1.785,0.0399999991,       1.785,0.0491999984
        1.79,0.0399999991,        1.79,0.0507999994
       1.795,           0,       1.795,0.0483999997
         1.8,0.0399999991,         1.8, 0.053199999
       1.805,0.0399999991,       1.805,0.0472000018
        1.81,           0,        1.81,0.0520000011
       1.815,0.0399999991,       1.815,0.0487999991
        1.82,0.0799999982,        1.82,0.0507999994
       1.825,           0,       1.825,0.0480000004
        1.83,0.0399999991,        1.83,      0.0548
       1.835,0.0399999991,       1.835,0.0472000018
        1.84,0.0799999982,        1.84,0.0520000011
       1.845,0.0399999991,       1.845,0.0496000014
        1.85,0.0799999982,        1.85,0.0516000018
       1.855,0.0399999991,       1.855,0.0480000004
        1.86,0.0799999982,        1.86,0.0516000018
       1.865,0.0399999991,       1.865,0.0504000001
        1.87,           0,        1.87,0.0511999987
       1.875,0.0399999991,       1.875,0.0452000014
        1.88,           0,        1.88,0.0524000004
       1.885,0.0799999982,       1.885,0.0487999991
        1.89,0.0399999991,        1.89,0.0524000004
       1.895,0.0399999991,       1.895,0.0472000018
         1.9,0.0399999991,         1.9,0.0516000018
       1.905,           0,       1.905,0.0491999984
        1.91,0.0399999991,        1.91,0.0504000001
       1.915,0.0399999991,       1.915,0.0476000011
        1.92,0.0399999991,        1.92,0.0520000011
       1.925,0.0399999991,       1.925,0.0480000004
        1.93,0.0399999991,        1.93,0.0544000007
       1.935,           0,       1.935,0.0496000014
        1.94,0.0399999991,        1.94,0.0511999987
       1.945,0.0399999991,       1.945,0.0491999984
        1.95,0.0399999991,        1.95,0.0520000011
       1.955,0.0399999991,       1.955,0.0483999997
        1.96,           0,        1.96,0.0527999997
       1.965,0.0399999991,       1.965,0.0487999991
        1.97,0.0399999991,        1.97, 0.053199999
       1.975,0.0399999991,       1.975,0.0500000007
        1.98,0.0399999991,        1.98,0.0516000018
       1.985,           0,       1.985,0.0460000001
        1.99,0.0799999982,        1.99,0.0507999994
       1.995,0.0399999991,       1.995,0.0496000014
           2,0.0399999991,           2,0.0527999997
       2.005,0.0399999991,       2.005,0.0487999991
        2.01,0.0399999991,        2.01,0.0535999984
       2.015,0.0399999991,       2.015,0.0496000014
        2.02,0.0399999991,        2.02,0.0540000014
       2.025,0.0399999991,       2.025,0.0487999991
        2.03,0.0399999991,        2.03,0.0496000014
       2.035,0.0399999991,       2.035,0.0483999997
        2.04,0.0399999991,        2.04,0.0551999994
       2.045,0.0399999991,       2.045,0.0491999984
        2.05,0.0399999991,        2.05,0.0527999997
       2.055,0.0399999991,       2.055,0.0463999994
        2.06,0.0399999991,        2.06,0.0535999984
       2.065,0.0399999991,       2.065,0.0460000001
        2.07,0.0399999991,        2.07,0.0516000018
       2.075,0.0799999982,       2.075,0.0463999994
        2.08,0.0399999991,        2.08,0.0535999984
       2.085,0.0399999991,       2.085,0.0483999997
        2.09,0.0399999991,        2.09, 0.053199999
       2.095,           0,       2.095,0.0476000011
         2.1,0.0399999991,         2.1,0.0524000004
       2.105,           0,       2.105,0.0511999987
        2.11,0.0399999991,        2.11,0.0535999984
       2.115,0.0399999991,       2.115,0.0487999991
        2.12,0.0399999991,        2.12,0.0535999984
       2.125,0.0399999991,       2.125,0.0507999994
        2.13,0.0399999991,        2.13,0.0540000014
       2.135,0.0399999991,       2.135,0.0504000001
        2.14,0.0799999982,        2.14,0.0544000007
       2.145,0.0399999991,       2.145,0.0467999987
        2.15,0.0399999991,        2.15,0.0524000004
       2.155,0.0399999991,       2.155,0.0483999997
        2.16,0.0399999991,        2.16,0.0507999994
       2.165,0.0399999991,       2.165,0.0511999987
        2.17,0.0799999982,        2.17,0.0500000007
       2.175,           0,       2.175,0.0463999994
        2.18,0.0399999991,        2.18,0.0496000014
       2.185,0.0399999991,       2.185,0.0500000007
        2.19,           0,        2.19, 0.053199999
       2.195,0.0399999991,       2.195,0.0460000001
         2.2,           0,         2.2,0.0524000004
       2.205,0.0399999991,       2.205,0.0467999987
        2.21,0.0399999991,        2.21,0.0524000004
       2.215,0.0399999991,       2.215,0.0483999997
        2.22,0.0399999991,        2.22,0.0535999984
       2.225,0.0399999991,       2.225,0.0483999997
        2.23,0.0399999991,        2.23,0.0540000014
       2.235,0.0399999991,       2.235,0.0496000014
        2.24,0.0399999991,        2.24,0.0524000004
       2.245,0.0399999991,       2.245,0.0491999984
        2.25,0.0399999991,        2.25,0.0504000001
       2.255,0.0399999991,       2.255,0.0463999994
        2.26,0.0399999991,        2.26,0.0516000018
       2.265,0.0399999991,       2.265,0.0487999991
        2.27,           0,        2.27,0.0511999987
       2.275,           0,       2.275,0.0476000011
        2.28,           0,        2.28,0.0524000004
       2.285,           0,       2.285,0.0483999997
        2.29,           0,        2.29,0.0511999987
       2.295,           0,       2.295,0.0500000007
         2.3,0.0399999991,         2.3,0.0483999997
       2.305,0.0799999982,       2.305,0.0476000011
        2.31,0.0399999991,        2.31,0.0540000014
       2.315,0.0399999991,       2.315,0.0511999987
        2.32,0.0399999991,        2.32,0.0555999987
       2.325,0.0399999991,       2.325,0.0500000007
        2.33,0.0399999991,        2.33,0.0535999984
       2.335,0.0399999991,       2.335,0.0460000001
        2.34,0.0399999991,        2.34,0.0527999997
       2.345,0.0399999991,       2.345,0.0483999997
        2.35,0.0399999991,        2.35,0.0540000014
       2.355,0.0399999991,       2.355,0.0467999987
        2.36,0.0799999982,        2.36,0.0544000007
       2.365,0.0399999991,       2.365,0.0480000004
        2.37,0.0399999991,        2.37,0.0535999984
       2.375,0.0399999991,       2.375,0.0507999994
        2.38,0.0399999991,        2.38,0.0535999984
       2.385,0.0399999991,       2.385,0.0504000001
        2.39,0.0799999982,        2.39,0.0524000004
       2.395,0.0399999991,       2.395,0.0480000004
         2.4,0.0399999991,         2.4,0.0511999987
       2.405,0.0399999991,       2.405,0.0483999997
        2.41,0.0399999991,        2.41, 0.053199999
       2.415,0.0799999982,       2.415,0.0483999997
        2.42,0.0399999991,        2.42,0.0524000004
       2.425,0.0399999991,       2.425,0.0487999991
        2.43,0.0399999991,        2.43,0.0516000018
       2.435,0.0399999991,       2.435,0.0480000004
        2.44,0.0399999991,        2.44,0.0520000011
       2.445,0.0399999991,       2.445,0.0483999997
        2.45,           0,        2.45,0.0520000011
       2.455,0.0399999991,       2.455,0.0480000004
        2.46,0.0399999991,        2.46,0.0511999987
       2.465,0.0399999991,       2.465,0.0491999984
        2.47,0.0399999991,        2.47,0.0511999987
       2.475,0.0399999991,       2.475,0.0496000014
        2.48,0.0399999991,        2.48,0.0535999984
       2.485,0.0399999991,       2.485,0.0456000008
        2.49,0.0399999991,        2.49,0.0524000004
       2.495,0.0399999991,       2.495,0.0491999984