s,Volts,s,Volts
        -2.5,  3.51999998,        -2.5,0.00120000006
      -2.495,  3.51999998,      -2.495,0.00079999998
       -2.49,  3.51999998,       -2.49,0.00159999996
      -2.485,  3.51999998,      -2.485,0.00079999998
       -2.48,  3.51999998,       -2.48,-0.00039999999
      -2.475,  3.48000002,      -2.475,-0.00039999999
       -2.47,  3.55999994,       -2.47,0.00200000009
      -2.465,  3.51999998,      -2.465,0.00240000011
       -2.46,  3.51999998,       -2.46,0.00120000006
      -2.455,  3.51999998,      -2.455,           0
       -2.45,  3.51999998,       -2.45,           0
      -2.445,  3.51999998,      -2.445,0.00159999996
       -2.44,  3.51999998,       -2.44,-0.00079999998
      -2.435,  3.48000002,      -2.435,0.00159999996
       -2.43,  3.51999998,       -2.43,0.00039999999
      -2.425,  3.51999998,      -2.425,           0
       -2.42,  3.51999998,       -2.42,0.00240000011
      -2.415,  3.51999998,      -2.415,0.00319999992
       -2.41,  3.55999994,       -2.41,0.00039999999
      -2.405,  3.48000002,      -2.405,0.00240000011
        -2.4,  3.51999998,        -2.4,0.00159999996
      -2.395,  3.51999998,      -2.395,0.00079999998
       -2.39,  3.48000002,       -2.39,0.00240000011
      -2.385,  3.48000002,      -2.385,0.00120000006
       -2.38,  3.51999998,       -2.38,0.00200000009
      -2.375,  3.51999998,      -2.375,0.00240000011
       -2.37,  3.55999994,       -2.37,0.00079999998
      -2.365,  3.48000002,      -2.365,           0
       -2.36,  3.55999994,       -2.36,-0.00039999999
      -2.355,  3.48000002,      -2.355,0.00039999999
       -2.35,  3.51999998,       -2.35,-0.00039999999
      -2.345,  3.51999998,      -2.345,0.00039999999
       -2.34,  3.51999998,       -2.34,           0
      -2.335,  3.48000002,      -2.335,-0.00039999999
       -2.33,  3.51999998,       -2.33,0.00200000009
      -2.325,  3.48000002,      -2.325,0.00120000006
       -2.32,  3.51999998,       -2.32,0.00120000006
      -2.315,  3.51999998,      -2.315,0.00039999999
       -2.31,  3.55999994,       -2.31,-0.00120000006
      -2.305,  3.48000002,      -2.305,0.00159999996
        -2.3,  3.55999994,        -2.3,0.00159999996
      -2.295,  3.51999998,      -2.295,-0.00079999998
       -2.29,  3.51999998,       -2.29,-0.00039999999
      -2.285,  3.51999998,      -2.285,0.00159999996
       -2.28,  3.51999998,       -2.28,0.00079999998
      -2.275,  3.48000002,      -2.275,0.00079999998
       -2.27,  3.51999998,       -2.27,0.00039999999
      -2.265,  3.48000002,      -2.265,0.00039999999
       -2.26,  3.51999998,       -2.26,-0.00079999998
      -2.255,  3.51999998,      -2.255,0.00200000009
       -2.25,  3.51999998,       -2.25,0.00120000006
      -2.245,  3.48000002,      -2.245,0.00079999998
       -2.24,  3.51999998,       -2.24,0.00200000009
      -2.235,  3.51999998,      -2.235,0.00240000011
       -2.23,  3.51999998,       -2.23,0.00120000006
      -2.225,  3.48000002,      -2.225,0.00079999998
       -2.22,  3.51999998,       -2.22,0.00079999998
      -2.215,  3.48000002,      -2.215,0.00319999992
       -2.21,  3.51999998,       -2.21,           0
      -2.205,  3.51999998,      -2.205,0.00079999998
        -2.2,  3.51999998,        -2.2,0.00039999999
      -2.195,  3.51999998,      -2.195,0.00200000009
       -2.19,  3.51999998,       -2.19,0.00039999999
      -2.185,  3.51999998,      -2.185,0.00159999996
       -2.18,  3.51999998,       -2.18,0.00039999999
      -2.175,  3.51999998,      -2.175,0.00120000006
       -2.17,  3.51999998,       -2.17,0.00159999996
      -2.165,  3.51999998,      -2.165,0.00039999999
       -2.16,  3.51999998,       -2.16,0.00240000011
      -2.155,  3.51999998,      -2.155,0.00120000006
       -2.15,  3.51999998,       -2.15,0.00159999996
      -2.145,  3.48000002,      -2.145,0.00039999999
       -2.14,  3.55999994,       -2.14,           0
      -2.135,  3.51999998,      -2.135,0.00159999996
       -2.13,  3.51999998,       -2.13,0.00120000006
      -2.125,  3.51999998,      -2.125,0.00079999998
       -2.12,  3.51999998,       -2.12,0.00039999999
      -2.115,  3.48000002,      -2.115,           0
       -2.11,  3.55999994,       -2.11,0.00120000006
      -2.105,  3.51999998,      -2.105,0.00120000006
        -2.1,  3.51999998,        -2.1,0.00200000009
      -2.095,  3.48000002,      -2.095,0.00079999998
       -2.09,  3.51999998,       -2.09,0.00159999996
      -2.085,  3.48000002,      -2.085,0.00200000009
       -2.08,  3.51999998,       -2.08,-0.00120000006
      -2.075,  3.48000002,      -2.075,0.00120000006
       -2.07,  3.51999998,       -2.07,0.00120000006
      -2.065,  3.48000002,      -2.065,-0.00120000006
       -2.06,  3.51999998,       -2.06,0.00039999999
      -2.055,  3.51999998,      -2.055,0.00159999996
       -2.05,  3.48000002,       -2.05,0.00039999999
      -2.045,  3.51999998,      -2.045,0.00039999999
       -2.04,  3.51999998,       -2.04,0.00159999996
      -2.035,  3.51999998,      -2.035,-0.00039999999
       -2.03,  3.51999998,       -2.03,-0.00039999999
      -2.025,  3.51999998,      -2.025,0.00159999996
       -2.02,  3.51999998,       -2.02,0.00200000009
      -2.015,  3.48000002,      -2.015,0.00039999999
       -2.01,  3.55999994,       -2.01,0.00200000009
      -2.005,  3.51999998,      -2.005,0.00039999999
          -2,  3.51999998,          -2,0.00039999999
      -1.995,  3.51999998,      -1.995,-0.00039999999
       -1.99,  3.51999998,       -1.99,0.00120000006
      -1.985,  3.51999998,      -1.985,0.00120000006
       -1.98,  3.51999998,       -1.98,0.00039999999
      -1.975,  3.51999998,      -1.975,0.00159999996
       -1.97,  3.55999994,       -1.97,0.00200000009
      -1.965,  3.51999998,      -1.965,0.00359999994
       -1.96,  3.55999994,       -1.96,0.00319999992
      -1.955,  3.51999998,      -1.955,0.00120000006
       -1.95,  3.51999998,       -1.95,0.00079999998
      -1.945,  3.48000002,      -1.945,0.00200000009
       -1.94,  3.51999998,       -1.94,0.00120000006
      -1.935,  3.48000002,      -1.935,0.00159999996
       -1.93,  3.51999998,       -1.93,0.0027999999
      -1.925,  3.51999998,      -1.925,0.00159999996
       -1.92,  3.48000002,       -1.92,0.00200000009
      -1.915,  3.51999998,      -1.915,0.00039999999
       -1.91,  3.55999994,       -1.91,0.00120000006
      -1.905,  3.51999998,      -1.905,0.00120000006
        -1.9,  3.55999994,        -1.9,0.00039999999
      -1.895,  3.51999998,      -1.895,0.00120000006
       -1.89,  3.51999998,       -1.89,0.00120000006
      -1.885,  3.48000002,      -1.885,0.00359999994
       -1.88,  3.55999994,       -1.88,0.0027999999
      -1.875,  3.48000002,      -1.875,0.00159999996
       -1.87,  3.55999994,       -1.87,-0.00079999998
      -1.865,  3.51999998,      -1.865,           0
       -1.86,  3.51999998,       -1.86,0.00159999996
      -1.855,  3.48000002,      -1.855,0.00079999998
       -1.85,  3.51999998,       -1.85,0.00359999994
      -1.845,  3.48000002,      -1.845,0.00319999992
       -1.84,  3.51999998,       -1.84,0.00039999999
      -1.835,  3.51999998,      -1.835,0.00079999998
       -1.83,  3.48000002,       -1.83,0.00319999992
      -1.825,  3.48000002,      -1.825,0.0027999999
       -1.82,  3.55999994,       -1.82,0.0027999999
      -1.815,  3.51999998,      -1.815,           0
       -1.81,  3.55999994,       -1.81,0.00039999999
      -1.805,  3.51999998,      -1.805,0.00240000011
        -1.8,  3.51999998,        -1.8,0.00319999992
      -1.795,  3.44000006,      -1.795,0.00240000011
       -1.79,  3.51999998,       -1.79,           0
      -1.785,  3.48000002,      -1.785,0.00319999992
       -1.78,  3.48000002,       -1.78,0.00480000023
      -1.775,  3.51999998,      -1.775,0.00240000011
       -1.77,  3.51999998,       -1.77,0.00240000011
      -1.765,  3.48000002,      -1.765,0.00159999996
       -1.76,  3.51999998,       -1.76,0.00159999996
      -1.755,  3.48000002,      -1.755,0.00319999992
       -1.75,  3.51999998,       -1.75,0.00159999996
      -1.745,  3.48000002,      -1.745,0.00039999999
       -1.74,  3.55999994,       -1.74,           0
      -1.735,  3.51999998,      -1.735,0.0027999999
       -1.73,  3.51999998,       -1.73,0.00120000006
      -1.725,  3.51999998,      -1.725,0.00159999996
       -1.72,  3.51999998,       -1.72,0.00319999992
      -1.715,  3.48000002,      -1.715,0.0027999999
       -1.71,  3.51999998,       -1.71,0.00319999992
      -1.705,  3.55999994,      -1.705,0.00159999996
        -1.7,  3.51999998,        -1.7,0.00200000009
      -1.695,  3.51999998,      -1.695,0.00039999999
       -1.69,  3.51999998,       -1.69,0.00200000009
      -1.685,  3.51999998,      -1.685,0.00159999996
       -1.68,  3.51999998,       -1.68,           0
      -1.675,  3.51999998,      -1.675,0.00120000006
       -1.67,  3.51999998,       -1.67,0.00120000006
      -1.665,  3.48000002,      -1.665,-0.00200000009
       -1.66,  3.51999998,       -1.66,0.0027999999
      -1.655,  3.51999998,      -1.655,0.00120000006
       -1.65,  3.55999994,       -1.65,0.00159999996
      -1.645,  3.48000002,      -1.645,0.00159999996
       -1.64,  3.51999998,       -1.64,-0.00039999999
      -1.635,  3.51999998,      -1.635,0.00200000009
       -1.63,  3.51999998,       -1.63,0.00120000006
      -1.625,  3.48000002,      -1.625,0.00319999992
       -1.62,  3.51999998,       -1.62,0.00240000011
      -1.615,  3.48000002,      -1.615,0.00079999998
       -1.61,  3.51999998,       -1.61,0.00079999998
      -1.605,  3.51999998,      -1.605,0.00120000006
        -1.6,  3.51999998,        -1.6,0.00159999996
      -1.595,  3.51999998,      -1.595,0.00319999992
       -1.59,  3.51999998,       -1.59,0.00319999992
      -1.585,  3.48000002,      -1.585,0.00039999999
       -1.58,  3.55999994,       -1.58,0.00039999999
      -1.575,  3.48000002,      -1.575,0.00200000009
       -1.57,  3.55999994,       -1.57,0.00159999996
      -1.565,  3.51999998,      -1.565,0.00200000009
       -1.56,  3.51999998,       -1.56,0.00159999996
      -1.555,  3.51999998,      -1.555,0.00359999994
       -1.55,  3.55999994,       -1.55,0.00319999992
      -1.545,  3.48000002,      -1.545,0.00120000006
       -1.54,  3.51999998,       -1.54,0.00200000009
      -1.535,  3.48000002,      -1.535,0.00319999992
       -1.53,  3.51999998,       -1.53,0.00359999994
      -1.525,  3.51999998,      -1.525,0.00240000011
       -1.52,  3.51999998,       -1.52,0.00200000009
      -1.515,  3.48000002,      -1.515,-0.00039999999
       -1.51,  3.48000002,       -1.51,0.00079999998
      -1.505,  3.48000002,      -1.505,0.00159999996
        -1.5,  3.51999998,        -1.5,0.00079999998
      -1.495,  3.51999998,      -1.495,0.00240000011
       -1.49,  3.51999998,       -1.49,0.00079999998
      -1.485,  3.51999998,      -1.485,0.00039999999
       -1.48,  3.51999998,       -1.48,0.00240000011
      -1.475,  3.48000002,      -1.475,0.00120000006
       -1.47,  3.51999998,       -1.47,0.00200000009
      -1.465,  3.48000002,      -1.465,0.00120000006
       -1.46,  3.51999998,       -1.46,0.00400000019
      -1.455,  3.51999998,      -1.455,0.00400000019
       -1.45,  3.51999998,       -1.45,0.00319999992
      -1.445,  3.51999998,      -1.445,0.00039999999
       -1.44,  3.51999998,       -1.44,0.00200000009
      -1.435,  3.51999998,      -1.435,0.00400000019
       -1.43,  3.51999998,       -1.43,0.00200000009
      -1.425,  3.48000002,      -1.425,0.0027999999
       -1.42,  3.51999998,       -1.42,0.0027999999
      -1.415,  3.48000002,      -1.415,0.00120000006
       -1.41,  3.51999998,       -1.41,0.00319999992
      -1.405,  3.51999998,      -1.405,0.00319999992
        -1.4,  3.51999998,        -1.4,0.00159999996
      -1.395,  3.48000002,      -1.395,0.00319999992
       -1.39,  3.55999994,       -1.39,0.00159999996
      -1.385,  3.48000002,      -1.385,0.00159999996
       -1.38,  3.51999998,       -1.38,0.0027999999
      -1.375,  3.48000002,      -1.375,0.00319999992
       -1.37,  3.51999998,       -1.37,0.00240000011
      -1.365,  3.51999998,      -1.365,0.00480000023
       -1.36,  3.51999998,       -1.36,0.00159999996
      -1.355,  3.51999998,      -1.355,0.00120000006
       -1.35,  3.51999998,       -1.35,0.00359999994
      -1.345,  3.51999998,      -1.345,0.00359999994
       -1.34,  3.51999998,       -1.34,0.00200000009
      -1.335,  3.48000002,      -1.335,0.00439999998
       -1.33,  3.51999998,       -1.33,0.00120000006
      -1.325,  3.51999998,      -1.325,-0.00039999999
       -1.32,  3.55999994,       -1.32,0.00319999992
      -1.315,  3.51999998,      -1.315,0.00159999996
       -1.31,  3.51999998,       -1.31,0.0027999999
      -1.305,  3.51999998,      -1.305,0.00439999998
        -1.3,  3.51999998,        -1.3,0.00359999994
      -1.295,  3.44000006,      -1.295,0.00159999996
       -1.29,  3.51999998,       -1.29,0.00240000011
      -1.285,  3.51999998,      -1.285,0.00439999998
       -1.28,  3.55999994,       -1.28,0.0027999999
      -1.275,  3.48000002,      -1.275,0.00240000011
       -1.27,  3.51999998,       -1.27,0.00159999996
      -1.265,  3.51999998,      -1.265,0.00240000011
       -1.26,  3.51999998,       -1.26,0.00240000011
      -1.255,  3.51999998,      -1.255,0.00359999994
       -1.25,  3.51999998,       -1.25,0.00240000011
      -1.245,  3.48000002,      -1.245,0.00319999992
       -1.24,  3.48000002,       -1.24,0.00159999996
      -1.235,  3.48000002,      -1.235,0.00439999998
       -1.23,  3.48000002,       -1.23,0.00400000019
      -1.225,  3.51999998,      -1.225,-0.00039999999
       -1.22,  3.51999998,       -1.22,0.00159999996
      -1.215,  3.51999998,      -1.215,0.00400000019
       -1.21,  3.51999998,       -1.21,0.00240000011
      -1.205,  3.51999998,      -1.205,0.0027999999
        -1.2,  3.51999998,        -1.2,0.00359999994
      -1.195,  3.44000006,      -1.195,0.00200000009
       -1.19,  3.51999998,       -1.19,0.0027999999
      -1.185,  3.48000002,      -1.185,0.00359999994
       -1.18,  3.51999998,       -1.18,0.00240000011
      -1.175,  3.44000006,      -1.175,0.00359999994
       -1.17,  3.51999998,       -1.17,0.00319999992
      -1.165,  3.48000002,      -1.165,0.00240000011
       -1.16,  3.48000002,       -1.16,0.00319999992
      -1.155,  3.48000002,      -1.155,0.00240000011
       -1.15,  3.51999998,       -1.15,0.00359999994
      -1.145,  3.51999998,      -1.145,0.00359999994
       -1.14,  3.51999998,       -1.14,0.00400000019
      -1.135,  3.48000002,      -1.135,0.00400000019
       -1.13,  3.51999998,       -1.13,0.00439999998
      -1.125,  3.51999998,      -1.125,0.00520000001
       -1.12,  3.51999998,       -1.12,0.00240000011
      -1.115,  3.51999998,      -1.115,0.00240000011
       -1.11,  3.51999998,       -1.11,0.00319999992
      -1.105,  3.48000002,      -1.105,0.00120000006
        -1.1,  3.51999998,        -1.1,0.00120000006
      -1.095,  3.48000002,      -1.095,0.00200000009
       -1.09,  3.51999998,       -1.09,0.00200000009
      -1.085,  3.48000002,      -1.085,0.00240000011
       -1.08,  3.51999998,       -1.08,0.00400000019
      -1.075,  3.51999998,      -1.075,0.00319999992
       -1.07,  3.51999998,       -1.07,0.00319999992
      -1.065,  3.48000002,      -1.065,0.00159999996
       -1.06,  3.55999994,       -1.06,0.00240000011
      -1.055,  3.44000006,      -1.055,0.00159999996
       -1.05,  3.48000002,       -1.05,           0
      -1.045,  3.48000002,      -1.045,0.00319999992
       -1.04,  3.55999994,       -1.04,0.00600000005
      -1.035,  3.48000002,      -1.035,0.00439999998
       -1.03,  3.51999998,       -1.03,0.00359999994
      -1.025,  3.51999998,      -1.025,0.00120000006
       -1.02,  3.51999998,       -1.02,0.00439999998
      -1.015,  3.48000002,      -1.015,0.00359999994
       -1.01,  3.51999998,       -1.01,0.00359999994
      -1.005,  3.51999998,      -1.005,0.00159999996
          -1,  3.48000002,          -1,0.00439999998
      -0.995,  3.51999998,      -0.995,0.00319999992
       -0.99,  3.51999998,       -0.99,0.00319999992
      -0.985,  3.48000002,      -0.985,0.00439999998
       -0.98,  3.48000002,       -0.98,0.00439999998
      -0.975,  3.48000002,      -0.975,0.00400000019
       -0.97,  3.51999998,       -0.97,0.0027999999
      -0.965,  3.48000002,      -0.965,0.00359999994
       -0.96,  3.51999998,       -0.96,0.00520000001
      -0.955,  3.48000002,      -0.955,0.00520000001
       -0.95,  3.48000002,       -0.95,0.00439999998
      -0.945,  3.48000002,      -0.945,0.00520000001
       -0.94,  3.51999998,       -0.94,0.00200000009
      -0.935,  3.48000002,      -0.935,0.00480000023
       -0.93,  3.51999998,       -0.93,0.0055999998
      -0.925,  3.48000002,      -0.925,0.00439999998
       -0.92,  3.51999998,       -0.92,0.00359999994
      -0.915,  3.48000002,      -0.915,0.0027999999
       -0.91,  3.48000002,       -0.91,0.00480000023
      -0.905,  3.48000002,      -0.905,0.00359999994
        -0.9,  3.51999998,        -0.9,0.0027999999
      -0.895,  3.48000002,      -0.895,0.0055999998
       -0.89,  3.48000002,       -0.89,0.00520000001
      -0.885,  3.48000002,      -0.885,0.00439999998
       -0.88,  3.48000002,       -0.88,0.0027999999
      -0.875,  3.44000006,      -0.875,0.00439999998
       -0.87,  3.48000002,       -0.87,0.00480000023
      -0.865,  3.44000006,      -0.865,0.00600000005
       -0.86,  3.48000002,       -0.86,0.00680000009
      -0.855,  3.44000006,      -0.855,0.00480000023
       -0.85,  3.48000002,       -0.85,0.00439999998
      -0.845,  3.48000002,      -0.845,0.00520000001
       -0.84,  3.48000002,       -0.84,0.00439999998
      -0.835,  3.48000002,      -0.835,0.00639999984
       -0.83,  3.51999998,       -0.83,0.00400000019
      -0.825,  3.48000002,      -0.825,0.00600000005
       -0.82,  3.48000002,       -0.82,0.00719999988
      -0.815,  3.48000002,      -0.815,0.00240000011
       -0.81,  3.44000006,       -0.81,0.00520000001
      -0.805,  3.44000006,      -0.805,0.00600000005
        -0.8,  3.51999998,        -0.8,0.00600000005
      -0.795,  3.48000002,      -0.795,0.00480000023
       -0.79,  3.48000002,       -0.79,0.0055999998
      -0.785,  3.44000006,      -0.785,0.00600000005
       -0.78,  3.48000002,       -0.78,0.00719999988
      -0.775,  3.44000006,      -0.775,0.00520000001
       -0.77,  3.48000002,       -0.77,0.00520000001
      -0.765,  3.44000006,      -0.765,0.00879999995
       -0.76,  3.48000002,       -0.76,0.00520000001
      -0.755,  3.44000006,      -0.755,0.00639999984
       -0.75,  3.44000006,       -0.75,0.00600000005
      -0.745,  3.44000006,      -0.745,0.00760000013
       -0.74,  3.51999998,       -0.74,0.00600000005
      -0.735,  3.48000002,      -0.735,0.00600000005
       -0.73,  3.48000002,       -0.73,0.00600000005
      -0.725,  3.48000002,      -0.725,0.00600000005
       -0.72,  3.51999998,       -0.72,0.00639999984
      -0.715,  3.48000002,      -0.715,0.00680000009
       -0.71,  3.48000002,       -0.71,0.00480000023
      -0.705,  3.44000006,      -0.705,0.00480000023
        -0.7,  3.44000006,        -0.7,0.0055999998
      -0.695,  3.48000002,      -0.695,0.00520000001
       -0.69,  3.51999998,       -0.69,0.0083999997
      -0.685,  3.44000006,      -0.685,0.00760000013
       -0.68,  3.48000002,       -0.68,0.00879999995
      -0.675,  3.44000006,      -0.675,0.00719999988
       -0.67,  3.44000006,       -0.67,0.0083999997
      -0.665,  3.44000006,      -0.665,0.00719999988
       -0.66,  3.44000006,       -0.66,0.0092000002
      -0.655,  3.44000006,      -0.655,0.00800000038
       -0.65,  3.48000002,       -0.65,0.00999999978
      -0.645,  3.44000006,      -0.645,0.00600000005
       -0.64,  3.44000006,       -0.64,0.00760000013
      -0.635,  3.44000006,      -0.635,0.00600000005
       -0.63,  3.48000002,       -0.63,0.0055999998
      -0.625,  3.44000006,      -0.625,0.0092000002
       -0.62,  3.48000002,       -0.62,0.00719999988
      -0.615,  3.44000006,      -0.615,0.00760000013
       -0.61,  3.44000006,       -0.61,0.00879999995
      -0.605,   3.4000001,      -0.605,0.00760000013
        -0.6,  3.44000006,        -0.6,0.00719999988
      -0.595,  3.48000002,      -0.595,      0.0104
       -0.59,  3.44000006,       -0.59,0.00800000038
      -0.585,  3.44000006,      -0.585,0.00719999988
       -0.58,  3.48000002,       -0.58,0.0083999997
      -0.575,   3.4000001,      -0.575,0.00680000009
       -0.57,  3.44000006,       -0.57,0.00680000009
      -0.565,  3.44000006,      -0.565,0.0083999997
       -0.56,  3.48000002,       -0.56,      0.0104
      -0.555,   3.4000001,      -0.555,0.00680000009
       -0.55,  3.44000006,       -0.55,0.00879999995
      -0.545,  3.44000006,      -0.545,0.00960000046
       -0.54,  3.44000006,       -0.54,0.00600000005
      -0.535,  3.44000006,      -0.535,0.00639999984
       -0.53,  3.44000006,       -0.53,0.0108000003
      -0.525,  3.44000006,      -0.525,0.0092000002
       -0.52,  3.48000002,       -0.52,0.0092000002
      -0.515,  3.48000002,      -0.515,0.00999999978
       -0.51,  3.44000006,       -0.51,0.00960000046
      -0.505,  3.44000006,      -0.505,      0.0104
        -0.5,  3.44000006,        -0.5,      0.0104
      -0.495,   3.4000001,      -0.495,0.00999999978
       -0.49,  3.44000006,       -0.49,0.00800000038
      -0.485,  3.44000006,      -0.485,0.0092000002
       -0.48,  3.44000006,       -0.48,0.0108000003
      -0.475,   3.4000001,      -0.475,0.0111999996
       -0.47,  3.48000002,       -0.47,0.0115999999
      -0.465,   3.4000001,      -0.465,0.0111999996
       -0.46,  3.44000006,       -0.46,0.0092000002
      -0.455,   3.4000001,      -0.455,0.0127999997
       -0.45,  3.44000006,       -0.45,0.00800000038
      -0.445,   3.4000001,      -0.445,0.0108000003
       -0.44,  3.44000006,       -0.44,0.0124000004
      -0.435,   3.4000001,      -0.435,0.00960000046
       -0.43,  3.44000006,       -0.43,0.00999999978
      -0.425,   3.4000001,      -0.425,0.00960000046
       -0.42,   3.4000001,       -0.42,0.00879999995
      -0.415,   3.4000001,      -0.415,      0.0104
       -0.41,  3.44000006,       -0.41,0.0111999996
      -0.405,   3.4000001,      -0.405,      0.0104
        -0.4,  3.44000006,        -0.4,0.0120000001
      -0.395,   3.4000001,      -0.395,0.0136000002
       -0.39,   3.4000001,       -0.39,      0.0148
      -0.385,   3.4000001,      -0.385,0.0108000003
       -0.38,   3.4000001,       -0.38,0.0115999999
      -0.375,   3.4000001,      -0.375,0.0120000001
       -0.37,   3.4000001,       -0.37,0.0120000001
      -0.365,   3.4000001,      -0.365,0.0131999999
       -0.36,   3.4000001,       -0.36,0.0127999997
      -0.355,   3.3599999,      -0.355,0.0120000001
       -0.35,   3.4000001,       -0.35,0.0152000003
      -0.345,   3.3599999,      -0.345,0.0179999992
       -0.34,   3.3599999,       -0.34,      0.0148
      -0.335,  3.31999993,      -0.335,0.0179999992
       -0.33,   3.3599999,       -0.33,0.0131999999
      -0.325,  3.31999993,      -0.325,0.0160000008
       -0.32,   3.3599999,       -0.32,0.0164000001
      -0.315,  3.31999993,      -0.315,0.0155999996
       -0.31,  3.31999993,       -0.31,0.0172000006
      -0.305,  3.27999997,      -0.305,0.0175999999
        -0.3,  3.31999993,        -0.3,0.0164000001
      -0.295,  3.31999993,      -0.295,0.0155999996
       -0.29,  3.31999993,       -0.29,0.0175999999
      -0.285,  3.27999997,      -0.285,0.0167999994
       -0.28,  3.31999993,       -0.28,0.0179999992
      -0.275,  3.27999997,      -0.275,0.0164000001
       -0.27,   3.3599999,       -0.27,0.0172000006
      -0.265,  3.27999997,      -0.265,0.0179999992
       -0.26,   3.3599999,       -0.26,0.0192000009
      -0.255,  3.20000005,      -0.255,0.0172000006
       -0.25,   3.3599999,       -0.25,0.0167999994
      -0.245,  3.24000001,      -0.245,0.0187999997
       -0.24,  3.31999993,       -0.24,0.0184000004
      -0.235,  3.24000001,      -0.235,0.0184000004
       -0.23,  3.27999997,       -0.23,0.0187999997
      -0.225,  3.07999992,      -0.225,0.0208000001
       -0.22,  3.24000001,       -0.22,0.0231999997
      -0.215,  3.07999992,      -0.215,0.0196000002
       -0.21,  3.20000005,       -0.21,0.0184000004
      -0.205,  3.07999992,      -0.205,0.0164000001
        -0.2,  3.20000005,        -0.2,0.0216000006
      -0.195,  3.07999992,      -0.195,0.0196000002
       -0.19,  3.16000009,       -0.19,0.0231999997
      -0.185,  3.03999996,      -0.185,0.0196000002
       -0.18,  3.16000009,       -0.18,0.0208000001
      -0.175,           3,      -0.175,0.0208000001
       -0.17,  2.96000004,       -0.17,0.0216000006
      -0.165,  2.72000003,      -0.165,0.0196000002
       -0.16,  2.79999995,       -0.16,0.0228000004
      -0.155,   2.6400001,      -0.155,0.0231999997
       -0.15,  2.75999999,       -0.15,0.0228000004
      -0.145,   2.5999999,      -0.145,0.0216000006
       -0.14,   2.6400001,       -0.14,0.0223999992
      -0.135,  2.48000002,      -0.135,0.0243999995
       -0.13,  2.55999994,       -0.13,0.0236000009
      -0.125,   2.4000001,      -0.125,0.0236000009
       -0.12,  2.48000002,       -0.12,0.0231999997
      -0.115,  2.27999997,      -0.115,0.0231999997
       -0.11,   2.4000001,       -0.11,0.0248000007
      -0.105,  2.31999993,      -0.105,0.0231999997
        -0.1,  2.31999993,        -0.1,0.0260000005
      -0.095,  2.27999997,      -0.095,0.0240000002
       -0.09,  2.31999993,       -0.09,      0.0252
      -0.085,  2.16000009,      -0.085,0.0248000007
       -0.08,  2.16000009,       -0.08,0.0263999999
      -0.075,  1.96000004,      -0.075,0.0263999999
       -0.07,  2.07999992,       -0.07,0.0255999994
      -0.065,  1.96000004,      -0.065,      0.0252
       -0.06,  2.03999996,       -0.06,0.0267999992
      -0.055,  1.96000004,      -0.055,0.0267999992
       -0.05,  1.84000003,       -0.05,0.0280000009
      -0.045,  1.72000003,      -0.045,0.0267999992
       -0.04,        1.88,       -0.04,0.0272000004
      -0.035,  1.75999999,      -0.035,0.0248000007
       -0.03,  1.84000003,       -0.03,0.0284000002
      -0.025,  1.55999994,      -0.025,0.0272000004
       -0.02,  1.55999994,       -0.02,0.0263999999
      -0.015,  1.48000002,      -0.015,      0.0252
       -0.01,  1.55999994,       -0.01,0.0287999995
      -0.005,  1.44000006,      -0.005,0.0243999995
           0,  1.51999998,           0,      0.0296
       0.005,  1.48000002,       0.005,0.0267999992
        0.01,  1.51999998,        0.01,0.0263999999
       0.015,  1.48000002,       0.015,0.0284000002
        0.02,  1.36000001,        0.02,0.0292000007
       0.025,  1.24000001,       0.025,0.0284000002
        0.03,  1.32000005,        0.03,      0.0296
       0.035, 0.920000017,       0.035,      0.0296
        0.04,           1,        0.04,0.0304000005
       0.045, 0.800000012,       0.045,0.0284000002
        0.05, 0.839999974,        0.05,0.0299999993
       0.055, 0.800000012,       0.055,      0.0296
        0.06, 0.720000029,        0.06,0.0331999995
       0.065, 0.680000007,       0.065,0.0287999995
        0.07,  0.75999999,        0.07,0.0320000015
       0.075, 0.560000002,       0.075,0.0324000008
        0.08, 0.600000024,        0.08,0.0315999985
       0.085, 0.560000002,       0.085,0.0307999998
        0.09, 0.519999981,        0.09,0.0335999988
       0.095, 0.280000001,       0.095,0.0315999985
         0.1, 0.319999993,         0.1,0.0331999995
       0.105, 0.159999996,       0.105,0.0328000002
        0.11, 0.200000003,        0.11,0.0364000015
       0.115, 0.159999996,       0.115,0.0344000012
        0.12, 0.159999996,        0.12,0.0364000015
       0.125, 0.159999996,       0.125,0.0311999992
        0.13, 0.200000003,        0.13,0.0344000012
       0.135, 0.119999997,       0.135,0.0320000015
        0.14, 0.200000003,        0.14,0.0379999988
       0.145, 0.159999996,       0.145,0.0359999985
        0.15, 0.159999996,        0.15,0.0364000015
       0.155, 0.159999996,       0.155,0.0331999995
        0.16, 0.319999993,        0.16,0.0340000018
       0.165, 0.319999993,       0.165,0.0311999992
        0.17, 0.360000014,        0.17,0.0320000015
       0.175, 0.280000001,       0.175,0.0331999995
        0.18, 0.319999993,        0.18,0.0351999998
       0.185, 0.239999995,       0.185,0.0299999993
        0.19, 0.280000001,        0.19,0.0315999985
       0.195, 0.280000001,       0.195,0.0311999992
         0.2, 0.319999993,         0.2,0.0328000002
       0.205, 0.319999993,       0.205,0.0307999998
        0.21, 0.319999993,        0.21,0.0331999995
       0.215, 0.280000001,       0.215,0.0315999985
        0.22, 0.280000001,        0.22,0.0324000008
       0.225,           0,       0.225,0.0372000001
        0.23,           0,        0.23,0.0355999991
       0.235,0.0399999991,       0.235,0.0344000012
        0.24,           0,        0.24,0.0388000011
       0.245,           0,       0.245,0.0340000018
        0.25,           0,        0.25,0.0395999998
       0.255,0.0399999991,       0.255,0.0359999985
        0.26,0.0799999982,        0.26,0.0372000001
       0.265,           0,       0.265,0.0348000005
        0.27,0.0399999991,        0.27,0.0399999991
       0.275,           0,       0.275,0.0368000008
        0.28,           0,        0.28,0.0359999985
       0.285,           0,       0.285,0.0359999985
        0.29,           0,        0.29,0.0375999995
       0.295,0.0399999991,       0.295,0.0364000015
         0.3,           0,         0.3,0.0399999991
       0.305,           0,       0.305,0.0375999995
        0.31,           0,        0.31,0.0368000008
       0.315,           0,       0.315,0.0368000008
        0.32,           0,        0.32,0.0403999984
       0.325,           0,       0.325,0.0372000001
        0.33,           0,        0.33,0.0416000001
       0.335,           0,       0.335,0.0344000012
        0.34,0.0399999991,        0.34,0.0403999984
       0.345,0.0399999991,       0.345,0.0359999985
        0.35,0.0399999991,        0.35,0.0364000015
       0.355,           0,       0.355,0.0355999991
        0.36,           0,        0.36,0.0384000018
       0.365,           0,       0.365,0.0351999998
        0.37,0.0399999991,        0.37,0.0392000005
       0.375,           0,       0.375,0.0348000005
        0.38,           0,        0.38,0.0384000018
       0.385,           0,       0.385,0.0340000018
        0.39,0.0399999991,        0.39,0.0395999998
       0.395,           0,       0.395,0.0351999998
         0.4,           0,         0.4,0.0395999998
       0.405,0.0399999991,       0.405,0.0364000015
        0.41,0.0399999991,        0.41,0.0379999988
       0.415,0.0399999991,       0.415,0.0355999991
        0.42,0.0399999991,        0.42,0.0359999985
       0.425,           0,       0.425,0.0331999995
        0.43,           0,        0.43,0.0351999998
       0.435,0.0399999991,       0.435,0.0335999988
        0.44,0.0399999991,        0.44,0.0384000018
       0.445,0.0399999991,       0.445,0.0364000015
        0.45,0.0399999991,        0.45,0.0395999998
       0.455,           0,       0.455,0.0348000005
        0.46,0.0399999991,        0.46,0.0359999985
       0.465,0.0399999991,       0.465,0.0344000012
        0.47,0.0399999991,        0.47,0.0379999988
       0.475,           0,       0.475,0.0355999991
        0.48,           0,        0.48,0.0351999998
       0.485,           0,       0.485,0.0375999995
        0.49,           0,        0.49,0.0384000018
       0.495,0.0399999991,       0.495,0.0372000001
         0.5,0.0399999991,         0.5,0.0388000011
       0.505,0.0399999991,       0.505,0.0359999985
        0.51,0.0399999991,        0.51,0.0395999998
       0.515,           0,       0.515,0.0359999985
        0.52,           0,        0.52,0.0392000005
       0.525,           0,       0.525,0.0351999998
        0.53,0.0399999991,        0.53,0.0372000001
       0.535,0.0399999991,       0.535,0.0364000015
        0.54,           0,        0.54,0.0395999998
       0.545,           0,       0.545,0.0359999985
        0.55,0.0399999991,        0.55,0.0384000018
       0.555,           0,       0.555,0.0368000008
        0.56,0.0399999991,        0.56,0.0384000018
       0.565,0.0399999991,       0.565,0.0355999991
        0.57,           0,        0.57,0.0392000005
       0.575,           0,       0.575,0.0375999995
        0.58,0.0399999991,        0.58,0.0388000011
       0.585,           0,       0.585,0.0351999998
        0.59,           0,        0.59,0.0372000001
       0.595,           0,       0.595,0.0364000015
         0.6,0.0799999982,         0.6,0.0392000005
       0.605,0.0399999991,       0.605,0.0351999998
        0.61,0.0399999991,        0.61,0.0375999995
       0.615,           0,       0.615,0.0355999991
        0.62,           0,        0.62,0.0364000015
       0.625,           0,       0.625,0.0348000005
        0.63,0.0399999991,        0.63,0.0375999995
       0.635,           0,       0.635,0.0348000005
        0.64,           0,        0.64,0.0392000005
       0.645,0.0399999991,       0.645,0.0364000015
        0.65,0.0399999991,        0.65,0.0399999991
       0.655,           0,       0.655,0.0372000001
        0.66,0.0399999991,        0.66,0.0384000018
       0.665,0.0399999991,       0.665,0.0359999985
        0.67,0.0399999991,        0.67,0.0372000001
       0.675,0.0399999991,       0.675,0.0359999985
        0.68,           0,        0.68,0.0375999995
       0.685,0.0399999991,       0.685,0.0344000012
        0.69,0.0399999991,        0.69,0.0384000018
       0.695,0.0399999991,       0.695,0.0351999998
         0.7,           0,         0.7,0.0359999985
       0.705,0.0399999991,       0.705,0.0351999998
        0.71,           0,        0.71,0.0392000005
       0.715,           0,       0.715,0.0355999991
        0.72,           0,        0.72,0.0379999988
       0.725,0.0399999991,       0.725,0.0344000012
        0.73,           0,        0.73,0.0388000011
       0.735,0.0399999991,       0.735,0.0355999991
        0.74,           0,        0.74,0.0392000005
       0.745,           0,       0.745,0.0351999998
        0.75,           0,        0.75,0.0368000008
       0.755,           0,       0.755,0.0351999998
        0.76,           0,        0.76,0.0375999995
       0.765,           0,       0.765,0.0355999991
        0.77,           0,        0.77,0.0379999988
       0.775,           0,       0.775,0.0344000012
        0.78,0.0399999991,        0.78,0.0395999998
       0.785,           0,       0.785,0.0348000005
        0.79,           0,        0.79,0.0379999988
       0.795,           0,       0.795,0.0340000018
         0.8,0.0399999991,         0.8,0.0375999995
       0.805,           0,       0.805,0.0348000005
        0.81,           0,        0.81,0.0379999988
       0.815,0.0399999991,       0.815,0.0348000005
        0.82,           0,        0.82,0.0388000011
       0.825,           0,       0.825,0.0331999995
        0.83,           0,        0.83,0.0379999988
       0.835,           0,       0.835,0.0328000002
        0.84,0.0399999991,        0.84,0.0384000018
       0.845,0.0399999991,       0.845,0.0340000018
        0.85,           0,        0.85,0.0388000011
       0.855,0.0399999991,       0.855,0.0324000008
        0.86,           0,        0.86,0.0368000008
       0.865,0.0399999991,       0.865,0.0368000008
        0.87,           0,        0.87,0.0372000001
       0.875,           0,       0.875,0.0348000005
        0.88,0.0399999991,        0.88,0.0351999998
       0.885,0.0399999991,       0.885,0.0344000012
        0.89,           0,        0.89,0.0368000008
       0.895,           0,       0.895,0.0340000018
         0.9,0.0399999991,         0.9,0.0388000011
       0.905,           0,       0.905,0.0340000018
        0.91,0.0399999991,        0.91,0.0375999995
       0.915,           0,       0.915,0.0348000005
        0.92,           0,        0.92,0.0359999985
       0.925,0.0399999991,       0.925,0.0348000005
        0.93,           0,        0.93,0.0351999998
       0.935,           0,       0.935,0.0331999995
        0.94,           0,        0.94,0.0388000011
       0.945,0.0399999991,       0.945,0.0351999998
        0.95,0.0399999991,        0.95,0.0368000008
       0.955,0.0399999991,       0.955,0.0375999995
        0.96,           0,        0.96,0.0379999988
       0.965,0.0399999991,       0.965,0.0348000005
        0.97,           0,        0.97,0.0375999995
       0.975,0.0399999991,       0.975,0.0355999991
        0.98,0.0399999991,        0.98,0.0399999991
       0.985,           0,       0.985,0.0348000005
        0.99,           0,        0.99,0.0392000005
       0.995,           0,       0.995,0.0348000005
           1,           0,           1,0.0379999988
       1.005,           0,       1.005,0.0331999995
        1.01,0.0399999991,        1.01,0.0368000008
       1.015,           0,       1.015,0.0372000001
        1.02,0.0399999991,        1.02,0.0368000008
       1.025,0.0399999991,       1.025,0.0351999998
        1.03,0.0399999991,        1.03,0.0388000011
       1.035,           0,       1.035,0.0368000008
        1.04,           0,        1.04,0.0379999988
       1.045,           0,       1.045,0.0348000005
        1.05,           0,        1.05,0.0379999988
       1.055,           0,       1.055,0.0372000001
        1.06,0.0399999991,        1.06,0.0375999995
       1.065,           0,       1.065,0.0351999998
        1.07,           0,        1.07,0.0368000008
       1.075,           0,       1.075,0.0348000005
        1.08,           0,        1.08,0.0372000001
       1.085,           0,       1.085,0.0348000005
        1.09,           0,        1.09,0.0372000001
       1.095,0.0399999991,       1.095,0.0340000018
         1.1,0.0399999991,         1.1,0.0379999988
       1.105,           0,       1.105,0.0351999998
        1.11,0.0399999991,        1.11,0.0375999995
       1.115,0.0399999991,       1.115,0.0340000018
        1.12,           0,        1.12,0.0379999988
       1.125,           0,       1.125,0.0348000005
        1.13,0.0399999991,        1.13,0.0364000015
       1.135,           0,       1.135,0.0348000005
        1.14,0.0399999991,        1.14,0.0392000005
       1.145,0.0399999991,       1.145,0.0351999998
        1.15,           0,        1.15,0.0372000001
       1.155,0.0399999991,       1.155,0.0348000005
        1.16,           0,        1.16,0.0372000001
       1.165,0.0399999991,       1.165,0.0351999998
        1.17,0.0399999991,        1.17,0.0364000015
       1.175,-0.0399999991,       1.175,0.0348000005
        1.18,           0,        1.18,0.0384000018
       1.185,0.0399999991,       1.185,0.0344000012
        1.19,           0,        1.19,0.0379999988
       1.195,           0,       1.195,0.0348000005
         1.2,           0,         1.2,0.0351999998
       1.205,           0,       1.205,0.0359999985
        1.21,0.0399999991,        1.21,0.0384000018
       1.215,0.0399999991,       1.215,0.0351999998
        1.22,           0,        1.22,0.0372000001
       1.225,           0,       1.225,0.0351999998
        1.23,0.0399999991,        1.23,0.0388000011
       1.235,0.0399999991,       1.235,0.0364000015
        1.24,0.0399999991,        1.24,0.0384000018
       1.245,           0,       1.245,0.0355999991
        1.25,           0,        1.25,0.0379999988
       1.255,           0,       1.255,0.0331999995
        1.26,           0,        1.26,0.0384000018
       1.265,0.0399999991,       1.265,0.0359999985
        1.27,0.0399999991,        1.27,0.0372000001
       1.275,           0,       1.275,0.0359999985
        1.28,           0,        1.28,0.0372000001
       1.285,0.0399999991,       1.285,0.0351999998
        1.29,           0,        1.29,0.0388000011
       1.295,-0.0399999991,       1.295,0.0335999988
         1.3,0.0399999991,         1.3,0.0368000008
       1.305,           0,       1.305,0.0351999998
        1.31,0.0399999991,        1.31,0.0379999988
       1.315,           0,       1.315,0.0340000018
        1.32,0.0399999991,        1.32,0.0359999985
       1.325,0.0399999991,       1.325,0.0368000008
        1.33,           0,        1.33,0.0355999991
       1.335,           0,       1.335,0.0335999988
        1.34,0.0399999991,        1.34,0.0372000001
       1.345,           0,       1.345,0.0375999995
        1.35,0.0399999991,        1.35,0.0355999991
       1.355,           0,       1.355,0.0359999985
        1.36,           0,        1.36,0.0364000015
       1.365,0.0399999991,       1.365,0.0359999985
        1.37,           0,        1.37,0.0379999988
       1.375,0.0399999991,       1.375,0.0359999985
        1.38,           0,        1.38,0.0392000005
       1.385,           0,       1.385,0.0359999985
        1.39,0.0399999991,        1.39,0.0388000011
       1.395,           0,       1.395,0.0355999991
         1.4,0.0399999991,         1.4,0.0364000015
       1.405,           0,       1.405,0.0348000005
        1.41,           0,        1.41,0.0375999995
       1.415,           0,       1.415,0.0340000018
        1.42,           0,        1.42,0.0388000011
       1.425,           0,       1.425,0.0348000005
        1.43,           0,        1.43,0.0384000018
       1.435,0.0399999991,       1.435,0.0351999998
        1.44,0.0399999991,        1.44,0.0375999995
       1.445,0.0399999991,       1.445,0.0368000008
        1.45,           0,        1.45,0.0388000011
       1.455,           0,       1.455,0.0315999985
        1.46,           0,        1.46,0.0375999995
       1.465,           0,       1.465,0.0331999995
        1.47,           0,        1.47,0.0372000001
       1.475,0.0399999991,       1.475,0.0375999995
        1.48,           0,        1.48,0.0388000011
       1.485,           0,       1.485,0.0355999991
        1.49,0.0399999991,        1.49,0.0364000015
       1.495,           0,       1.495,0.0364000015
         1.5,           0,         1.5,0.0359999985
       1.505,           0,       1.505,0.0340000018
        1.51,           0,        1.51,0.0379999988
       1.515,           0,       1.515,0.0344000012
        1.52,0.0399999991,        1.52,0.0372000001
       1.525,0.0399999991,       1.525,0.0359999985
        1.53,           0,        1.53,0.0388000011
       1.535,0.0399999991,       1.535,0.0344000012
        1.54,           0,        1.54,0.0379999988
       1.545,           0,       1.545,0.0348000005
        1.55,           0,        1.55,0.0368000008
       1.555,0.0399999991,       1.555,0.0364000015
        1.56,           0,        1.56,0.0372000001
       1.565,0.0399999991,       1.565,0.0364000015
        1.57,           0,        1.57,0.0375999995
       1.575,0.0399999991,       1.575,0.0340000018
        1.58,0.0399999991,        1.58,0.0372000001
       1.585,0.0399999991,       1.585,0.0340000018
        1.59,           0,        1.59,0.0375999995
       1.595,0.0399999991,       1.595,0.0348000005
         1.6,           0,         1.6,0.0379999988
       1.605,           0,       1.605,0.0355999991
        1.61,0.0399999991,        1.61,0.0359999985
       1.615,           0,       1.615,0.0331999995
        1.62,0.0399999991,        1.62,0.0359999985
       1.625,0.0399999991,       1.625,0.0364000015
        1.63,0.0399999991,        1.63,0.0364000015
       1.635,           0,       1.635,0.0372000001
        1.64,           0,        1.64,0.0388000011
       1.645,           0,       1.645,0.0348000005
        1.65,0.0399999991,        1.65,0.0372000001
       1.655,0.0399999991,       1.655,0.0348000005
        1.66,0.0399999991,        1.66,0.0364000015
       1.665,0.0399999991,       1.665,0.0344000012
        1.67,           0,        1.67,0.0384000018
       1.675,           0,       1.675,0.0331999995
        1.68,           0,        1.68,0.0372000001
       1.685,0.0399999991,       1.685,0.0355999991
        1.69,0.0399999991,        1.69,0.0384000018
       1.695,           0,       1.695,0.0340000018
         1.7,           0,         1.7,0.0355999991
       1.705,0.0399999991,       1.705,0.0348000005
        1.71,0.0399999991,        1.71,0.0372000001
       1.715,           0,       1.715,0.0375999995
        1.72,-0.0399999991,        1.72,0.0392000005
       1.725,           0,       1.725,0.0344000012
        1.73,0.0799999982,        1.73,0.0372000001
       1.735,0.0399999991,       1.735,0.0348000005
        1.74,0.0399999991,        1.74,0.0375999995
       1.745,0.0399999991,       1.745,0.0340000018
        1.75,0.0399999991,        1.75,0.0372000001
       1.755,0.0399999991,       1.755,0.0331999995
        1.76,0.0399999991,        1.76,0.0392000005
       1.765,0.0399999991,       1.765,0.0351999998
        1.77,0.0399999991,        1.77,0.0372000001
       1.775,           0,       1.775,0.0355999991
        1.78,0.0399999991,        1.78,0.0372000001
       1.785,           0,       1.785,0.0364000015
        1.79,-0.0399999991,        1.79,0.0375999995
       1.795,           0,       1.795,0.0355999991
         1.8,           0,         1.8,0.0364000015
       1.805,-0.0399999991,       1.805,0.0359999985
        1.81,0.0399999991,        1.81,0.0379999988
       1.815,0.0399999991,       1.815,0.0335999988
        1.82,           0,        1.82,0.0372000001
       1.825,           0,       1.825,0.0335999988
        1.83,           0,        1.83,0.0379999988
       1.835,           0,       1.835,0.0348000005
        1.84,           0,        1.84,0.0368000008
       1.845,           0,       1.845,0.0344000012
        1.85,-0.0399999991,        1.85,0.0379999988
       1.855,0.0399999991,       1.855,0.0351999998
        1.86,0.0399999991,        1.86,0.0375999995
       1.865,           0,       1.865,0.0351999998
        1.87,           0,        1.87,0.0372000001
       1.875,           0,       1.875,0.0340000018
        1.88,-0.0399999991,        1.88,0.0388000011
       1.885,0.0399999991,       1.885,0.0348000005
        1.89,           0,        1.89,0.0384000018
       1.895,           0,       1.895,0.0348000005
         1.9,0.0399999991,         1.9,0.0359999985
       1.905,0.0399999991,       1.905,0.0355999991
        1.91,0.0399999991,        1.91,0.0379999988
       1.915,           0,       1.915,0.0344000012
        1.92,           0,        1.92,0.0364000015
       1.925,           0,       1.925,0.0344000012
        1.93,           0,        1.93,0.0384000018
       1.935,           0,       1.935,0.0344000012
        1.94,0.0399999991,        1.94,0.0359999985
       1.945,           0,       1.945,0.0348000005
        1.95,           0,        1.95,0.0364000015
       1.955,0.0399999991,       1.955,0.0368000008
        1.96,           0,        1.96,0.0392000005
       1.965,0.0399999991,       1.965,0.0351999998
        1.97,0.0399999991,        1.97,0.0379999988
       1.975,           0,       1.975,0.0348000005
        1.98,           0,        1.98,0.0372000001
       1.985,           0,       1.985,0.0355999991
        1.99,0.0399999991,        1.99,0.0355999991
       1.995,           0,       1.995,0.0335999988
           2,0.0399999991,           2,0.0388000011
       2.005,           0,       2.005,0.0368000008
        2.01,           0,        2.01,0.0392000005
       2.015,0.0399999991,       2.015,0.0355999991
        2.02,           0,        2.02,0.0364000015
       2.025,           0,       2.025,0.0351999998
        2.03,           0,        2.03,0.0364000015
       2.035,0.0399999991,       2.035,0.0351999998
        2.04,           0,        2.04,0.0375999995
       2.045,0.0399999991,       2.045,0.0348000005
        2.05,0.0399999991,        2.05,0.0372000001
       2.055,           0,       2.055,0.0340000018
        2.06,0.0399999991,        2.06,0.0384000018
       2.065,           0,       2.065,0.0359999985
        2.07,           0,        2.07,0.0368000008
       2.075,           0,       2.075,0.0351999998
        2.08,           0,        2.08,0.0348000005
       2.085,           0,       2.085,0.0368000008
        2.09,0.0399999991,        2.09,0.0364000015
       2.095,           0,       2.095,0.0348000005
         2.1,           0,         2.1,0.0375999995
       2.105,           0,       2.105,0.0351999998
        2.11,0.0399999991,        2.11,0.0379999988
       2.115,0.0399999991,       2.115,0.0355999991
        2.12,           0,        2.12,0.0379999988
       2.125,0.0399999991,       2.125,0.0351999998
        2.13,           0,        2.13,0.0372000001
       2.135,0.0399999991,       2.135,0.0351999998
        2.14,           0,        2.14,0.0368000008
       2.145,           0,       2.145,0.0340000018
        2.15,0.0399999991,        2.15,0.0375999995
       2.155,           0,       2.155,0.0351999998
        2.16,           0,        2.16,0.0375999995
       2.165,           0,       2.165,0.0340000018
        2.17,-0.0399999991,        2.17,0.0364000015
       2.175,0.0399999991,       2.175,0.0324000008
        2.18,0.0399999991,        2.18,0.0364000015
       2.185,0.0399999991,       2.185,0.0359999985
        2.19,           0,        2.19,0.0379999988
       2.195,0.0399999991,       2.195,0.0351999998
         2.2,0.0399999991,         2.2,0.0355999991
       2.205,0.0399999991,       2.205,0.0368000008
        2.21,           0,        2.21,0.0364000015
       2.215,0.0399999991,       2.215,0.0348000005
        2.22,0.0399999991,        2.22,0.0351999998
       2.225,-0.0399999991,       2.225,0.0348000005
        2.23,0.0399999991,        2.23,0.0359999985
       2.235,0.0399999991,       2.235,0.0340000018
        2.24,           0,        2.24,0.0355999991
       2.245,           0,       2.245,0.0344000012
        2.25,           0,        2.25,0.0359999985
       2.255,           0,       2.255,0.0355999991
        2.26,           0,        2.26,0.0355999991
       2.265,0.0399999991,       2.265,0.0355999991
        2.27,           0,        2.27,0.0359999985
       2.275,0.0399999991,       2.275,0.0348000005
        2.28,           0,        2.28,0.0368000008
       2.285,           0,       2.285,0.0355999991
        2.29,           0,        2.29,0.0384000018
       2.295,0.0399999991,       2.295,0.0355999991
         2.3,           0,         2.3,0.0375999995
       2.305,           0,       2.305,0.0344000012
        2.31,0.0399999991,        2.31,0.0368000008
       2.315,0.0399999991,       2.315,0.0335999988
        2.32,0.0399999991,        2.32,0.0368000008
       2.325,           0,       2.325,0.0335999988
        2.33,0.0399999991,        2.33,0.0355999991
       2.335,0.0399999991,       2.335,0.0320000015
        2.34,           0,        2.34,0.0364000015
       2.345,           0,       2.345,0.0344000012
        2.35,0.0399999991,        2.35,0.0364000015
       2.355,           0,       2.355,0.0348000005
        2.36,0.0399999991,        2.36,0.0372000001
       2.365,0.0399999991,       2.365,0.0368000008
        2.37,0.0399999991,        2.37,0.0379999988
       2.375,0.0399999991,       2.375,0.0335999988
        2.38,0.0399999991,        2.38,0.0375999995
       2.385,           0,       2.385,0.0340000018
        2.39,           0,        2.39,0.0359999985
       2.395,           0,       2.395,0.0355999991
         2.4,           0,         2.4,0.0375999995
       2.405,           0,       2.405,0.0368000008
        2.41,           0,        2.41,0.0368000008
       2.415,           0,       2.415,0.0375999995
        2.42,           0,        2.42,0.0372000001
       2.425,-0.0399999991,       2.425,0.0348000005
        2.43,           0,        2.43,0.0359999985
       2.435,           0,       2.435,0.0355999991
        2.44,           0,        2.44,0.0379999988
       2.445,           0,       2.445,0.0344000012
        2.45,0.0399999991,        2.45,0.0355999991
       2.455,           0,       2.455,0.0351999998
        2.46,           0,        2.46,0.0348000005
       2.465,           0,       2.465,0.0348000005
        2.47,0.0399999991,        2.47,0.0364000015
       2.475,0.0399999991,       2.475,0.0335999988
        2.48,0.0399999991,        2.48,0.0359999985
       2.485,0.0399999991,       2.485,0.0351999998
        2.49,           0,        2.49,0.0375999995
       2.495,           0,       2.495,0.0344000012